/media/alexanderfernandes/6686E8B186E882C3/Users/alexanderfernandes/Code/Python/Ultrasound/venv/bin/python /media/alexanderfernandes/6686E8B186E882C3/Users/alexanderfernandes/Code/ultrasoundclassification/python/scripts/WaveletCoefficientClassification.py
AlexFingerMovement/FingerMovement/
numZcolumns [1, 2, 3, 4, 5, 6, 7, 8, 9, 10, 11, 12, 13, 14, 15, 16, 17, 18, 19, 20, 25, 40, 50, 60, 70, 80, 90, 100, 110, 120, 127]
numTrials 3
numFrames 180
frameGroupSize 3
/media/alexanderfernandes/6686E8B186E882C3/Users/alexanderfernandes/Code/Python/Ultrasound/venv/lib/python3.5/site-packages/sklearn/discriminant_analysis.py:388: UserWarning: Variables are collinear.
  warnings.warn("Variables are collinear.")
# zcols: 1
# samples: 900
# features: 1420
[[46 30 36 28 40]
 [37 88 13 24 18]
 [23 27 60 45 25]
 [18 13 45 83 21]
 [37  7 31 24 81]]
Accuracy: 0.3977777777777778
Elapsed Time: 00:00:10.84
# zcols: 2
# samples: 900
# features: 2840
[[ 85  62   9   2  22]
 [ 22 127  27   2   2]
 [  1  31  70  49  29]
 [  1   0  39 132   8]
 [  9  17  33  22  99]]
Accuracy: 0.57
Elapsed Time: 00:00:28.64
# zcols: 3
# samples: 900
# features: 4260
[[175   5   0   0   0]
 [ 10 165   3   1   1]
 [  0  22  98  39  21]
 [  0   0  24 139  17]
 [  0   7  27  33 113]]
Accuracy: 0.7666666666666667
Elapsed Time: 00:00:54.18
# zcols: 4
# samples: 900
# features: 5680
[[141  36   2   0   1]
 [ 38 127  12   3   0]
 [  0  47 111  21   1]
 [  0   1  29 136  14]
 [  3   4   8   3 162]]
Accuracy: 0.7522222222222222
Elapsed Time: 00:01:27.93
# zcols: 5
# samples: 900
# features: 7100
[[141  38   0   0   1]
 [ 27 145   7   1   0]
 [ 22  11 108  39   0]
 [  0   0  15 165   0]
 [  5   0   8   2 165]]
Accuracy: 0.8044444444444444
Elapsed Time: 00:02:14.07
# zcols: 6
# samples: 900
# features: 8520
[[148  24   0   0   8]
 [  2 168   2   1   7]
 [ 11  13  91  49  16]
 [  0   2  24 143  11]
 [ 13  11   0   1 155]]
Accuracy: 0.7833333333333333
Elapsed Time: 00:03:10.94
# zcols: 7
# samples: 900
# features: 9940
[[151   0   1   0  28]
 [  3 172   4   1   0]
 [  5  10 107  58   0]
 [  0   0  20 156   4]
 [ 18  11   3   8 140]]
Accuracy: 0.8066666666666666
Elapsed Time: 00:04:17.95
# zcols: 8
# samples: 900
# features: 11360
[[135  16   0   0  29]
 [ 17 163   0   0   0]
 [  8  27 110  34   1]
 [  0   0  25 151   4]
 [ 14   6  14   6 140]]
Accuracy: 0.7766666666666666
Elapsed Time: 00:05:34.93
# zcols: 9
# samples: 900
# features: 12780
[[155  24   0   0   1]
 [ 20 149  10   1   0]
 [ 12  35  80  53   0]
 [  0   0  18 161   1]
 [ 15   5  13   9 138]]
Accuracy: 0.7588888888888888
Elapsed Time: 00:06:54.15
# zcols: 10
# samples: 900
# features: 14200
[[140  28   4   0   8]
 [ 18 153   5   4   0]
 [ 13  27  93  47   0]
 [  0   0  30 150   0]
 [ 17   0   2   3 158]]
Accuracy: 0.7711111111111111
Elapsed Time: 00:08:19.96
# zcols: 11
# samples: 900
# features: 15620
[[123  32   1   0  24]
 [ 20 151   9   0   0]
 [ 18  19 106  37   0]
 [  0   1  26 135  18]
 [ 16   4   9   4 147]]
Accuracy: 0.7355555555555555
Elapsed Time: 00:09:55.84
# zcols: 12
# samples: 900
# features: 17040
[[121  32   1   0  26]
 [ 18 150   5   7   0]
 [ 13  26  96  41   4]
 [  0   0  25 144  11]
 [ 18   3  12  10 137]]
Accuracy: 0.72
Elapsed Time: 00:11:40.40
# zcols: 13
# samples: 900
# features: 18460
[[127  21   1   0  31]
 [ 20 145   5  10   0]
 [ 12  16 113  39   0]
 [  0   2  10 165   3]
 [ 21   7   3   3 146]]
Accuracy: 0.7733333333333333
Elapsed Time: 00:13:33.75
# zcols: 14
# samples: 900
# features: 19880
[[118  39   1   0  22]
 [ 18 158   0   4   0]
 [  9  15 105  51   0]
 [  0   1  19 159   1]
 [ 22   4  10   4 140]]
Accuracy: 0.7555555555555555
Elapsed Time: 00:15:35.52
# zcols: 15
# samples: 900
# features: 21300
[[125  18   0   0  37]
 [ 15 157   3   5   0]
 [  5   6 117  46   6]
 [  0   2  26 136  16]
 [ 20   4   7  11 138]]
Accuracy: 0.7477777777777778
Elapsed Time: 00:17:43.23
# zcols: 16
# samples: 900
# features: 22720
[[136  32   1   0  11]
 [ 16 160   0   4   0]
 [ 16  13 109  42   0]
 [  0   0  26 141  13]
 [ 19   6   2  10 143]]
Accuracy: 0.7655555555555555
Elapsed Time: 00:19:52.83
# zcols: 17
# samples: 900
# features: 24140
[[140  22   0   0  18]
 [ 23 152   1   4   0]
 [ 18   2 108  52   0]
 [  0   1  30 140   9]
 [ 20   2   8  12 138]]
Accuracy: 0.7533333333333333
Elapsed Time: 00:22:10.80
# zcols: 18
# samples: 900
# features: 25560
[[136  28   1   0  15]
 [ 22 140   4  14   0]
 [ 24   1 107  48   0]
 [  0   2  19 145  14]
 [ 20   2  12  13 133]]
Accuracy: 0.7344444444444445
Elapsed Time: 00:24:37.35
# zcols: 19
# samples: 900
# features: 26980
[[127  26   1   0  26]
 [ 19 159   1   1   0]
 [ 15   9  93  56   7]
 [  0   1  31 130  18]
 [ 17   7   8  16 132]]
Accuracy: 0.7122222222222222
Elapsed Time: 00:27:11.84
# zcols: 20
# samples: 900
# features: 28400
[[141  16   1   0  22]
 [ 23 155   0   2   0]
 [ 10   2 121  46   1]
 [  0   0  33 137  10]
 [ 20   9   2  10 139]]
Accuracy: 0.77
Elapsed Time: 00:29:54.21
# zcols: 25
# samples: 900
# features: 35500
[[131  27   2   0  20]
 [ 14 159   0   7   0]
 [  8   7 114  51   0]
 [  0   1  32 133  14]
 [ 19   4   3  16 138]]
Accuracy: 0.75
Elapsed Time: 00:33:18.86
# zcols: 40
# samples: 900
# features: 56800
[[144  24   0   0  12]
 [ 17 157   2   4   0]
 [ 11  16 107  46   0]
 [  0   1  34 136   9]
 [ 22   3   5  12 138]]
Accuracy: 0.7577777777777778
Elapsed Time: 00:38:48.83
# zcols: 50
# samples: 900
# features: 71000
[[152  22   0   0   6]
 [ 14 160   3   3   0]
 [ 12  18 107  43   0]
 [  0   1  33 134  12]
 [ 20   3  11  14 132]]
Accuracy: 0.7611111111111111
Elapsed Time: 00:45:41.86
# zcols: 60
# samples: 900
# features: 85200
[[148  21   1   0  10]
 [ 15 160   4   1   0]
 [ 11  16 109  42   2]
 [  0   1  35 133  11]
 [ 23   3   8  18 128]]
Accuracy: 0.7533333333333333
Elapsed Time: 00:53:58.11
# zcols: 70
# samples: 900
# features: 99400
[[155  15   1   0   9]
 [ 13 160   6   1   0]
 [ 12  21  99  47   1]
 [  0   1  35 134  10]
 [ 23   8  11  11 127]]
Accuracy: 0.75
Elapsed Time: 01:03:34.44
# zcols: 80
# samples: 900
# features: 113600
[[150  20   1   0   9]
 [ 10 161   8   1   0]
 [ 12  16 104  46   2]
 [  0   1  34 134  11]
 [ 23   8   8  11 130]]
Accuracy: 0.7544444444444445
Elapsed Time: 01:14:33.36
# zcols: 90
# samples: 900
# features: 127800
[[153  17   0   0  10]
 [ 12 157   9   2   0]
 [ 12  16 104  45   3]
 [  0   1  33 135  11]
 [ 22   8   9  13 128]]
Accuracy: 0.7522222222222222
Elapsed Time: 01:26:57.37
# zcols: 100
# samples: 900
# features: 142000
[[153  16   1   0  10]
 [ 11 160   7   2   0]
 [ 15  16 104  43   2]
 [  0   1  33 134  12]
 [ 23   8  10  11 128]]
Accuracy: 0.7544444444444445
Elapsed Time: 01:40:46.28
# zcols: 110
# samples: 900
# features: 156200
[[153  17   1   0   9]
 [  6 163   9   2   0]
 [ 13  16 102  47   2]
 [  0   1  31 137  11]
 [ 23   8  11  13 125]]
Accuracy: 0.7555555555555555
Elapsed Time: 01:56:00.79
# zcols: 120
# samples: 900
# features: 170400
[[155  16   0   0   9]
 [ 10 158  10   2   0]
 [ 13  16  99  49   3]
 [  0   1  32 136  11]
 [ 23   8  10  13 126]]
Accuracy: 0.7488888888888889
Elapsed Time: 02:12:41.23
# zcols: 127
# samples: 900
# features: 180340
[[157  15   0   0   8]
 [  9 159  10   2   0]
 [ 14  16  99  48   3]
 [  0   1  31 137  11]
 [ 22   8  10  14 126]]
Accuracy: 0.7533333333333333
Elapsed Time: 02:30:22.61
AlexRightFingerMovement/RightFingerMotions/
numZcolumns [1, 2, 3, 4, 5, 6, 7, 8, 9, 10, 11, 12, 13, 14, 15, 16, 17, 18, 19, 20, 25, 40, 50, 60, 70, 80, 90, 100, 110, 120, 127]
numTrials 3
numFrames 180
frameGroupSize 3
# zcols: 1
# samples: 900
# features: 1420
[[ 83  17  37  30  13]
 [  6  46  52  68   8]
 [ 26  30  80  37   7]
 [ 21  60  49  42   8]
 [ 16   6  21  25 112]]
Accuracy: 0.4033333333333333
Elapsed Time: 02:30:41.57
# zcols: 2
# samples: 900
# features: 2840
[[ 85  19  25  10  41]
 [ 21  62  64  31   2]
 [  1  37 112  22   8]
 [  3  83  39  54   1]
 [  9   3  18  29 121]]
Accuracy: 0.4822222222222222
Elapsed Time: 02:30:58.68
# zcols: 3
# samples: 900
# features: 4260
[[102  32  12   6  28]
 [ 11  72  52  45   0]
 [  4  15 141  20   0]
 [ 10  46  35  88   1]
 [ 18  11   0   7 144]]
Accuracy: 0.6077777777777778
Elapsed Time: 02:31:23.49
# zcols: 4
# samples: 900
# features: 5680
[[112  32   3  10  23]
 [ 10  55  84  29   2]
 [  2  22 128  28   0]
 [  1  51  56  61  11]
 [  4   7   3  13 153]]
Accuracy: 0.5655555555555556
Elapsed Time: 02:31:55.69
# zcols: 5
# samples: 900
# features: 7100
[[126  22  13   2  17]
 [  9  98  60  13   0]
 [  1  29 131  19   0]
 [  6  20  28 114  12]
 [ 28   6   1   6 139]]
Accuracy: 0.6755555555555556
Elapsed Time: 02:32:35.64
# zcols: 6
# samples: 900
# features: 8520
[[127  47   1   3   2]
 [ 16  99  46  19   0]
 [  1   4 145  30   0]
 [  7  32  56  78   7]
 [ 14   1   0   7 158]]
Accuracy: 0.6744444444444444
Elapsed Time: 02:33:23.28
# zcols: 7
# samples: 900
# features: 9940
[[131  34   0   0  15]
 [ 18 105  42  15   0]
 [  0  17 146  17   0]
 [  7  58  56  59   0]
 [  2   4   0   3 171]]
Accuracy: 0.68
Elapsed Time: 02:34:19.09
# zcols: 8
# samples: 900
# features: 11360
[[124   9   0  11  36]
 [  6 101  54  19   0]
 [  0  23 127  30   0]
 [  0  56  43  81   0]
 [ 17   0   0   5 158]]
Accuracy: 0.6566666666666666
Elapsed Time: 02:35:23.19
# zcols: 9
# samples: 900
# features: 12780
[[139  28   0   5   8]
 [ 14  91  39  36   0]
 [  0   6 158  16   0]
 [  0  36  29 115   0]
 [ 28   4   0   4 144]]
Accuracy: 0.7188888888888889
Elapsed Time: 02:36:34.89
# zcols: 10
# samples: 900
# features: 14200
[[142  10   0   1  27]
 [ 10  80  56  34   0]
 [  0   8 156  16   0]
 [  0  35  17 128   0]
 [ 33   4   0   3 140]]
Accuracy: 0.7177777777777777
Elapsed Time: 02:37:54.32
# zcols: 11
# samples: 900
# features: 15620
[[149  27   0   0   4]
 [ 15  92  52  21   0]
 [  0   7 154  19   0]
 [  0  49  45  86   0]
 [ 10   1   0   2 167]]
Accuracy: 0.72
Elapsed Time: 02:39:21.96
# zcols: 12
# samples: 900
# features: 17040
[[139  26   0   1  14]
 [ 12  94  46  28   0]
 [  0  12 151  17   0]
 [  1  32  35 104   8]
 [ 15   0   0   5 160]]
Accuracy: 0.72
Elapsed Time: 02:40:57.85
# zcols: 13
# samples: 900
# features: 18460
[[139  14   0   0  27]
 [  9  85  52  34   0]
 [  0  13 148  19   0]
 [  0  43  22 115   0]
 [ 12   2   0   1 165]]
Accuracy: 0.7244444444444444
Elapsed Time: 02:42:41.52
# zcols: 14
# samples: 900
# features: 19880
[[147  12   0   0  21]
 [  7 108  55  10   0]
 [  0   9 156  15   0]
 [  0  48  14 118   0]
 [  4   0   0   0 176]]
Accuracy: 0.7833333333333333
Elapsed Time: 02:44:33.09
# zcols: 15
# samples: 900
# features: 21300
[[150   2   0   1  27]
 [  4  85  45  46   0]
 [  0  14 151  15   0]
 [  0  51  24 105   0]
 [  6   0   0   0 174]]
Accuracy: 0.7388888888888889
Elapsed Time: 02:46:33.29
# zcols: 16
# samples: 900
# features: 22720
[[147  10   0   7  16]
 [  2  98  39  41   0]
 [  0  12 150  18   0]
 [  0  39  18 123   0]
 [ 16   0   0   0 164]]
Accuracy: 0.7577777777777778
Elapsed Time: 02:48:41.57
# zcols: 17
# samples: 900
# features: 24140
[[141  14   0   2  23]
 [  8  99  54  19   0]
 [  0   8 153  19   0]
 [  0  39  33 108   0]
 [  5   0   0   0 175]]
Accuracy: 0.7511111111111111
Elapsed Time: 02:50:57.88
# zcols: 18
# samples: 900
# features: 25560
[[146  18   0   1  15]
 [  9 104  49  18   0]
 [  0  13 148  19   0]
 [  1  30  26 123   0]
 [ 13   1   0   1 165]]
Accuracy: 0.7622222222222222
Elapsed Time: 02:53:22.76
# zcols: 19
# samples: 900
# features: 26980
[[148  16   0   4  12]
 [  6 110  51  13   0]
 [  0  16 144  20   0]
 [  0  45  15 120   0]
 [ 14   0   0   0 166]]
Accuracy: 0.7644444444444445
Elapsed Time: 02:55:55.87
# zcols: 20
# samples: 900
# features: 28400
[[143   1   0   0  36]
 [ 10 100  47  23   0]
 [  0  10 152  18   0]
 [  0  44  14 122   0]
 [  6   0   0   0 174]]
Accuracy: 0.7677777777777778
Elapsed Time: 02:58:36.20
# zcols: 25
# samples: 900
# features: 35500
[[144   8   0   0  28]
 [ 12  94  53  21   0]
 [  0  12 146  22   0]
 [  0  50  15 115   0]
 [  6   0   0   0 174]]
Accuracy: 0.7477777777777778
Elapsed Time: 03:01:57.91
# zcols: 40
# samples: 900
# features: 56800
[[141   7   0   0  32]
 [ 12 109  34  25   0]
 [  0   9 150  21   0]
 [  0  32  12 136   0]
 [  7   0   0   0 173]]
Accuracy: 0.7877777777777778
Elapsed Time: 03:07:26.85
# zcols: 50
# samples: 900
# features: 71000
[[144   6   0   0  30]
 [  8 121  26  25   0]
 [  0  11 148  21   0]
 [  0  34  14 132   0]
 [  6   0   0   0 174]]
Accuracy: 0.7988888888888889
Elapsed Time: 03:14:19.73
# zcols: 60
# samples: 900
# features: 85200
[[143   2   0   0  35]
 [ 13 116  26  25   0]
 [  0  11 148  21   0]
 [  0  32  11 137   0]
 [  5   0   0   1 174]]
Accuracy: 0.7977777777777778
Elapsed Time: 03:22:33.69
# zcols: 70
# samples: 900
# features: 99400
[[144   3   0   0  33]
 [ 14 119  28  19   0]
 [  0  11 147  22   0]
 [  0  31  11 138   0]
 [  4   0   0   1 175]]
Accuracy: 0.8033333333333333
Elapsed Time: 03:32:08.24
# zcols: 80
# samples: 900
# features: 113600
[[142   5   0   0  33]
 [ 10 115  30  25   0]
 [  0  12 146  22   0]
 [  0  31  13 136   0]
 [  4   0   0   1 175]]
Accuracy: 0.7933333333333333
Elapsed Time: 03:43:07.36
# zcols: 90
# samples: 900
# features: 127800
[[140   4   0   0  36]
 [ 11 118  26  25   0]
 [  0  10 148  22   0]
 [  0  34  10 136   0]
 [  8   0   0   1 171]]
Accuracy: 0.7922222222222223
Elapsed Time: 03:55:33.80
# zcols: 100
# samples: 900
# features: 142000
[[143   4   0   0  33]
 [ 11 122  25  22   0]
 [  0  10 147  23   0]
 [  0  30  11 139   0]
 [  8   0   0   0 172]]
Accuracy: 0.8033333333333333
Elapsed Time: 04:09:17.27
# zcols: 110
# samples: 900
# features: 156200
[[142   4   0   0  34]
 [ 12 122  26  20   0]
 [  0  11 148  21   0]
 [  0  29  11 140   0]
 [  8   0   0   0 172]]
Accuracy: 0.8044444444444444
Elapsed Time: 04:24:24.16
# zcols: 120
# samples: 900
# features: 170400
[[141   5   0   0  34]
 [ 10 122  25  23   0]
 [  0  12 146  22   0]
 [  0  29  11 140   0]
 [  8   0   0   0 172]]
Accuracy: 0.8011111111111111
Elapsed Time: 04:40:54.08
# zcols: 127
# samples: 900
# features: 180340
[[140   6   0   0  34]
 [ 10 123  24  23   0]
 [  0  10 148  22   0]
 [  0  30  11 139   0]
 [  8   0   0   0 172]]
Accuracy: 0.8022222222222222
Elapsed Time: 04:58:25.77
fm_sub1_l/FingerMotions/
numZcolumns [1, 2, 3, 4, 5, 6, 7, 8, 9, 10, 11, 12, 13, 14, 15, 16, 17, 18, 19, 20, 25, 40, 50, 60, 70, 80, 90, 100, 110, 120, 127]
numTrials 3
numFrames 180
frameGroupSize 3
# zcols: 1
# samples: 900
# features: 1420
[[108  41  12  13   6]
 [ 32  74  27  36  11]
 [ 20  27  58  62  13]
 [  7  26  48  57  42]
 [  8  16  12  39 105]]
Accuracy: 0.44666666666666666
Elapsed Time: 04:58:44.70
# zcols: 2
# samples: 900
# features: 2840
[[148  24   7   0   1]
 [ 49  95  26   6   4]
 [  3  35  82  57   3]
 [  2   4  44 103  27]
 [  5   1   2  25 147]]
Accuracy: 0.6388888888888888
Elapsed Time: 04:59:01.80
# zcols: 3
# samples: 900
# features: 4260
[[165  10   1   0   4]
 [ 31 102  44   1   2]
 [  0  48  84  48   0]
 [  0   6  34  90  50]
 [  2  27   0  24 127]]
Accuracy: 0.6311111111111111
Elapsed Time: 04:59:26.55
# zcols: 4
# samples: 900
# features: 5680
[[166  13   1   0   0]
 [ 21 114  41   4   0]
 [  0  25 111  44   0]
 [  0   6  28 136  10]
 [  1   2   1  23 153]]
Accuracy: 0.7555555555555555
Elapsed Time: 04:59:58.78
# zcols: 5
# samples: 900
# features: 7100
[[169   9   2   0   0]
 [ 13 123  24  20   0]
 [  0  32 127  21   0]
 [  0   2  21 110  47]
 [  0   0   3  20 157]]
Accuracy: 0.7622222222222222
Elapsed Time: 05:00:38.79
# zcols: 6
# samples: 900
# features: 8520
[[177   3   0   0   0]
 [ 18 125  37   0   0]
 [  0  27 132  21   0]
 [  0   0  26 118  36]
 [  0   0   0  30 150]]
Accuracy: 0.78
Elapsed Time: 05:01:26.76
# zcols: 7
# samples: 900
# features: 9940
[[175   5   0   0   0]
 [  1 155  19   5   0]
 [  0  17 143  20   0]
 [  0   2  27 108  43]
 [  0   0   1  39 140]]
Accuracy: 0.8011111111111111
Elapsed Time: 05:02:22.48
# zcols: 8
# samples: 900
# features: 11360
[[164  14   2   0   0]
 [ 20 111  46   2   1]
 [  0  28 134  18   0]
 [  0   0  14 125  41]
 [  0   0   1  21 158]]
Accuracy: 0.7688888888888888
Elapsed Time: 05:03:25.98
# zcols: 9
# samples: 900
# features: 12780
[[176   4   0   0   0]
 [ 14 141  25   0   0]
 [  0  21 152   7   0]
 [  0   0  16 127  37]
 [  0   0   0  33 147]]
Accuracy: 0.8255555555555556
Elapsed Time: 05:04:37.60
# zcols: 10
# samples: 900
# features: 14200
[[172   8   0   0   0]
 [ 13 143  24   0   0]
 [  0  26 140  14   0]
 [  0   1  15 124  40]
 [  0   0   0  21 159]]
Accuracy: 0.82
Elapsed Time: 05:05:57.57
# zcols: 11
# samples: 900
# features: 15620
[[172   8   0   0   0]
 [  5 152  23   0   0]
 [  0  24 147   9   0]
 [  0   0  17 117  46]
 [  0   0   0  36 144]]
Accuracy: 0.8133333333333334
Elapsed Time: 05:07:25.56
# zcols: 12
# samples: 900
# features: 17040
[[167  13   0   0   0]
 [ 12 140  28   0   0]
 [  0  19 151  10   0]
 [  0   0  31 116  33]
 [  0   8   0  46 126]]
Accuracy: 0.7777777777777778
Elapsed Time: 05:09:01.30
# zcols: 13
# samples: 900
# features: 18460
[[175   5   0   0   0]
 [  4 155  21   0   0]
 [  0  19 155   6   0]
 [  0   0  20 120  40]
 [  0   0   0  41 139]]
Accuracy: 0.8266666666666667
Elapsed Time: 05:10:45.37
# zcols: 14
# samples: 900
# features: 19880
[[169  11   0   0   0]
 [ 10 143  27   0   0]
 [  0  20 143  17   0]
 [  0   1  16 125  38]
 [  0   0   0  50 130]]
Accuracy: 0.7888888888888889
Elapsed Time: 05:12:37.73
# zcols: 15
# samples: 900
# features: 21300
[[177   3   0   0   0]
 [  9 135  36   0   0]
 [  0  25 130  25   0]
 [  0   0  32 113  35]
 [  0   0   6  48 126]]
Accuracy: 0.7566666666666667
Elapsed Time: 05:14:38.83
# zcols: 16
# samples: 900
# features: 22720
[[178   2   0   0   0]
 [ 11 139  30   0   0]
 [  0  19 153   8   0]
 [  0   0  28 112  40]
 [  0   0   0  30 150]]
Accuracy: 0.8133333333333334
Elapsed Time: 05:16:48.04
# zcols: 17
# samples: 900
# features: 24140
[[175   5   0   0   0]
 [ 12 137  31   0   0]
 [  0  21 156   3   0]
 [  0   0  30 115  35]
 [  0   0   0  33 147]]
Accuracy: 0.8111111111111111
Elapsed Time: 05:19:06.14
# zcols: 18
# samples: 900
# features: 25560
[[180   0   0   0   0]
 [ 10 141  28   1   0]
 [  0  23 152   5   0]
 [  0   0  35 102  43]
 [  0   0   0  44 136]]
Accuracy: 0.79
Elapsed Time: 05:21:31.49
# zcols: 19
# samples: 900
# features: 26980
[[178   2   0   0   0]
 [  8 131  41   0   0]
 [  0  23 154   3   0]
 [  0   1  25 124  30]
 [  0   0   0  48 132]]
Accuracy: 0.7988888888888889
Elapsed Time: 05:24:05.67
# zcols: 20
# samples: 900
# features: 28400
[[180   0   0   0   0]
 [  6 146  28   0   0]
 [  0  12 149  19   0]
 [  0   0  29 114  37]
 [  0   0   0  46 134]]
Accuracy: 0.8033333333333333
Elapsed Time: 05:26:47.30
# zcols: 25
# samples: 900
# features: 35500
[[177   3   0   0   0]
 [  6 143  31   0   0]
 [  0  22 154   4   0]
 [  0   0  30 118  32]
 [  0   0   0  39 141]]
Accuracy: 0.8144444444444444
Elapsed Time: 05:30:10.46
# zcols: 40
# samples: 900
# features: 56800
[[180   0   0   0   0]
 [  7 132  40   1   0]
 [  0  16 154  10   0]
 [  0   0  34 111  35]
 [  0   0   0  50 130]]
Accuracy: 0.7855555555555556
Elapsed Time: 05:35:38.96
# zcols: 50
# samples: 900
# features: 71000
[[180   0   0   0   0]
 [  8 123  48   1   0]
 [  0  19 152   9   0]
 [  0   0  34 113  33]
 [  0   0   0  46 134]]
Accuracy: 0.78
Elapsed Time: 05:42:30.35
# zcols: 60
# samples: 900
# features: 85200
[[180   0   0   0   0]
 [  9 127  43   1   0]
 [  0  19 154   7   0]
 [  0   1  36 111  32]
 [  0   1   0  46 133]]
Accuracy: 0.7833333333333333
Elapsed Time: 05:50:44.16
# zcols: 70
# samples: 900
# features: 99400
[[180   0   0   0   0]
 [  8 130  41   1   0]
 [  0  22 150   8   0]
 [  0   0  36 112  32]
 [  0   0   0  47 133]]
Accuracy: 0.7833333333333333
Elapsed Time: 06:00:20.17
# zcols: 80
# samples: 900
# features: 113600
[[180   0   0   0   0]
 [  9 123  47   1   0]
 [  0  20 152   8   0]
 [  0   0  37 112  31]
 [  0   0   0  46 134]]
Accuracy: 0.7788888888888889
Elapsed Time: 06:11:20.74
# zcols: 90
# samples: 900
# features: 127800
[[180   0   0   0   0]
 [  9 123  47   1   0]
 [  0  21 151   8   0]
 [  0   2  36 110  32]
 [  0   0   0  45 135]]
Accuracy: 0.7766666666666666
Elapsed Time: 06:23:43.90
# zcols: 100
# samples: 900
# features: 142000
[[180   0   0   0   0]
 [ 10 120  49   1   0]
 [  0  21 151   8   0]
 [  0   1  35 114  30]
 [  0   0   0  44 136]]
Accuracy: 0.7788888888888889
Elapsed Time: 06:37:31.02
# zcols: 110
# samples: 900
# features: 156200
[[180   0   0   0   0]
 [ 10 119  50   1   0]
 [  0  21 151   8   0]
 [  0   2  35 113  30]
 [  0   0   0  45 135]]
Accuracy: 0.7755555555555556
Elapsed Time: 06:52:38.36
# zcols: 120
# samples: 900
# features: 170400
[[180   0   0   0   0]
 [  9 123  47   1   0]
 [  0  21 151   8   0]
 [  0   2  36 110  32]
 [  0   0   0  44 136]]
Accuracy: 0.7777777777777778
Elapsed Time: 07:09:08.66
# zcols: 127
# samples: 900
# features: 180340
[[180   0   0   0   0]
 [ 11 119  49   1   0]
 [  0  21 151   8   0]
 [  0   1  35 113  31]
 [  0   0   0  44 136]]
Accuracy: 0.7766666666666666
Elapsed Time: 07:26:41.68
fm_sub1_r/FingerMotions/
numZcolumns [1, 2, 3, 4, 5, 6, 7, 8, 9, 10, 11, 12, 13, 14, 15, 16, 17, 18, 19, 20, 25, 40, 50, 60, 70, 80, 90, 100, 110, 120, 127]
numTrials 3
numFrames 180
frameGroupSize 3
# zcols: 1
# samples: 900
# features: 1420
[[107   5   4  52  12]
 [ 23  89  39  18  11]
 [  1  55  85  28  11]
 [  4  11  67  82  16]
 [  3  14  43  17 103]]
Accuracy: 0.5177777777777778
Elapsed Time: 07:27:00.41
# zcols: 2
# samples: 900
# features: 2840
[[132   9   2  12  25]
 [  5  83  63  29   0]
 [  1  49 115  14   1]
 [  9  13  32 109  17]
 [  1   0   2   7 170]]
Accuracy: 0.6766666666666666
Elapsed Time: 07:27:17.49
# zcols: 3
# samples: 900
# features: 4260
[[132   2  22   6  18]
 [  9 143  19   8   1]
 [  0  49 103  28   0]
 [  0  16  43 109  12]
 [  2   1   9  20 148]]
Accuracy: 0.7055555555555556
Elapsed Time: 07:27:42.19
# zcols: 4
# samples: 900
# features: 5680
[[162  12   2   4   0]
 [  3 141  30   6   0]
 [  0  34 127  16   3]
 [  0   5  17 143  15]
 [  0   1   0  15 164]]
Accuracy: 0.8188888888888889
Elapsed Time: 07:28:14.54
# zcols: 5
# samples: 900
# features: 7100
[[134  21   4  14   7]
 [  3 142  35   0   0]
 [  0  30 125  24   1]
 [  0   2  21 151   6]
 [  0   0   1  11 168]]
Accuracy: 0.8
Elapsed Time: 07:28:54.70
# zcols: 6
# samples: 900
# features: 8520
[[147   8   3  21   1]
 [ 13 144  20   3   0]
 [  0  24 147   9   0]
 [  0   3   1 155  21]
 [  0   0   0   2 178]]
Accuracy: 0.8566666666666667
Elapsed Time: 07:29:42.78
# zcols: 7
# samples: 900
# features: 9940
[[164   0   2   0  14]
 [  4 162  14   0   0]
 [  0   8 157  15   0]
 [  0   1  19 153   7]
 [  0   0   0   5 175]]
Accuracy: 0.9011111111111111
Elapsed Time: 07:30:38.73
# zcols: 8
# samples: 900
# features: 11360
[[157  17   1   5   0]
 [ 13 142  23   2   0]
 [  0  23 141  15   1]
 [  0  16   3 158   3]
 [  0   0   0   3 177]]
Accuracy: 0.8611111111111112
Elapsed Time: 07:31:42.28
# zcols: 9
# samples: 900
# features: 12780
[[144  19  17   0   0]
 [  1 155  24   0   0]
 [  0  18 141  21   0]
 [  0   1   8 169   2]
 [  0   0   0   4 176]]
Accuracy: 0.8722222222222222
Elapsed Time: 07:32:53.89
# zcols: 10
# samples: 900
# features: 14200
[[165   2   0  10   3]
 [  2 155  22   1   0]
 [  0  27 134  19   0]
 [  0   3   4 170   3]
 [  0   0   0   3 177]]
Accuracy: 0.89
Elapsed Time: 07:34:13.54
# zcols: 11
# samples: 900
# features: 15620
[[135  38   1   5   1]
 [  0 156  24   0   0]
 [  0  24 140  16   0]
 [  0   3   4 168   5]
 [  0   0   0   2 178]]
Accuracy: 0.8633333333333333
Elapsed Time: 07:35:41.34
# zcols: 12
# samples: 900
# features: 17040
[[148  22   3   7   0]
 [  8 152  20   0   0]
 [  0  21 139  20   0]
 [  0   7   8 163   2]
 [  0   0   0   3 177]]
Accuracy: 0.8655555555555555
Elapsed Time: 07:37:16.75
# zcols: 13
# samples: 900
# features: 18460
[[157  18   3   2   0]
 [  0 159  20   1   0]
 [  0  15 144  21   0]
 [  0   1   4 166   9]
 [  0   0   0   6 174]]
Accuracy: 0.8888888888888888
Elapsed Time: 07:39:00.59
# zcols: 14
# samples: 900
# features: 19880
[[161   8   1   4   6]
 [  2 159  18   1   0]
 [  0  18 143  19   0]
 [  0   3   4 168   5]
 [  0   0   0   1 179]]
Accuracy: 0.9
Elapsed Time: 07:40:52.38
# zcols: 15
# samples: 900
# features: 21300
[[145  24   7   3   1]
 [  7 153  20   0   0]
 [  0  18 138  24   0]
 [  0   5   6 163   6]
 [  0   0   0   3 177]]
Accuracy: 0.8622222222222222
Elapsed Time: 07:42:52.14
# zcols: 16
# samples: 900
# features: 22720
[[152  17   5   0   6]
 [  8 156  16   0   0]
 [  0  20 145  15   0]
 [  0  17   2 154   7]
 [  0   0   0   2 178]]
Accuracy: 0.8722222222222222
Elapsed Time: 07:45:00.09
# zcols: 17
# samples: 900
# features: 24140
[[132  46   1   1   0]
 [  5 166   9   0   0]
 [  0  21 137  22   0]
 [  0   7   4 161   8]
 [  0   0   0   1 179]]
Accuracy: 0.8611111111111112
Elapsed Time: 07:47:16.77
# zcols: 18
# samples: 900
# features: 25560
[[151  23   1   4   1]
 [  5 149  26   0   0]
 [  0  20 138  22   0]
 [  0   4   2 163  11]
 [  0   0   0   2 178]]
Accuracy: 0.8655555555555555
Elapsed Time: 07:49:41.96
# zcols: 19
# samples: 900
# features: 26980
[[168  11   0   0   1]
 [  1 153  26   0   0]
 [  0  26 131  23   0]
 [  0   9   3 160   8]
 [  0   0   0   2 178]]
Accuracy: 0.8777777777777778
Elapsed Time: 07:52:15.16
# zcols: 20
# samples: 900
# features: 28400
[[150  10  17   2   1]
 [  1 152  27   0   0]
 [  0  21 134  25   0]
 [  0   6   5 154  15]
 [  0   0   0   4 176]]
Accuracy: 0.8511111111111112
Elapsed Time: 07:54:57.15
# zcols: 25
# samples: 900
# features: 35500
[[148  11  15   4   2]
 [  3 152  24   1   0]
 [  0  21 136  23   0]
 [  0  11   4 152  13]
 [  0   0   0   2 178]]
Accuracy: 0.8511111111111112
Elapsed Time: 07:58:21.10
# zcols: 40
# samples: 900
# features: 56800
[[146  14  15   4   1]
 [  2 149  29   0   0]
 [  0  22 132  26   0]
 [  0  11   6 148  15]
 [  0   0   0   2 178]]
Accuracy: 0.8366666666666667
Elapsed Time: 08:03:50.77
# zcols: 50
# samples: 900
# features: 71000
[[156   8  10   5   1]
 [  0 149  31   0   0]
 [  0  22 133  25   0]
 [  0   7   6 149  18]
 [  0   0   2   6 172]]
Accuracy: 0.8433333333333334
Elapsed Time: 08:10:44.39
# zcols: 60
# samples: 900
# features: 85200
[[157   6  13   4   0]
 [  0 148  32   0   0]
 [  0  24 132  24   0]
 [  0   6   5 150  19]
 [  0   0   2   8 170]]
Accuracy: 0.8411111111111111
Elapsed Time: 08:19:00.38
# zcols: 70
# samples: 900
# features: 99400
[[160   7  10   3   0]
 [  1 145  34   0   0]
 [  0  20 135  25   0]
 [  0   7   6 152  15]
 [  0   0   2   6 172]]
Accuracy: 0.8488888888888889
Elapsed Time: 08:28:42.41
# zcols: 80
# samples: 900
# features: 113600
[[159   7  12   2   0]
 [  1 143  36   0   0]
 [  0  23 133  24   0]
 [  0   7   6 149  18]
 [  0   0   3   6 171]]
Accuracy: 0.8388888888888889
Elapsed Time: 08:39:50.22
# zcols: 90
# samples: 900
# features: 127800
[[161   7   9   3   0]
 [  2 145  33   0   0]
 [  0  23 134  23   0]
 [  0   6   6 150  18]
 [  0   0   3   6 171]]
Accuracy: 0.8455555555555555
Elapsed Time: 08:52:20.77
# zcols: 100
# samples: 900
# features: 142000
[[164   6   7   3   0]
 [  1 147  32   0   0]
 [  0  25 132  23   0]
 [  0   5   7 155  13]
 [  0   0   3   8 169]]
Accuracy: 0.8522222222222222
Elapsed Time: 09:06:13.65
# zcols: 110
# samples: 900
# features: 156200
[[163   5   8   4   0]
 [  2 146  32   0   0]
 [  0  25 131  24   0]
 [  0   5   6 154  15]
 [  0   0   4   3 173]]
Accuracy: 0.8522222222222222
Elapsed Time: 09:21:33.05
# zcols: 120
# samples: 900
# features: 170400
[[163   6   8   3   0]
 [  3 148  29   0   0]
 [  0  25 131  24   0]
 [  0   6   6 154  14]
 [  0   0   5   5 170]]
Accuracy: 0.8511111111111112
Elapsed Time: 09:38:12.52
# zcols: 127
# samples: 900
# features: 180340
[[164   6   7   3   0]
 [  3 149  28   0   0]
 [  0  25 131  24   0]
 [  0   5   7 154  14]
 [  0   0   4   6 170]]
Accuracy: 0.8533333333333334
Elapsed Time: 09:55:51.48
fm_sub2_l/FingerMotions/
numZcolumns [1, 2, 3, 4, 5, 6, 7, 8, 9, 10, 11, 12, 13, 14, 15, 16, 17, 18, 19, 20, 25, 40, 50, 60, 70, 80, 90, 100, 110, 120, 127]
numTrials 3
numFrames 180
frameGroupSize 3
# zcols: 1
# samples: 900
# features: 1420
[[122  55   1   2   0]
 [ 10 127  13  21   9]
 [ 11  27 100  41   1]
 [  3  12  47 114   4]
 [  5   7   2  11 155]]
Accuracy: 0.6866666666666666
Elapsed Time: 09:56:10.26
# zcols: 2
# samples: 900
# features: 2840
[[121  53   4   2   0]
 [  2 164  12   2   0]
 [  1  32 127  20   0]
 [  0   4  40 134   2]
 [  0   1   2   5 172]]
Accuracy: 0.7977777777777778
Elapsed Time: 09:56:27.42
# zcols: 3
# samples: 900
# features: 4260
[[125  43  10   2   0]
 [  2 175   3   0   0]
 [  3   6 157  14   0]
 [  0   0  10 170   0]
 [  0   0   0   0 180]]
Accuracy: 0.8966666666666666
Elapsed Time: 09:56:52.12
# zcols: 4
# samples: 900
# features: 5680
[[135  42   3   0   0]
 [  0 177   3   0   0]
 [  0   8 167   5   0]
 [  0   0   7 173   0]
 [  0   0   0   0 180]]
Accuracy: 0.9244444444444444
Elapsed Time: 09:57:24.52
# zcols: 5
# samples: 900
# features: 7100
[[143  35   1   1   0]
 [  0 180   0   0   0]
 [  0   0 172   8   0]
 [  0   0   6 174   0]
 [  0   0   0   0 180]]
Accuracy: 0.9433333333333334
Elapsed Time: 09:58:04.48
# zcols: 6
# samples: 900
# features: 8520
[[151  26   0   3   0]
 [  0 179   1   0   0]
 [  0   1 173   6   0]
 [  0   0   6 174   0]
 [  0   0   0   0 180]]
Accuracy: 0.9522222222222222
Elapsed Time: 09:58:52.30
# zcols: 7
# samples: 900
# features: 9940
[[152  20   4   4   0]
 [  0 178   2   0   0]
 [  0   5 164  11   0]
 [  0   0   1 178   1]
 [  0   0   0   2 178]]
Accuracy: 0.9444444444444444
Elapsed Time: 09:59:47.96
# zcols: 8
# samples: 900
# features: 11360
[[173   5   0   2   0]
 [  0 178   2   0   0]
 [  0   2 168  10   0]
 [  0   1   4 173   2]
 [  0   0   0   0 180]]
Accuracy: 0.9688888888888889
Elapsed Time: 10:00:51.64
# zcols: 9
# samples: 900
# features: 12780
[[177   1   0   2   0]
 [  0 180   0   0   0]
 [  0   2 164  14   0]
 [  0   2  13 165   0]
 [  0   0   0   8 172]]
Accuracy: 0.9533333333333334
Elapsed Time: 10:02:03.05
# zcols: 10
# samples: 900
# features: 14200
[[165  14   1   0   0]
 [  0 180   0   0   0]
 [  0   2 171   7   0]
 [  0   3   5 172   0]
 [  0   0   0   0 180]]
Accuracy: 0.9644444444444444
Elapsed Time: 10:03:22.31
# zcols: 11
# samples: 900
# features: 15620
[[180   0   0   0   0]
 [  0 179   1   0   0]
 [  0   1 164  15   0]
 [  0   2  13 165   0]
 [  0   0   0   5 175]]
Accuracy: 0.9588888888888889
Elapsed Time: 10:04:49.25
# zcols: 12
# samples: 900
# features: 17040
[[179   1   0   0   0]
 [  1 179   0   0   0]
 [  0   2 166  12   0]
 [  0   1   3 176   0]
 [  0   0   0   0 180]]
Accuracy: 0.9777777777777777
Elapsed Time: 10:06:24.19
# zcols: 13
# samples: 900
# features: 18460
[[180   0   0   0   0]
 [  0 179   0   1   0]
 [  0   4 160  16   0]
 [  0   0   2 178   0]
 [  0   0   0   0 180]]
Accuracy: 0.9744444444444444
Elapsed Time: 10:08:07.26
# zcols: 14
# samples: 900
# features: 19880
[[179   0   0   1   0]
 [  1 178   1   0   0]
 [  0   0 167  13   0]
 [  0   1   2 177   0]
 [  0   0   0   0 180]]
Accuracy: 0.9788888888888889
Elapsed Time: 10:09:58.06
# zcols: 15
# samples: 900
# features: 21300
[[179   1   0   0   0]
 [  0 180   0   0   0]
 [  0   2 169   9   0]
 [  0   1   7 172   0]
 [  0   0   0   0 180]]
Accuracy: 0.9777777777777777
Elapsed Time: 10:11:58.42
# zcols: 16
# samples: 900
# features: 22720
[[180   0   0   0   0]
 [  0 180   0   0   0]
 [  0   1 166  13   0]
 [  0   1   8 171   0]
 [  0   0   0   2 178]]
Accuracy: 0.9722222222222222
Elapsed Time: 10:14:07.97
# zcols: 17
# samples: 900
# features: 24140
[[180   0   0   0   0]
 [  0 180   0   0   0]
 [  0   4 158  18   0]
 [  0   3   1 176   0]
 [  0   0   0   1 179]]
Accuracy: 0.97
Elapsed Time: 10:16:25.84
# zcols: 18
# samples: 900
# features: 25560
[[180   0   0   0   0]
 [  0 179   1   0   0]
 [  0   2 165  13   0]
 [  0   1   5 174   0]
 [  0   0   0   2 178]]
Accuracy: 0.9733333333333334
Elapsed Time: 10:18:51.45
# zcols: 19
# samples: 900
# features: 26980
[[180   0   0   0   0]
 [  0 180   0   0   0]
 [  0   3 166  11   0]
 [  0   2   5 173   0]
 [  0   0   0   5 175]]
Accuracy: 0.9711111111111111
Elapsed Time: 10:21:25.74
# zcols: 20
# samples: 900
# features: 28400
[[180   0   0   0   0]
 [  1 178   1   0   0]
 [  0   2 161  17   0]
 [  0   1   8 171   0]
 [  0   0   0   6 174]]
Accuracy: 0.96
Elapsed Time: 10:24:08.64
# zcols: 25
# samples: 900
# features: 35500
[[179   0   0   1   0]
 [  1 179   0   0   0]
 [  0   4 163  13   0]
 [  0   1   8 171   0]
 [  0   0   0   3 177]]
Accuracy: 0.9655555555555555
Elapsed Time: 10:27:33.67
# zcols: 40
# samples: 900
# features: 56800
[[175   0   0   5   0]
 [  0 176   1   3   0]
 [  0   7 155  18   0]
 [  0   1   6 173   0]
 [  0   0   0   7 173]]
Accuracy: 0.9466666666666667
Elapsed Time: 10:33:04.51
# zcols: 50
# samples: 900
# features: 71000
[[175   0   0   5   0]
 [  1 175   0   4   0]
 [  0   6 154  20   0]
 [  0   1   8 171   0]
 [  0   0   0   9 171]]
Accuracy: 0.94
Elapsed Time: 10:39:58.89
# zcols: 60
# samples: 900
# features: 85200
[[175   0   0   5   0]
 [  1 174   1   4   0]
 [  0   5 154  21   0]
 [  0   1   8 171   0]
 [  0   0   0   8 172]]
Accuracy: 0.94
Elapsed Time: 10:48:15.63
# zcols: 70
# samples: 900
# features: 99400
[[175   0   0   5   0]
 [  1 171   0   8   0]
 [  0   6 155  19   0]
 [  0   3   7 169   1]
 [  0   0   0   9 171]]
Accuracy: 0.9344444444444444
Elapsed Time: 10:57:57.16
# zcols: 80
# samples: 900
# features: 113600
[[172   0   0   8   0]
 [  1 170   1   8   0]
 [  0   6 154  20   0]
 [  0   2   8 170   0]
 [  0   0   0   8 172]]
Accuracy: 0.9311111111111111
Elapsed Time: 11:09:02.70
# zcols: 90
# samples: 900
# features: 127800
[[175   0   0   5   0]
 [  1 171   0   8   0]
 [  0   5 154  21   0]
 [  0   2   8 169   1]
 [  0   0   0   8 172]]
Accuracy: 0.9344444444444444
Elapsed Time: 11:21:32.96
# zcols: 100
# samples: 900
# features: 142000
[[174   0   0   6   0]
 [  1 171   0   8   0]
 [  0   6 154  20   0]
 [  0   3   7 169   1]
 [  0   0   0  10 170]]
Accuracy: 0.9311111111111111
Elapsed Time: 11:35:25.96
# zcols: 110
# samples: 900
# features: 156200
[[176   0   0   4   0]
 [  1 170   0   9   0]
 [  0   7 152  21   0]
 [  0   2   8 169   1]
 [  0   0   0   8 172]]
Accuracy: 0.9322222222222222
Elapsed Time: 11:50:45.97
# zcols: 120
# samples: 900
# features: 170400
[[174   0   0   6   0]
 [  1 170   1   8   0]
 [  0   8 150  22   0]
 [  0   2   9 168   1]
 [  0   0   0   8 172]]
Accuracy: 0.9266666666666666
Elapsed Time: 12:07:30.58
# zcols: 127
# samples: 900
# features: 180340
[[176   0   0   4   0]
 [  1 170   1   8   0]
 [  0   7 152  21   0]
 [  0   2   9 168   1]
 [  0   0   0   8 172]]
Accuracy: 0.9311111111111111
Elapsed Time: 12:25:11.38
fm_sub2_r/FingerMotions/
numZcolumns [1, 2, 3, 4, 5, 6, 7, 8, 9, 10, 11, 12, 13, 14, 15, 16, 17, 18, 19, 20, 25, 40, 50, 60, 70, 80, 90, 100, 110, 120, 127]
numTrials 3
numFrames 180
frameGroupSize 3
# zcols: 1
# samples: 900
# features: 1420
[[174   2   1   3   0]
 [  3  98  34  34  11]
 [  0  25  63  64  28]
 [  1  10  23 138   8]
 [  0  14  29  31 106]]
Accuracy: 0.6433333333333333
Elapsed Time: 12:25:30.05
# zcols: 2
# samples: 900
# features: 2840
[[175   1   0   1   3]
 [  3 164   6   5   2]
 [  0  10 118  51   1]
 [  0   0  29 148   3]
 [  0   2   1  18 159]]
Accuracy: 0.8488888888888889
Elapsed Time: 12:25:47.08
# zcols: 3
# samples: 900
# features: 4260
[[177   2   0   1   0]
 [  0 140  27  10   3]
 [  0  11 138  31   0]
 [  0   0  30 149   1]
 [  0   0   0  43 137]]
Accuracy: 0.8233333333333334
Elapsed Time: 12:26:11.74
# zcols: 4
# samples: 900
# features: 5680
[[178   2   0   0   0]
 [  4 112  59   3   2]
 [  0   6 129  45   0]
 [  0   2  29 149   0]
 [  0   1   0  30 149]]
Accuracy: 0.7966666666666666
Elapsed Time: 12:26:44.15
# zcols: 5
# samples: 900
# features: 7100
[[175   5   0   0   0]
 [  1 134  44   0   1]
 [  0   0 156  24   0]
 [  0   0  10 164   6]
 [  0   0   1  10 169]]
Accuracy: 0.8866666666666667
Elapsed Time: 12:27:24.20
# zcols: 6
# samples: 900
# features: 8520
[[170  10   0   0   0]
 [ 10 147  20   2   1]
 [  0   1 161  18   0]
 [  0   0   9 170   1]
 [  0   0   0  20 160]]
Accuracy: 0.8977777777777778
Elapsed Time: 12:28:12.19
# zcols: 7
# samples: 900
# features: 9940
[[180   0   0   0   0]
 [  0 150  30   0   0]
 [  0   0 155  25   0]
 [  0   0  18 162   0]
 [  0   0   1   2 177]]
Accuracy: 0.9155555555555556
Elapsed Time: 12:29:08.10
# zcols: 8
# samples: 900
# features: 11360
[[180   0   0   0   0]
 [  0 156  20   4   0]
 [  0   0 157  23   0]
 [  0   0  17 160   3]
 [  0   0   0  19 161]]
Accuracy: 0.9044444444444445
Elapsed Time: 12:30:11.79
# zcols: 9
# samples: 900
# features: 12780
[[180   0   0   0   0]
 [  1 157  22   0   0]
 [  0   0 155  25   0]
 [  0   0  12 168   0]
 [  0   0   0  10 170]]
Accuracy: 0.9222222222222223
Elapsed Time: 12:31:23.47
# zcols: 10
# samples: 900
# features: 14200
[[180   0   0   0   0]
 [  1 139  26  13   1]
 [  0   0 154  26   0]
 [  0   0  12 167   1]
 [  0   0   0   5 175]]
Accuracy: 0.9055555555555556
Elapsed Time: 12:32:42.97
# zcols: 11
# samples: 900
# features: 15620
[[180   0   0   0   0]
 [  0 142  37   1   0]
 [  0   0 163  17   0]
 [  0   0   8 170   2]
 [  0   0   0   7 173]]
Accuracy: 0.92
Elapsed Time: 12:34:10.13
# zcols: 12
# samples: 900
# features: 17040
[[178   2   0   0   0]
 [  2 144  29   5   0]
 [  0   0 154  26   0]
 [  0   0   9 171   0]
 [  0   0   0  11 169]]
Accuracy: 0.9066666666666666
Elapsed Time: 12:35:45.14
# zcols: 13
# samples: 900
# features: 18460
[[180   0   0   0   0]
 [  0 171   6   3   0]
 [  0   0 151  29   0]
 [  0   0  11 167   2]
 [  0   0   0  13 167]]
Accuracy: 0.9288888888888889
Elapsed Time: 12:37:27.73
# zcols: 14
# samples: 900
# features: 19880
[[180   0   0   0   0]
 [  0 139  24  17   0]
 [  0   0 156  24   0]
 [  0   0  13 163   4]
 [  0   0   0  12 168]]
Accuracy: 0.8955555555555555
Elapsed Time: 12:39:18.73
# zcols: 15
# samples: 900
# features: 21300
[[180   0   0   0   0]
 [  0 127  43   9   1]
 [  0   0 153  27   0]
 [  0   0   9 168   3]
 [  0   0   0  15 165]]
Accuracy: 0.8811111111111111
Elapsed Time: 12:41:17.23
# zcols: 16
# samples: 900
# features: 22720
[[180   0   0   0   0]
 [  1 131  27  21   0]
 [  0   0 156  24   0]
 [  0   0   8 163   9]
 [  0   0   0  12 168]]
Accuracy: 0.8866666666666667
Elapsed Time: 12:43:24.04
# zcols: 17
# samples: 900
# features: 24140
[[180   0   0   0   0]
 [  0 120  38  17   5]
 [  0   0 156  24   0]
 [  0   0   9 165   6]
 [  0   0   0   7 173]]
Accuracy: 0.8822222222222222
Elapsed Time: 12:45:40.39
# zcols: 18
# samples: 900
# features: 25560
[[180   0   0   0   0]
 [  0 121  43  16   0]
 [  0   0 158  22   0]
 [  0   0  10 164   6]
 [  0   0   0   9 171]]
Accuracy: 0.8822222222222222
Elapsed Time: 12:48:04.66
# zcols: 19
# samples: 900
# features: 26980
[[169  11   0   0   0]
 [  0 121  30  26   3]
 [  0   0 154  26   0]
 [  0   0   9 166   5]
 [  0   0   0   5 175]]
Accuracy: 0.8722222222222222
Elapsed Time: 12:50:36.98
# zcols: 20
# samples: 900
# features: 28400
[[178   0   0   2   0]
 [  0 127  30  21   2]
 [  0   0 157  23   0]
 [  0   0  10 168   2]
 [  0   0   0   7 173]]
Accuracy: 0.8922222222222222
Elapsed Time: 12:53:18.00
# zcols: 25
# samples: 900
# features: 35500
[[179   0   0   1   0]
 [  0 121  53   5   1]
 [  0   0 156  24   0]
 [  0   0   7 164   9]
 [  0   0   0   6 174]]
Accuracy: 0.8822222222222222
Elapsed Time: 12:56:41.26
# zcols: 40
# samples: 900
# features: 56800
[[180   0   0   0   0]
 [  0 120  30  30   0]
 [  0   0 154  26   0]
 [  0   0   8 163   9]
 [  0   0   0   8 172]]
Accuracy: 0.8766666666666667
Elapsed Time: 13:02:11.13
# zcols: 50
# samples: 900
# features: 71000
[[180   0   0   0   0]
 [  3 119  37  18   3]
 [  0   0 155  25   0]
 [  0   0  10 161   9]
 [  0   0   0   8 172]]
Accuracy: 0.8744444444444445
Elapsed Time: 13:09:08.66
# zcols: 60
# samples: 900
# features: 85200
[[180   0   0   0   0]
 [  0 123  36  16   5]
 [  0   0 154  26   0]
 [  0   0   9 162   9]
 [  0   0   0   7 173]]
Accuracy: 0.88
Elapsed Time: 13:17:25.44
# zcols: 70
# samples: 900
# features: 99400
[[180   0   0   0   0]
 [  0 131  33  14   2]
 [  0   0 154  26   0]
 [  0   0   9 162   9]
 [  0   0   0   7 173]]
Accuracy: 0.8888888888888888
Elapsed Time: 13:27:02.33
# zcols: 80
# samples: 900
# features: 113600
[[180   0   0   0   0]
 [  0 129  33  13   5]
 [  0   0 155  25   0]
 [  0   0   8 162  10]
 [  0   0   0   9 171]]
Accuracy: 0.8855555555555555
Elapsed Time: 13:38:07.33
# zcols: 90
# samples: 900
# features: 127800
[[180   0   0   0   0]
 [  0 131  33  11   5]
 [  0   0 154  26   0]
 [  0   0   8 163   9]
 [  0   0   0  10 170]]
Accuracy: 0.8866666666666667
Elapsed Time: 13:50:36.70
# zcols: 100
# samples: 900
# features: 142000
[[180   0   0   0   0]
 [  0 139  29   8   4]
 [  0   0 155  25   0]
 [  0   0   9 162   9]
 [  0   0   0  10 170]]
Accuracy: 0.8955555555555555
Elapsed Time: 14:04:27.93
# zcols: 110
# samples: 900
# features: 156200
[[180   0   0   0   0]
 [  0 139  27   9   5]
 [  0   0 154  26   0]
 [  0   0   8 163   9]
 [  0   0   0   8 172]]
Accuracy: 0.8977777777777778
Elapsed Time: 14:19:43.48
# zcols: 120
# samples: 900
# features: 170400
[[180   0   0   0   0]
 [  0 142  25   8   5]
 [  0   0 156  24   0]
 [  0   0   9 162   9]
 [  0   0   0  10 170]]
Accuracy: 0.9
Elapsed Time: 14:36:25.55
# zcols: 127
# samples: 900
# features: 180340
[[180   0   0   0   0]
 [  0 142  24   9   5]
 [  0   0 156  24   0]
 [  0   0   9 163   8]
 [  0   0   0  11 169]]
Accuracy: 0.9
Elapsed Time: 14:54:06.13
fm_sub3_l/FingerMotions/
numZcolumns [1, 2, 3, 4, 5, 6, 7, 8, 9, 10, 11, 12, 13, 14, 15, 16, 17, 18, 19, 20, 25, 40, 50, 60, 70, 80, 90, 100, 110, 120, 127]
numTrials 3
numFrames 180
frameGroupSize 3
# zcols: 1
# samples: 900
# features: 1420
[[149  16   2   4   9]
 [ 13  96   9  33  29]
 [ 29  10 109  17  15]
 [  7  25  20  95  33]
 [ 44  27  18  33  58]]
Accuracy: 0.5633333333333334
Elapsed Time: 14:54:24.80
# zcols: 2
# samples: 900
# features: 2840
[[140  34   0   0   6]
 [  8 126   9  22  15]
 [  0   0 159  20   1]
 [  0   0   6 129  45]
 [  3  17   4  61  95]]
Accuracy: 0.7211111111111111
Elapsed Time: 14:54:41.83
# zcols: 3
# samples: 900
# features: 4260
[[173   6   0   0   1]
 [  0 164  14   2   0]
 [  0   0 134  46   0]
 [  0   0   7 157  16]
 [  1   3   3  22 151]]
Accuracy: 0.8655555555555555
Elapsed Time: 14:55:06.48
# zcols: 4
# samples: 900
# features: 5680
[[172   8   0   0   0]
 [  1 176   0   0   3]
 [  0   0 164  16   0]
 [  0   0   1 173   6]
 [  4   2   3  19 152]]
Accuracy: 0.93
Elapsed Time: 14:55:38.75
# zcols: 5
# samples: 900
# features: 7100
[[176   4   0   0   0]
 [  4 172   1   0   3]
 [  0   0 177   3   0]
 [  0   1  11 142  26]
 [ 58   2  18   0 102]]
Accuracy: 0.8544444444444445
Elapsed Time: 14:56:18.75
# zcols: 6
# samples: 900
# features: 8520
[[165  15   0   0   0]
 [  2 175   3   0   0]
 [  0   0 133  42   5]
 [  0   0  14 154  12]
 [ 18   2  41   0 119]]
Accuracy: 0.8288888888888889
Elapsed Time: 14:57:06.49
# zcols: 7
# samples: 900
# features: 9940
[[177   3   0   0   0]
 [  0 178   0   0   2]
 [  0   0 177   2   1]
 [  0   5  10 147  18]
 [ 58  11   5   0 106]]
Accuracy: 0.8722222222222222
Elapsed Time: 14:58:01.85
# zcols: 8
# samples: 900
# features: 11360
[[170  10   0   0   0]
 [  0 180   0   0   0]
 [  0   0 167   6   7]
 [  0   0  13 164   3]
 [ 59   0   7   0 114]]
Accuracy: 0.8833333333333333
Elapsed Time: 14:59:05.22
# zcols: 9
# samples: 900
# features: 12780
[[145  34   0   0   1]
 [  0 180   0   0   0]
 [  0   0 173   3   4]
 [  0   0   6 174   0]
 [ 58   7  25   0  90]]
Accuracy: 0.8466666666666667
Elapsed Time: 15:00:16.52
# zcols: 10
# samples: 900
# features: 14200
[[154  25   0   0   1]
 [  0 164   4   0  12]
 [  0   0 174   6   0]
 [  0   2  30 148   0]
 [ 58  15   2   0 105]]
Accuracy: 0.8277777777777777
Elapsed Time: 15:01:35.58
# zcols: 11
# samples: 900
# features: 15620
[[174   5   0   0   1]
 [  0 173   6   0   1]
 [  0   1 179   0   0]
 [  0   1  49 129   1]
 [ 60   3   2   0 115]]
Accuracy: 0.8555555555555555
Elapsed Time: 15:03:02.75
# zcols: 12
# samples: 900
# features: 17040
[[179   1   0   0   0]
 [  0 156   8   0  16]
 [  0   0 168  11   1]
 [  0   0  37 143   0]
 [ 60  24  12   0  84]]
Accuracy: 0.8111111111111111
Elapsed Time: 15:04:37.48
# zcols: 13
# samples: 900
# features: 18460
[[169  11   0   0   0]
 [  0 141  33   0   6]
 [  0   7 173   0   0]
 [  0   0  49 130   1]
 [ 56   8   4   0 112]]
Accuracy: 0.8055555555555556
Elapsed Time: 15:06:20.62
# zcols: 14
# samples: 900
# features: 19880
[[175   5   0   0   0]
 [  2 146   0   0  32]
 [  0   0 163  17   0]
 [  0  10  11 159   0]
 [ 60  30   7   0  83]]
Accuracy: 0.8066666666666666
Elapsed Time: 15:08:12.20
# zcols: 15
# samples: 900
# features: 21300
[[178   2   0   0   0]
 [  0 153  15   0  12]
 [  0   4 164  11   1]
 [  0   2   6 171   1]
 [ 59  24   7   0  90]]
Accuracy: 0.84
Elapsed Time: 15:10:11.84
# zcols: 16
# samples: 900
# features: 22720
[[170  10   0   0   0]
 [  0 166   5   0   9]
 [  0   6 160  12   2]
 [  0   0  24 156   0]
 [ 60  21   0   0  99]]
Accuracy: 0.8344444444444444
Elapsed Time: 15:12:19.55
# zcols: 17
# samples: 900
# features: 24140
[[155  24   0   0   1]
 [  0 124  15   0  41]
 [  0   1 171   8   0]
 [  0   0  13 166   1]
 [ 60  22  28   0  70]]
Accuracy: 0.7622222222222222
Elapsed Time: 15:14:35.90
# zcols: 18
# samples: 900
# features: 25560
[[170  10   0   0   0]
 [  1 146   6   0  27]
 [  0   0 172   8   0]
 [  0   0  15 164   1]
 [ 60  27  26   0  67]]
Accuracy: 0.7988888888888889
Elapsed Time: 15:16:59.68
# zcols: 19
# samples: 900
# features: 26980
[[170   8   0   0   2]
 [  0 159  20   0   1]
 [  0   5 171   4   0]
 [  0   1  38 141   0]
 [ 60  17   0   0 103]]
Accuracy: 0.8266666666666667
Elapsed Time: 15:19:31.91
# zcols: 20
# samples: 900
# features: 28400
[[161  19   0   0   0]
 [  0 132  10   0  38]
 [  0  10 159   9   2]
 [  0   9  21 144   6]
 [ 59  16   0   0 105]]
Accuracy: 0.7788888888888889
Elapsed Time: 15:22:13.67
# zcols: 25
# samples: 900
# features: 35500
[[179   0   0   0   1]
 [  0 145  21   0  14]
 [  0  10 160  10   0]
 [  0   4  38 134   4]
 [ 60  25   1   0  94]]
Accuracy: 0.7911111111111111
Elapsed Time: 15:25:36.73
# zcols: 40
# samples: 900
# features: 56800
[[178   1   0   0   1]
 [  1 134  26   0  19]
 [  0  10 170   0   0]
 [  0   2  21 143  14]
 [ 60  28   2   0  90]]
Accuracy: 0.7944444444444444
Elapsed Time: 15:31:05.18
# zcols: 50
# samples: 900
# features: 71000
[[178   1   0   0   1]
 [  0 139  38   0   3]
 [  0   5 175   0   0]
 [  0   5  12 157   6]
 [ 60  28  11   0  81]]
Accuracy: 0.8111111111111111
Elapsed Time: 15:37:55.87
# zcols: 60
# samples: 900
# features: 85200
[[178   1   0   0   1]
 [  1 136  38   0   5]
 [  0   0 180   0   0]
 [  0   6   9 158   7]
 [ 60  27  20   0  73]]
Accuracy: 0.8055555555555556
Elapsed Time: 15:46:12.90
# zcols: 70
# samples: 900
# features: 99400
[[179   0   0   0   1]
 [  1 135  44   0   0]
 [  0   1 179   0   0]
 [  0   4  15 152   9]
 [ 60  26  23   0  71]]
Accuracy: 0.7955555555555556
Elapsed Time: 15:55:53.02
# zcols: 80
# samples: 900
# features: 113600
[[179   0   0   0   1]
 [  1 135  44   0   0]
 [  0   1 179   0   0]
 [  0   3  12 159   6]
 [ 60  27  24   0  69]]
Accuracy: 0.8011111111111111
Elapsed Time: 16:06:53.97
# zcols: 90
# samples: 900
# features: 127800
[[180   0   0   0   0]
 [  1 133  46   0   0]
 [  0   2 177   0   1]
 [  0   6  10 156   8]
 [ 60  24  25   0  71]]
Accuracy: 0.7966666666666666
Elapsed Time: 16:19:16.41
# zcols: 100
# samples: 900
# features: 142000
[[179   0   0   0   1]
 [  1 133  46   0   0]
 [  0   2 178   0   0]
 [  0   6  11 160   3]
 [ 60  26  24   0  70]]
Accuracy: 0.8
Elapsed Time: 16:33:02.81
# zcols: 110
# samples: 900
# features: 156200
[[180   0   0   0   0]
 [  1 134  45   0   0]
 [  0   1 179   0   0]
 [  0   4  14 155   7]
 [ 60  24  22   0  74]]
Accuracy: 0.8022222222222222
Elapsed Time: 16:48:17.85
# zcols: 120
# samples: 900
# features: 170400
[[180   0   0   0   0]
 [  1 134  45   0   0]
 [  0   2 177   0   1]
 [  0   4   9 159   8]
 [ 60  22  25   0  73]]
Accuracy: 0.8033333333333333
Elapsed Time: 17:04:53.39
# zcols: 127
# samples: 900
# features: 180340
[[180   0   0   0   0]
 [  1 134  45   0   0]
 [  0   1 178   0   1]
 [  0   5  12 158   5]
 [ 60  24  24   0  72]]
Accuracy: 0.8022222222222222
Elapsed Time: 17:22:28.90
fm_sub3_r/FingerMotions/
numZcolumns [1, 2, 3, 4, 5, 6, 7, 8, 9, 10, 11, 12, 13, 14, 15, 16, 17, 18, 19, 20, 25, 40, 50, 60, 70, 80, 90, 100, 110, 120, 127]
numTrials 3
numFrames 180
frameGroupSize 3
# zcols: 1
# samples: 900
# features: 1420
[[104  41  10  15  10]
 [ 39  84  33  16   8]
 [ 14  57  80  19  10]
 [  2   9   6  76  87]
 [  7  10   6  64  93]]
Accuracy: 0.4855555555555556
Elapsed Time: 17:22:47.43
# zcols: 2
# samples: 900
# features: 2840
[[179   1   0   0   0]
 [  0 127  52   1   0]
 [  9  69 101   1   0]
 [  0   2   5 119  54]
 [  0   7  17  47 109]]
Accuracy: 0.7055555555555556
Elapsed Time: 17:23:04.51
# zcols: 3
# samples: 900
# features: 4260
[[180   0   0   0   0]
 [  2 166   9   0   3]
 [  0   4 176   0   0]
 [  0   0   0 152  28]
 [  0   5   0  31 144]]
Accuracy: 0.9088888888888889
Elapsed Time: 17:23:29.09
# zcols: 4
# samples: 900
# features: 5680
[[180   0   0   0   0]
 [  0 176   3   0   1]
 [  0   7 172   0   1]
 [  0   0   0 113  67]
 [  0   0   0  27 153]]
Accuracy: 0.8822222222222222
Elapsed Time: 17:24:01.30
# zcols: 5
# samples: 900
# features: 7100
[[180   0   0   0   0]
 [  0 178   2   0   0]
 [  0   9 171   0   0]
 [  0   0   0 148  32]
 [  1   0   0  35 144]]
Accuracy: 0.9122222222222223
Elapsed Time: 17:24:40.98
# zcols: 6
# samples: 900
# features: 8520
[[180   0   0   0   0]
 [  0 176   3   1   0]
 [  0   9 171   0   0]
 [  0   0   0 139  41]
 [  0   0   0  19 161]]
Accuracy: 0.9188888888888889
Elapsed Time: 17:25:28.67
# zcols: 7
# samples: 900
# features: 9940
[[180   0   0   0   0]
 [  5 175   0   0   0]
 [  0   7 173   0   0]
 [  0   0   0 141  39]
 [  0   0   0  18 162]]
Accuracy: 0.9233333333333333
Elapsed Time: 17:26:24.20
# zcols: 8
# samples: 900
# features: 11360
[[180   0   0   0   0]
 [  0 179   1   0   0]
 [  0   4 176   0   0]
 [  0   0   0 151  29]
 [  0   0   0  16 164]]
Accuracy: 0.9444444444444444
Elapsed Time: 17:27:27.55
# zcols: 9
# samples: 900
# features: 12780
[[180   0   0   0   0]
 [  1 179   0   0   0]
 [  0   2 178   0   0]
 [  0   0   0 145  35]
 [  0   0   0  24 156]]
Accuracy: 0.9311111111111111
Elapsed Time: 17:28:38.77
# zcols: 10
# samples: 900
# features: 14200
[[180   0   0   0   0]
 [  2 176   2   0   0]
 [  0  26 154   0   0]
 [  0   0   0 162  18]
 [  0   0   0  34 146]]
Accuracy: 0.9088888888888889
Elapsed Time: 17:29:58.07
# zcols: 11
# samples: 900
# features: 15620
[[180   0   0   0   0]
 [  0 175   5   0   0]
 [  0  11 169   0   0]
 [  0   0   0 162  18]
 [  0   0   0  14 166]]
Accuracy: 0.9466666666666667
Elapsed Time: 17:31:25.22
# zcols: 12
# samples: 900
# features: 17040
[[180   0   0   0   0]
 [  6 173   1   0   0]
 [  0  13 167   0   0]
 [  0   0   0 147  33]
 [  0   0   0  22 158]]
Accuracy: 0.9166666666666666
Elapsed Time: 17:33:00.73
# zcols: 13
# samples: 900
# features: 18460
[[180   0   0   0   0]
 [  0 178   2   0   0]
 [  0  20 160   0   0]
 [  0   0   0 142  38]
 [  0   0   0  10 170]]
Accuracy: 0.9222222222222223
Elapsed Time: 17:34:43.91
# zcols: 14
# samples: 900
# features: 19880
[[180   0   0   0   0]
 [  6 171   3   0   0]
 [  0   2 178   0   0]
 [  0   0   0 151  29]
 [  0   0   0  24 156]]
Accuracy: 0.9288888888888889
Elapsed Time: 17:36:34.64
# zcols: 15
# samples: 900
# features: 21300
[[180   0   0   0   0]
 [  0 178   2   0   0]
 [  0  18 162   0   0]
 [  0   0   0 131  49]
 [  0   0   0  18 162]]
Accuracy: 0.9033333333333333
Elapsed Time: 17:38:34.03
# zcols: 16
# samples: 900
# features: 22720
[[180   0   0   0   0]
 [  0 176   4   0   0]
 [  0  10 170   0   0]
 [  0   0   0 151  29]
 [  0   0   0  22 158]]
Accuracy: 0.9277777777777778
Elapsed Time: 17:40:40.98
# zcols: 17
# samples: 900
# features: 24140
[[180   0   0   0   0]
 [  0 172   8   0   0]
 [  0   4 176   0   0]
 [  0   0   0 130  50]
 [  0   0   0  27 153]]
Accuracy: 0.9011111111111111
Elapsed Time: 17:42:56.82
# zcols: 18
# samples: 900
# features: 25560
[[180   0   0   0   0]
 [  3 173   4   0   0]
 [  0  11 169   0   0]
 [  0   0   0 146  34]
 [  0   0   0  18 162]]
Accuracy: 0.9222222222222223
Elapsed Time: 17:45:20.42
# zcols: 19
# samples: 900
# features: 26980
[[180   0   0   0   0]
 [  1 179   0   0   0]
 [  0  11 169   0   0]
 [  0   0   0 136  44]
 [  0   0   0  25 155]]
Accuracy: 0.91
Elapsed Time: 17:47:53.04
# zcols: 20
# samples: 900
# features: 28400
[[180   0   0   0   0]
 [  0 178   2   0   0]
 [  0  28 152   0   0]
 [  0   0   0 148  32]
 [  0   0   0  24 156]]
Accuracy: 0.9044444444444445
Elapsed Time: 17:50:32.35
# zcols: 25
# samples: 900
# features: 35500
[[180   0   0   0   0]
 [ 13 162   5   0   0]
 [  0   7 173   0   0]
 [  0   0   0 141  39]
 [  0   0   0  24 156]]
Accuracy: 0.9022222222222223
Elapsed Time: 17:53:54.20
# zcols: 40
# samples: 900
# features: 56800
[[180   0   0   0   0]
 [  2 173   5   0   0]
 [  0  15 165   0   0]
 [  0   0   0 146  34]
 [  0   0   0  29 151]]
Accuracy: 0.9055555555555556
Elapsed Time: 17:59:22.37
# zcols: 50
# samples: 900
# features: 71000
[[180   0   0   0   0]
 [  0 176   4   0   0]
 [  0  11 169   0   0]
 [  0   0   0 143  37]
 [  0   0   0  34 146]]
Accuracy: 0.9044444444444445
Elapsed Time: 18:06:13.66
# zcols: 60
# samples: 900
# features: 85200
[[180   0   0   0   0]
 [  0 171   9   0   0]
 [  0  19 161   0   0]
 [  0   0   0 143  37]
 [  0   0   0  30 150]]
Accuracy: 0.8944444444444445
Elapsed Time: 18:14:28.47
# zcols: 70
# samples: 900
# features: 99400
[[180   0   0   0   0]
 [  0 172   8   0   0]
 [  0  14 166   0   0]
 [  0   0   0 143  37]
 [  0   0   0  32 148]]
Accuracy: 0.8988888888888888
Elapsed Time: 18:24:07.09
# zcols: 80
# samples: 900
# features: 113600
[[180   0   0   0   0]
 [  0 173   7   0   0]
 [  0  14 166   0   0]
 [  0   0   0 145  35]
 [  0   0   0  35 145]]
Accuracy: 0.8988888888888888
Elapsed Time: 18:35:10.73
# zcols: 90
# samples: 900
# features: 127800
[[180   0   0   0   0]
 [  0 170  10   0   0]
 [  0  18 162   0   0]
 [  0   0   0 142  38]
 [  0   0   0  35 145]]
Accuracy: 0.8877777777777778
Elapsed Time: 18:47:34.41
# zcols: 100
# samples: 900
# features: 142000
[[180   0   0   0   0]
 [  0 173   7   0   0]
 [  0  16 164   0   0]
 [  0   0   0 148  32]
 [  0   0   0  38 142]]
Accuracy: 0.8966666666666666
Elapsed Time: 19:01:21.31
# zcols: 110
# samples: 900
# features: 156200
[[180   0   0   0   0]
 [  0 171   9   0   0]
 [  0  14 166   0   0]
 [  0   0   0 143  37]
 [  0   0   0  37 143]]
Accuracy: 0.8922222222222222
Elapsed Time: 19:16:37.58
# zcols: 120
# samples: 900
# features: 170400
[[180   0   0   0   0]
 [  0 171   9   0   0]
 [  0  15 165   0   0]
 [  0   0   0 144  36]
 [  0   0   0  32 148]]
Accuracy: 0.8977777777777778
Elapsed Time: 19:33:21.82
# zcols: 127
# samples: 900
# features: 180340
[[180   0   0   0   0]
 [  0 171   9   0   0]
 [  0  14 166   0   0]
 [  0   0   0 143  37]
 [  0   0   0  34 146]]
Accuracy: 0.8955555555555555
Elapsed Time: 19:51:00.52
fm_sub4_l/FingerMotions/
numZcolumns [1, 2, 3, 4, 5, 6, 7, 8, 9, 10, 11, 12, 13, 14, 15, 16, 17, 18, 19, 20, 25, 40, 50, 60, 70, 80, 90, 100, 110, 120, 127]
numTrials 3
numFrames 180
frameGroupSize 3
# zcols: 1
# samples: 900
# features: 1420
[[115  36   8  16   5]
 [ 40  97  19  18   6]
 [ 15   5 128  26   6]
 [  3  17  19 118  23]
 [ 38  12  11  58  61]]
Accuracy: 0.5766666666666667
Elapsed Time: 19:51:19.34
# zcols: 2
# samples: 900
# features: 2840
[[150  21   3   5   1]
 [ 13 165   1   0   1]
 [ 10   6 145  11   8]
 [  0   0   9 166   5]
 [  1   1  10  23 145]]
Accuracy: 0.8566666666666667
Elapsed Time: 19:51:36.48
# zcols: 3
# samples: 900
# features: 4260
[[154  19   2   3   2]
 [  8 166   6   0   0]
 [  0   1 176   2   1]
 [  1   1   5 164   9]
 [  3   0   1  18 158]]
Accuracy: 0.9088888888888889
Elapsed Time: 19:52:01.24
# zcols: 4
# samples: 900
# features: 5680
[[161  19   0   0   0]
 [  8 168   4   0   0]
 [  0  18 151  11   0]
 [  0   0   3 172   5]
 [  2   0   3  20 155]]
Accuracy: 0.8966666666666666
Elapsed Time: 19:52:33.59
# zcols: 5
# samples: 900
# features: 7100
[[156  15   5   4   0]
 [  7 167   6   0   0]
 [  0   5 153  22   0]
 [  0   0   4 173   3]
 [  0   0   3  30 147]]
Accuracy: 0.8844444444444445
Elapsed Time: 19:53:13.91
# zcols: 6
# samples: 900
# features: 8520
[[157  23   0   0   0]
 [  4 176   0   0   0]
 [  0   7 169   4   0]
 [  0   0  12 167   1]
 [  0   0   3  26 151]]
Accuracy: 0.9111111111111111
Elapsed Time: 19:54:02.13
# zcols: 7
# samples: 900
# features: 9940
[[155  25   0   0   0]
 [  1 178   1   0   0]
 [  0   1 168  11   0]
 [  0   0   3 177   0]
 [  0   0   0  62 118]]
Accuracy: 0.8844444444444445
Elapsed Time: 19:54:57.55
# zcols: 8
# samples: 900
# features: 11360
[[142  38   0   0   0]
 [  0 179   1   0   0]
 [  1  14 148  17   0]
 [  0   0   8 168   4]
 [  0   3   0  38 139]]
Accuracy: 0.8622222222222222
Elapsed Time: 19:56:01.11
# zcols: 9
# samples: 900
# features: 12780
[[153  27   0   0   0]
 [  0 180   0   0   0]
 [  0   1 174   5   0]
 [  0   0  11 169   0]
 [  0   0   0  51 129]]
Accuracy: 0.8944444444444445
Elapsed Time: 19:57:12.66
# zcols: 10
# samples: 900
# features: 14200
[[150  30   0   0   0]
 [  0 178   2   0   0]
 [  0  13 157  10   0]
 [  1   0   2 177   0]
 [  0   0  20  45 115]]
Accuracy: 0.8633333333333333
Elapsed Time: 19:58:33.87
# zcols: 11
# samples: 900
# features: 15620
[[135  45   0   0   0]
 [  2 178   0   0   0]
 [  0  15 158   7   0]
 [  0   0   6 147  27]
 [  0   0   0  51 129]]
Accuracy: 0.83
Elapsed Time: 20:00:02.31
# zcols: 12
# samples: 900
# features: 17040
[[144  36   0   0   0]
 [  3 177   0   0   0]
 [  0   5 174   1   0]
 [  0   0   3 173   4]
 [  0   0   0  57 123]]
Accuracy: 0.8788888888888889
Elapsed Time: 20:01:37.88
# zcols: 13
# samples: 900
# features: 18460
[[148  32   0   0   0]
 [  1 178   1   0   0]
 [  0   0 170  10   0]
 [  0   0   0 177   3]
 [  0   0   0  56 124]]
Accuracy: 0.8855555555555555
Elapsed Time: 20:03:21.25
# zcols: 14
# samples: 900
# features: 19880
[[138  42   0   0   0]
 [  1 177   2   0   0]
 [  0  11 169   0   0]
 [  0   0   5 170   5]
 [  0   0   0  45 135]]
Accuracy: 0.8766666666666667
Elapsed Time: 20:05:12.83
# zcols: 15
# samples: 900
# features: 21300
[[144  36   0   0   0]
 [  1 178   1   0   0]
 [  0   0 174   6   0]
 [  0   0   0 174   6]
 [  0   0   6  53 121]]
Accuracy: 0.8788888888888889
Elapsed Time: 20:07:12.67
# zcols: 16
# samples: 900
# features: 22720
[[140  40   0   0   0]
 [  0 180   0   0   0]
 [  0   1 175   4   0]
 [  0   0   5 170   5]
 [  0   0   0  54 126]]
Accuracy: 0.8788888888888889
Elapsed Time: 20:09:21.12
# zcols: 17
# samples: 900
# features: 24140
[[135  45   0   0   0]
 [  1 179   0   0   0]
 [  0   0 176   4   0]
 [  0   0   4 171   5]
 [  0   0   1  59 120]]
Accuracy: 0.8677777777777778
Elapsed Time: 20:11:37.89
# zcols: 18
# samples: 900
# features: 25560
[[147  33   0   0   0]
 [  0 174   6   0   0]
 [  0   5 171   4   0]
 [  0   0   5 172   3]
 [  0   0   0  60 120]]
Accuracy: 0.8711111111111111
Elapsed Time: 20:14:02.75
# zcols: 19
# samples: 900
# features: 26980
[[142  38   0   0   0]
 [  2 178   0   0   0]
 [  0   1 171   8   0]
 [  0   0   5 159  16]
 [  0   0   3  43 134]]
Accuracy: 0.8711111111111111
Elapsed Time: 20:16:35.98
# zcols: 20
# samples: 900
# features: 28400
[[146  34   0   0   0]
 [  2 176   2   0   0]
 [  0   0 173   7   0]
 [  0   0   2 175   3]
 [  0   0   0  60 120]]
Accuracy: 0.8777777777777778
Elapsed Time: 20:19:16.91
# zcols: 25
# samples: 900
# features: 35500
[[147  33   0   0   0]
 [  0 179   1   0   0]
 [  0   0 173   7   0]
 [  0   0   2 166  12]
 [  0   0   0  60 120]]
Accuracy: 0.8722222222222222
Elapsed Time: 20:22:39.65
# zcols: 40
# samples: 900
# features: 56800
[[146  34   0   0   0]
 [  0 178   2   0   0]
 [  0   0 172   8   0]
 [  0   0   6 160  14]
 [  0   0   0  60 120]]
Accuracy: 0.8622222222222222
Elapsed Time: 20:28:08.64
# zcols: 50
# samples: 900
# features: 71000
[[151  29   0   0   0]
 [  0 180   0   0   0]
 [  0   0 175   5   0]
 [  0   0   2 165  13]
 [  0   0   0  60 120]]
Accuracy: 0.8788888888888889
Elapsed Time: 20:34:59.72
# zcols: 60
# samples: 900
# features: 85200
[[155  24   1   0   0]
 [  0 180   0   0   0]
 [  0   1 171   8   0]
 [  0   0   4 167   9]
 [  0   0   1  60 119]]
Accuracy: 0.88
Elapsed Time: 20:43:53.86
# zcols: 70
# samples: 900
# features: 99400
[[155  23   2   0   0]
 [  0 180   0   0   0]
 [  0   0 170  10   0]
 [  0   0   3 166  11]
 [  0   0   0  60 120]]
Accuracy: 0.8788888888888889
Elapsed Time: 20:54:38.28
# zcols: 80
# samples: 900
# features: 113600
[[154  23   3   0   0]
 [  0 180   0   0   0]
 [  0   0 171   9   0]
 [  0   0   3 165  12]
 [  0   0   0  60 120]]
Accuracy: 0.8777777777777778
Elapsed Time: 21:06:46.91
# zcols: 90
# samples: 900
# features: 127800
[[152  26   2   0   0]
 [  0 180   0   0   0]
 [  0   1 170   9   0]
 [  0   0   4 164  12]
 [  0   0   0  60 120]]
Accuracy: 0.8733333333333333
Elapsed Time: 21:20:44.46
# zcols: 100
# samples: 900
# features: 142000
[[151  25   4   0   0]
 [  0 180   0   0   0]
 [  0   0 170  10   0]
 [  0   0   2 165  13]
 [  0   0   0  60 120]]
Accuracy: 0.8733333333333333
Elapsed Time: 21:35:19.69
# zcols: 110
# samples: 900
# features: 156200
[[151  25   4   0   0]
 [  0 180   0   0   0]
 [  0   0 171   9   0]
 [  0   0   3 165  12]
 [  0   0   0  60 120]]
Accuracy: 0.8744444444444445
Elapsed Time: 21:52:01.60
# zcols: 120
# samples: 900
# features: 170400
[[153  24   3   0   0]
 [  0 179   1   0   0]
 [  0   0 171   9   0]
 [  0   0   4 164  12]
 [  0   0   0  60 120]]
Accuracy: 0.8744444444444445
Elapsed Time: 22:10:46.45
# zcols: 127
# samples: 900
# features: 180340
[[153  24   3   0   0]
 [  0 180   0   0   0]
 [  0   0 172   8   0]
 [  0   0   4 163  13]
 [  0   0   0  60 120]]
Accuracy: 0.8755555555555555
Elapsed Time: 22:28:21.40
fm_sub4_r/FingerMotions/
numZcolumns [1, 2, 3, 4, 5, 6, 7, 8, 9, 10, 11, 12, 13, 14, 15, 16, 17, 18, 19, 20, 25, 40, 50, 60, 70, 80, 90, 100, 110, 120, 127]
numTrials 3
numFrames 180
frameGroupSize 3
# zcols: 1
# samples: 900
# features: 1420
[[135   5  15   9  16]
 [  8  84  27  30  31]
 [ 22  29  56  35  38]
 [  6  14  35  85  40]
 [ 16  18  24  44  78]]
Accuracy: 0.4866666666666667
Elapsed Time: 22:28:40.10
# zcols: 2
# samples: 900
# features: 2840
[[151   5   1   0  23]
 [  4 146  14   6  10]
 [  6  32  48  68  26]
 [  0   6  36 135   3]
 [  0   0  13  15 152]]
Accuracy: 0.7022222222222222
Elapsed Time: 22:28:57.22
# zcols: 3
# samples: 900
# features: 4260
[[173   4   1   2   0]
 [  5 145  29   1   0]
 [  0  28  86  59   7]
 [  0   0  42 138   0]
 [  0   0   6  12 162]]
Accuracy: 0.7822222222222223
Elapsed Time: 22:29:21.88
# zcols: 4
# samples: 900
# features: 5680
[[179   1   0   0   0]
 [ 12 116  38   7   7]
 [  0  49  68  55   8]
 [  0   0   5 170   5]
 [  1   0   1   5 173]]
Accuracy: 0.7844444444444445
Elapsed Time: 22:29:54.32
# zcols: 5
# samples: 900
# features: 7100
[[180   0   0   0   0]
 [ 13 112  55   0   0]
 [  0  44  77  59   0]
 [  0   0  12 166   2]
 [  0   0   1  18 161]]
Accuracy: 0.7733333333333333
Elapsed Time: 22:30:34.43
# zcols: 6
# samples: 900
# features: 8520
[[177   1   2   0   0]
 [  1 124  55   0   0]
 [  0  15 118  45   2]
 [  0   0   8 170   2]
 [  0   0   0   1 179]]
Accuracy: 0.8533333333333334
Elapsed Time: 22:31:22.33
# zcols: 7
# samples: 900
# features: 9940
[[175   5   0   0   0]
 [ 10 109  60   1   0]
 [  0  29  87  58   6]
 [  0   0   0 179   1]
 [  0   0   0   1 179]]
Accuracy: 0.81
Elapsed Time: 22:32:18.27
# zcols: 8
# samples: 900
# features: 11360
[[180   0   0   0   0]
 [  3 117  60   0   0]
 [  0  21 102  56   1]
 [  0   0   5 175   0]
 [  0   0   0   5 175]]
Accuracy: 0.8322222222222222
Elapsed Time: 22:33:22.23
# zcols: 9
# samples: 900
# features: 12780
[[180   0   0   0   0]
 [ 32  89  59   0   0]
 [  0   6 114  59   1]
 [  0   0   2 178   0]
 [  0   0   0   8 172]]
Accuracy: 0.8144444444444444
Elapsed Time: 22:34:33.24
# zcols: 10
# samples: 900
# features: 14200
[[169  11   0   0   0]
 [  1 119  60   0   0]
 [  0  24  93  63   0]
 [  0   0   5 175   0]
 [  0   0   0  13 167]]
Accuracy: 0.8033333333333333
Elapsed Time: 22:35:52.41
# zcols: 11
# samples: 900
# features: 15620
[[180   0   0   0   0]
 [ 16 104  60   0   0]
 [  0  25 107  48   0]
 [  0   0   2 178   0]
 [  0   0   0  26 154]]
Accuracy: 0.8033333333333333
Elapsed Time: 22:37:19.50
# zcols: 12
# samples: 900
# features: 17040
[[180   0   0   0   0]
 [ 27  93  60   0   0]
 [  0  32  84  61   3]
 [  0   0   6 173   1]
 [  0   0   0   5 175]]
Accuracy: 0.7833333333333333
Elapsed Time: 22:38:54.36
# zcols: 13
# samples: 900
# features: 18460
[[180   0   0   0   0]
 [ 32  88  60   0   0]
 [  0  14 109  57   0]
 [  0   0   6 174   0]
 [  0   0   0   1 179]]
Accuracy: 0.8111111111111111
Elapsed Time: 22:40:37.75
# zcols: 14
# samples: 900
# features: 19880
[[178   2   0   0   0]
 [ 34  86  60   0   0]
 [  0  40  79  60   1]
 [  0   0   4 175   1]
 [  0   0   0   6 174]]
Accuracy: 0.7688888888888888
Elapsed Time: 22:42:29.02
# zcols: 15
# samples: 900
# features: 21300
[[180   0   0   0   0]
 [ 31  89  60   0   0]
 [  0  39  81  60   0]
 [  0   0  14 166   0]
 [  0   0   0   4 176]]
Accuracy: 0.7688888888888888
Elapsed Time: 22:44:28.79
# zcols: 16
# samples: 900
# features: 22720
[[180   0   0   0   0]
 [ 18 102  60   0   0]
 [  0  39  79  62   0]
 [  0   0   0 179   1]
 [  0   0   0   6 174]]
Accuracy: 0.7933333333333333
Elapsed Time: 22:46:37.59
# zcols: 17
# samples: 900
# features: 24140
[[180   0   0   0   0]
 [ 19 101  60   0   0]
 [  0  29  88  56   7]
 [  0   0  14 166   0]
 [  0   0   0   4 176]]
Accuracy: 0.79
Elapsed Time: 22:48:53.94
# zcols: 18
# samples: 900
# features: 25560
[[177   3   0   0   0]
 [ 25  95  60   0   0]
 [  0  37  79  62   2]
 [  0   0   2 178   0]
 [  0   0   0   4 176]]
Accuracy: 0.7833333333333333
Elapsed Time: 22:51:19.08
# zcols: 19
# samples: 900
# features: 26980
[[180   0   0   0   0]
 [ 19 101  60   0   0]
 [  0  45  77  57   1]
 [  0   0  19 161   0]
 [  0   0   0   9 171]]
Accuracy: 0.7666666666666667
Elapsed Time: 22:53:50.95
# zcols: 20
# samples: 900
# features: 28400
[[175   5   0   0   0]
 [ 32  88  60   0   0]
 [  0  36  82  61   1]
 [  0   0  13 166   1]
 [  0   0   0   6 174]]
Accuracy: 0.7611111111111111
Elapsed Time: 22:56:32.56
# zcols: 25
# samples: 900
# features: 35500
[[153  27   0   0   0]
 [  2 118  60   0   0]
 [  0  45  80  55   0]
 [  0   0  11 168   1]
 [  0   0   0  11 169]]
Accuracy: 0.7644444444444445
Elapsed Time: 22:59:54.72
# zcols: 40
# samples: 900
# features: 56800
[[157  23   0   0   0]
 [  3 117  60   0   0]
 [  0  46  58  72   4]
 [  0   0  15 165   0]
 [  0   0   1   4 175]]
Accuracy: 0.7466666666666667
Elapsed Time: 23:05:21.86
# zcols: 50
# samples: 900
# features: 71000
[[168  12   0   0   0]
 [  1 119  60   0   0]
 [  0  43  66  66   5]
 [  0   0  24 156   0]
 [  0   0   1   5 174]]
Accuracy: 0.7588888888888888
Elapsed Time: 23:12:12.34
# zcols: 60
# samples: 900
# features: 85200
[[170  10   0   0   0]
 [  4 116  60   0   0]
 [  0  47  56  74   3]
 [  0   0  23 157   0]
 [  0   0   5   2 173]]
Accuracy: 0.7466666666666667
Elapsed Time: 23:20:25.12
# zcols: 70
# samples: 900
# features: 99400
[[179   1   0   0   0]
 [  2 118  60   0   0]
 [  0  48  59  70   3]
 [  0   0  27 151   2]
 [  0   0   5   1 174]]
Accuracy: 0.7566666666666667
Elapsed Time: 23:30:02.14
# zcols: 80
# samples: 900
# features: 113600
[[175   5   0   0   0]
 [  2 118  60   0   0]
 [  0  46  61  70   3]
 [  0   0  22 157   1]
 [  0   0   2   2 176]]
Accuracy: 0.7633333333333333
Elapsed Time: 23:41:07.16
# zcols: 90
# samples: 900
# features: 127800
[[176   4   0   0   0]
 [  5 115  60   0   0]
 [  0  46  58  70   6]
 [  0   0  22 156   2]
 [  0   0   4   0 176]]
Accuracy: 0.7566666666666667
Elapsed Time: 23:53:33.09
# zcols: 100
# samples: 900
# features: 142000
[[178   2   0   0   0]
 [  1 119  60   0   0]
 [  0  46  58  72   4]
 [  0   0  24 156   0]
 [  0   0   2   0 178]]
Accuracy: 0.7655555555555555
Elapsed Time: 24:07:20.93
# zcols: 110
# samples: 900
# features: 156200
[[179   1   0   0   0]
 [  1 119  60   0   0]
 [  0  45  55  76   4]
 [  0   0  23 156   1]
 [  0   0   1   0 179]]
Accuracy: 0.7644444444444445
Elapsed Time: 24:22:29.77
# zcols: 120
# samples: 900
# features: 170400
[[180   0   0   0   0]
 [  1 119  60   0   0]
 [  0  47  54  75   4]
 [  0   0  23 154   3]
 [  0   0   3   0 177]]
Accuracy: 0.76
Elapsed Time: 24:39:06.55
# zcols: 127
# samples: 900
# features: 180340
[[180   0   0   0   0]
 [  1 119  60   0   0]
 [  0  46  55  75   4]
 [  0   0  23 154   3]
 [  0   0   3   0 177]]
Accuracy: 0.7611111111111111
Elapsed Time: 24:56:41.37

Process finished with exit code 0
