"""Classify finger motions using wavelet coefficients as features

"""
import xlsxwriter
from xlsxwriter import workbook

from python.src.zrfManager import ZRFData
from python.src.zrfPlot import plot_confusion_matrix
import python.src.patternClassification as pc
import numpy as np
import time
from sklearn.discriminant_analysis import LinearDiscriminantAnalysis
from sklearn.metrics import confusion_matrix, accuracy_score
from sklearn.decomposition import FastICA


def print_elapsed_time(startTime):
    elapsed_time = time.time()
    hours, rem = divmod(elapsed_time - startTime, 3600)
    minutes, seconds = divmod(rem, 60)
    print("Elapsed Time: {:0>2}:{:0>2}:{:05.2f}".format(int(hours), int(minutes), seconds))


def write_cnf_worksheet(worksheet, cnf_matrix, zcols, acc, row, col):
    worksheet.write(row, col, 'zcols:')
    worksheet.write(row, col + 1, zcols)
    worksheet.write(row, col + 2, 'acc:')
    worksheet.write(row, col + 3, acc)
    for thumb, index, middle, ring, pinky in cnf_matrix:
        worksheet.write(row + 1, col, thumb)
        worksheet.write(row + 1, col + 1, index)
        worksheet.write(row + 1, col + 2, middle)
        worksheet.write(row + 1, col + 3, ring)
        worksheet.write(row + 1, col + 4, pinky)
        row += 1


if __name__ == "__main__":
    # Time Start
    startTime = time.time()

    numTrials = 3
    frameStart = 0
    frameEnd = 180
    frameGroupSize = 3
    numFrames = frameEnd - frameStart
    waveletname = 'db3'
    levels = [0]
    windowSize = 2  # dsize as in window size along the depth axis

    dataDir = '/media/alexanderfernandes/6686E8B186E882C3/Users/alexanderfernandes/Code/' \
              'ultrasoundclassification/data/'
    workbook = xlsxwriter.Workbook(dataDir + 'accuracy/wav-db3_lvl0_groupsize-3_dsize-2.xlsx')

    fingerNames = ['Thumb', 'Index', 'Middle', 'Ring', 'Pinky']
    fingerLabel = {'Thumb': 0, 'Index': 1, 'Middle': 2, 'Ring': 3, 'Pinky': 4}

    numZColumns = [1, 2, 3, 4, 5, 6, 7, 8, 9, 10, 11, 12, 13, 14, 15, 16, 17, 18, 19, 20, 25, 40, 50, 60, 70, 80, 90,
                   100, 110, 120, 127]

    zrfDir = "/media/alexanderfernandes/6686E8B186E882C3/Users/alexanderfernandes/Code/zrfFiles/"

    subjectPaths = ["AlexFingerMovement/FingerMovement/",
                    "AlexRightFingerMovement/RightFingerMotions/",
                    "fm_sub1_l/FingerMotions/",
                    "fm_sub1_r/FingerMotions/",
                    "fm_sub2_l/FingerMotions/",
                    "fm_sub2_r/FingerMotions/",
                    "fm_sub3_l/FingerMotions/",
                    "fm_sub3_r/FingerMotions/",
                    "fm_sub4_l/FingerMotions/",
                    "fm_sub4_r/FingerMotions/"]

    for subjectPath in subjectPaths:
        filePath = zrfDir + subjectPath

        print(subjectPath)
        print('numZcolumns', numZColumns)

        worksheet = workbook.add_worksheet(subjectPath.split('/')[0])
        for zcols in numZColumns:

            samples = pc.DataContainer()  # container to put extracted features and samples to then classify

            for fingerID in range(len(fingerNames)):
                for trial in range(1, numTrials + 1):
                    # print(fingerNames[fingerID], trial, end=' ')
                    # print_elapsed_time(startTime)
                    # load ultrasound .zrf file
                    zrf = ZRFData(filePath + fingerNames[fingerID] + str(trial) + '.zrf')

                    # extract wavelet coefficient features for each frame of the rf data
                    # list of a list: [numFrames][zcols*N]; N is based on the level of wavelet scales
                    exctractedFeatures = []
                    for frame in range(frameStart, frameEnd):
                        # extract_linear_fit_segments returns a list of features extracted for the given frame
                        exctractedFeatures.append(pc.extract_wavelet_coefficients(zrf.rfsig[:, :, frame],  # rf signal
                                                                                  zcols,  # num z columns to average to
                                                                                  waveletname,  # wavelet
                                                                                  levels,  # levels
                                                                                  windowSize))  # mean(abs()) size

                    # obtain difference between frames as features
                    differenceFeatures = []  # same as linearFitFeatures
                    for frame in range(numFrames):
                        frameFeatures = []
                        for feature in range(len(exctractedFeatures[frame])):
                            frameFeatures.append(
                                exctractedFeatures[frame][feature] - exctractedFeatures[frame - 1][feature])
                        differenceFeatures.append(frameFeatures)

                    # group frames into group size and obtain min/max values and add the samples to data set
                    for frame in range(0, numFrames, frameGroupSize):
                        frameFeatures = []
                        for feature in range(len(exctractedFeatures[frame])):
                            frameFeatures.append(
                                np.min([exctractedFeatures[frame + f][feature] for f in range(frameGroupSize)]))
                            frameFeatures.append(
                                np.max([exctractedFeatures[frame + f][feature] for f in range(frameGroupSize)]))
                            frameFeatures.append(
                                np.min([differenceFeatures[frame + f][feature] for f in range(frameGroupSize)]))
                            frameFeatures.append(
                                np.max([differenceFeatures[frame + f][feature] for f in range(frameGroupSize)]))

                        # each frame is represented as a sample
                        samples.add_sample(np.asarray(frameFeatures), fingerID, trial)

            # Split into test / training data
            lda = LinearDiscriminantAnalysis()
            cnf_matrix = None
            y_pred = []
            y_test = []

            # classify with test samples represented as the current trial number
            for trial in range(1, numTrials + 1):
                samples.test_train_split_by_trial(trial)

                pred = lda.fit(samples.X_train, samples.y_train).predict(samples.X_test)

                for s in range(len(pred)):
                    y_pred.append(pred[s])
                    y_test.append(samples.y_test[s])

            print('# zcols:', zcols)
            print('# samples:', len(samples.X))
            print('# features:', len(samples.X[0]))
            cnf_matrix = confusion_matrix(y_test, y_pred)
            print(cnf_matrix)
            print('Accuracy:', accuracy_score(y_test, y_pred))
            print_elapsed_time(startTime)

            write_cnf_worksheet(worksheet, cnf_matrix, zcols, accuracy_score(y_test, y_pred), (zcols - 1) * 6, 0)
    workbook.close()




/media/alexanderfernandes/6686E8B186E882C3/Users/alexanderfernandes/Code/Python/Ultrasound/venv/bin/python /media/alexanderfernandes/6686E8B186E882C3/Users/alexanderfernandes/Code/ultrasoundclassification/python/scripts/WaveletCoefficientClassification.py
AlexFingerMovement/FingerMovement/
numZcolumns [1, 2, 3, 4, 5, 6, 7, 8, 9, 10, 11, 12, 13, 14, 15, 16, 17, 18, 19, 20, 25, 40, 50, 60, 70, 80, 90, 100, 110, 120, 127]
/media/alexanderfernandes/6686E8B186E882C3/Users/alexanderfernandes/Code/Python/Ultrasound/venv/lib/python3.5/site-packages/sklearn/discriminant_analysis.py:388: UserWarning: Variables are collinear.
  warnings.warn("Variables are collinear.")
# zcols: 1
# samples: 900
# features: 3032
[[80 43 15 19 23]
 [34 71 33 29 13]
 [16 61 47 36 20]
 [17 22 40 66 35]
 [22 17 25 34 82]]
Accuracy: 0.3844444444444444
Elapsed Time: 00:00:20.66
# zcols: 2
# samples: 900
# features: 6064
[[146  34   0   0   0]
 [  5 106  33  19  17]
 [  0  18 110  34  18]
 [  0   3  67 103   7]
 [  1   5  19  23 132]]
Accuracy: 0.6633333333333333
Elapsed Time: 00:00:57.70
# zcols: 3
# samples: 900
# features: 9096
[[101  45  23   2   9]
 [ 25 127  13   5  10]
 [  1  27 104  37  11]
 [  0   3  38 125  14]
 [  0   2  25  38 115]]
Accuracy: 0.6355555555555555
Elapsed Time: 00:01:49.57
# zcols: 4
# samples: 900
# features: 12128
[[121  53   3   2   1]
 [  5 156   7   1  11]
 [  0   8  94  27  51]
 [  0   0  24 151   5]
 [  0   1   8  24 147]]
Accuracy: 0.7433333333333333
Elapsed Time: 00:02:55.77
# zcols: 5
# samples: 900
# features: 15160
[[128  23   7   2  20]
 [ 32 144   4   0   0]
 [  7  14 127  30   2]
 [  0   1  29 139  11]
 [  0   0   8  33 139]]
Accuracy: 0.7522222222222222
Elapsed Time: 00:04:18.48
# zcols: 6
# samples: 900
# features: 18192
[[140  38   1   0   1]
 [  9 154  14   1   2]
 [  1   4 138  28   9]
 [  0   0  25 146   9]
 [  4   4  29  14 129]]
Accuracy: 0.7855555555555556
Elapsed Time: 00:05:57.89
# zcols: 7
# samples: 900
# features: 21224
[[140  40   0   0   0]
 [ 43 134   2   1   0]
 [  0   4 140  34   2]
 [  0   0  20 138  22]
 [  1   0  13  19 147]]
Accuracy: 0.7766666666666666
Elapsed Time: 00:07:54.15
# zcols: 8
# samples: 900
# features: 24256
[[137  35   1   0   7]
 [ 22 146   9   3   0]
 [  6   7 137  30   0]
 [  0   1   8 161  10]
 [  0   0  13  26 141]]
Accuracy: 0.8022222222222222
Elapsed Time: 00:10:07.76
# zcols: 9
# samples: 900
# features: 27288
[[123  49   3   4   1]
 [ 23 133  19   5   0]
 [ 11  28 100  41   0]
 [  0   0  12 160   8]
 [  4   0   3  12 161]]
Accuracy: 0.7522222222222222
Elapsed Time: 00:12:38.03
# zcols: 10
# samples: 900
# features: 30320
[[131  49   0   0   0]
 [ 29 150   1   0   0]
 [ 13   5 133  27   2]
 [  0   0  19 151  10]
 [  4   2   0   9 165]]
Accuracy: 0.8111111111111111
Elapsed Time: 00:15:24.43
# zcols: 11
# samples: 900
# features: 33352
[[ 79  69   0   0  32]
 [ 32 142   6   0   0]
 [  1  26 126  27   0]
 [  0   2   9 166   3]
 [  2   1   2  15 160]]
Accuracy: 0.7477777777777778
Elapsed Time: 00:18:29.11
# zcols: 12
# samples: 900
# features: 36384
[[ 97  71   0   0  12]
 [ 39 132   5   4   0]
 [  1   8 142  29   0]
 [  0   0  15 161   4]
 [  2   0   3  18 157]]
Accuracy: 0.7655555555555555
Elapsed Time: 00:21:51.40
# zcols: 13
# samples: 900
# features: 39416
[[131  38   2   0   9]
 [ 28 144   8   0   0]
 [  3  22 118  37   0]
 [  0   0   9 159  12]
 [  3   0  10  17 150]]
Accuracy: 0.78
Elapsed Time: 00:25:31.01
# zcols: 14
# samples: 900
# features: 42448
[[111  59   8   2   0]
 [ 36 141   1   2   0]
 [  7   5 134  34   0]
 [  0   0  15 151  14]
 [  1   0   9  20 150]]
Accuracy: 0.7633333333333333
Elapsed Time: 00:29:27.54
# zcols: 15
# samples: 900
# features: 45480
[[119  49   0   0  12]
 [ 30 135  12   3   0]
 [  5   9 147  19   0]
 [  0   1  17 151  11]
 [  4   0   2  17 157]]
Accuracy: 0.7877777777777778
Elapsed Time: 00:33:40.31
# zcols: 16
# samples: 900
# features: 48512
[[119  35   0   0  26]
 [  5 152  10  13   0]
 [  3  17 128  32   0]
 [  0   1  13 159   7]
 [  5   0   6  14 155]]
Accuracy: 0.7922222222222223
Elapsed Time: 00:38:11.29
# zcols: 17
# samples: 900
# features: 51544
[[101  69   2   0   8]
 [ 33 145   2   0   0]
 [  3  13 132  32   0]
 [  0   0  24 152   4]
 [  5   0   0   1 174]]
Accuracy: 0.7822222222222223
Elapsed Time: 00:42:59.43
# zcols: 18
# samples: 900
# features: 54576
[[112  54   1   0  13]
 [ 28 130  20   2   0]
 [  3   8 138  31   0]
 [  0   2  19 151   8]
 [  7   0   7  13 153]]
Accuracy: 0.76
Elapsed Time: 00:48:03.53
# zcols: 19
# samples: 900
# features: 57608
[[105  61   7   0   7]
 [ 33 130   3  14   0]
 [  0   4 137  38   1]
 [  0   1  27 142  10]
 [  5   0   4  14 157]]
Accuracy: 0.7455555555555555
Elapsed Time: 00:53:26.07
# zcols: 20
# samples: 900
# features: 60640
[[115  55   0   0  10]
 [ 32 146   0   2   0]
 [  1  11 140  28   0]
 [  0   0  22 150   8]
 [  5   0   7   9 159]]
Accuracy: 0.7888888888888889
Elapsed Time: 00:59:04.91
# zcols: 25
# samples: 900
# features: 75800
[[115  52  10   0   3]
 [ 29 145   1   5   0]
 [  2   5 140  32   1]
 [  0   0  28 140  12]
 [  5   0   7  12 156]]
Accuracy: 0.7733333333333333
Elapsed Time: 01:06:10.53
# zcols: 40
# samples: 900
# features: 121280
[[125  35   9   0  11]
 [ 23 156   1   0   0]
 [  5  16 126  33   0]
 [  0   5  27 142   6]
 [  5   0   8   9 158]]
Accuracy: 0.7855555555555556
Elapsed Time: 01:17:33.41
# zcols: 50
# samples: 900
# features: 151600
[[131  33   9   0   7]
 [ 16 162   1   1   0]
 [  4  18 127  31   0]
 [  0   2  36 134   8]
 [  5   0  13  10 152]]
Accuracy: 0.7844444444444445
Elapsed Time: 01:31:50.75
# zcols: 60
# samples: 900
# features: 181920
[[135  31   7   0   7]
 [ 16 161   3   0   0]
 [  4  20 122  34   0]
 [  0   3  36 135   6]
 [  9   0   8  12 151]]
Accuracy: 0.7822222222222223
Elapsed Time: 01:48:55.88
# zcols: 70
# samples: 900
# features: 212240
[[137  26   8   0   9]
 [ 11 164   5   0   0]
 [  4  17 123  36   0]
 [  0   2  34 138   6]
 [  9   0  10  13 148]]
Accuracy: 0.7888888888888889
Elapsed Time: 02:08:51.86
# zcols: 80
# samples: 900
# features: 242560
[[139  25   8   0   8]
 [ 13 163   4   0   0]
 [  4  20 120  36   0]
 [  0   2  33 139   6]
 [  7   0  12  11 150]]
Accuracy: 0.79
Elapsed Time: 02:31:36.43
# zcols: 90
# samples: 900
# features: 272880
[[139  27   7   0   7]
 [ 12 162   6   0   0]
 [  3  20 120  37   0]
 [  0   2  32 139   7]
 [  8   0  11  13 148]]
Accuracy: 0.7866666666666666
Elapsed Time: 02:57:14.60
# zcols: 100
# samples: 900
# features: 303200
[[142  21   8   0   9]
 [ 11 162   7   0   0]
 [  4  21 118  37   0]
 [  0   2  32 140   6]
 [ 10   0  10  15 145]]
Accuracy: 0.7855555555555556
Elapsed Time: 03:25:45.43
# zcols: 110
# samples: 900
# features: 333520
[[145  21   8   0   6]
 [ 11 162   7   0   0]
 [  3  21 116  39   1]
 [  0   2  29 143   6]
 [  9   0  10  13 148]]
Accuracy: 0.7933333333333333
Elapsed Time: 03:57:12.55
# zcols: 120
# samples: 900
# features: 363840
[[144  21   7   0   8]
 [ 10 162   8   0   0]
 [  3  21 116  38   2]
 [  0   2  30 142   6]
 [  9   0  10  15 146]]
Accuracy: 0.7888888888888889
Elapsed Time: 04:31:55.95
# zcols: 127
# samples: 900
# features: 385064
[[144  20   8   0   8]
 [ 10 161   9   0   0]
 [  3  21 116  38   2]
 [  0   2  30 142   6]
 [  9   0  10  15 146]]
Accuracy: 0.7877777777777778
Elapsed Time: 05:08:45.08
AlexRightFingerMovement/RightFingerMotions/
numZcolumns [1, 2, 3, 4, 5, 6, 7, 8, 9, 10, 11, 12, 13, 14, 15, 16, 17, 18, 19, 20, 25, 40, 50, 60, 70, 80, 90, 100, 110, 120, 127]
# zcols: 1
# samples: 900
# features: 3032
[[ 67  51  24  31   7]
 [ 40  36  39  61   4]
 [ 13  16 115  28   8]
 [ 23  88  22  42   5]
 [ 17  36  26  42  59]]
Accuracy: 0.35444444444444445
Elapsed Time: 05:09:17.45
# zcols: 2
# samples: 900
# features: 6064
[[ 58  21  29  68   4]
 [  8  61  78  30   3]
 [ 10  29  95  45   1]
 [ 38  28  48  40  26]
 [ 17   1   5   6 151]]
Accuracy: 0.45
Elapsed Time: 05:09:51.36
# zcols: 3
# samples: 900
# features: 9096
[[103  49  19   7   2]
 [  3  75  53  36  13]
 [  4  24  94  50   8]
 [ 12  52  41  48  27]
 [  2  24   4  18 132]]
Accuracy: 0.5022222222222222
Elapsed Time: 05:10:41.46
# zcols: 4
# samples: 900
# features: 12128
[[ 90  48  10  25   7]
 [ 20  45  58  50   7]
 [  9  14 133  23   1]
 [  1  61  41  35  42]
 [ 13  27   4  12 124]]
Accuracy: 0.47444444444444445
Elapsed Time: 05:11:47.68
# zcols: 5
# samples: 900
# features: 15160
[[127  18  11  24   0]
 [ 12  75  55  35   3]
 [  0  20 130  30   0]
 [  1  46  26 102   5]
 [  8   9   3  33 127]]
Accuracy: 0.6233333333333333
Elapsed Time: 05:13:09.55
# zcols: 6
# samples: 900
# features: 18192
[[120  40   3  11   6]
 [  3  90  30  56   1]
 [  0  20 143  17   0]
 [ 12  36  24 101   7]
 [  9  12   0  35 124]]
Accuracy: 0.6422222222222222
Elapsed Time: 05:14:48.75
# zcols: 7
# samples: 900
# features: 21224
[[133  40   0   4   3]
 [ 15  76  47  40   2]
 [  0  13 141  26   0]
 [  1  62  41  73   3]
 [  8   7   4  27 134]]
Accuracy: 0.6188888888888889
Elapsed Time: 05:16:44.48
# zcols: 8
# samples: 900
# features: 24256
[[135  10   1  11  23]
 [ 13  69  48  50   0]
 [  0  14 155  11   0]
 [  4  55  36  79   6]
 [  8   1   1   7 163]]
Accuracy: 0.6677777777777778
Elapsed Time: 05:18:57.39
# zcols: 9
# samples: 900
# features: 27288
[[143  30   1   0   6]
 [ 12  84  32  52   0]
 [  0   7 159  14   0]
 [  0  35  29 116   0]
 [  4   4   0   8 164]]
Accuracy: 0.74
Elapsed Time: 05:21:28.24
# zcols: 10
# samples: 900
# features: 30320
[[136   6   1   7  30]
 [  6 104  49  21   0]
 [  0  10 136  34   0]
 [  5  48  16 104   7]
 [  7   1   1  15 156]]
Accuracy: 0.7066666666666667
Elapsed Time: 05:24:15.84
# zcols: 11
# samples: 900
# features: 33352
[[146  12   0   3  19]
 [ 13  87  43  37   0]
 [  0   5 151  24   0]
 [  0  46  31 101   2]
 [  1   2   0   7 170]]
Accuracy: 0.7277777777777777
Elapsed Time: 05:27:21.03
# zcols: 12
# samples: 900
# features: 36384
[[128   1   0   4  47]
 [  8  95  44  33   0]
 [  0  15 140  25   0]
 [  0  24  18 136   2]
 [  8   0   0   4 168]]
Accuracy: 0.7411111111111112
Elapsed Time: 05:30:42.32
# zcols: 13
# samples: 900
# features: 39416
[[135  11   0   4  30]
 [  9  74  42  54   1]
 [  0  10 152  18   0]
 [  3  27  28 122   0]
 [  6   1   0   9 164]]
Accuracy: 0.7188888888888889
Elapsed Time: 05:34:20.92
# zcols: 14
# samples: 900
# features: 42448
[[141   5   0   8  26]
 [ 10  80  38  52   0]
 [  0   9 146  25   0]
 [  1  16  22 140   1]
 [  1   1   0   0 178]]
Accuracy: 0.7611111111111111
Elapsed Time: 05:38:15.98
# zcols: 15
# samples: 900
# features: 45480
[[130   2   0  17  31]
 [  9  85  56  30   0]
 [  0   9 143  28   0]
 [  0  54  17 108   1]
 [  5   2   0   6 167]]
Accuracy: 0.7033333333333334
Elapsed Time: 05:42:29.16
# zcols: 16
# samples: 900
# features: 48512
[[143   7   0   3  27]
 [ 10  87  29  54   0]
 [  0  12 140  28   0]
 [  0  21  22 137   0]
 [  2   0   0   2 176]]
Accuracy: 0.7588888888888888
Elapsed Time: 05:46:59.00
# zcols: 17
# samples: 900
# features: 51544
[[126   9   0  23  22]
 [ 10  85  35  50   0]
 [  0  11 145  24   0]
 [  3  51  36  89   1]
 [  2   0   0   3 175]]
Accuracy: 0.6888888888888889
Elapsed Time: 05:51:44.07
# zcols: 18
# samples: 900
# features: 54576
[[140  15   0   1  24]
 [  8  97  35  40   0]
 [  0   8 145  27   0]
 [  2  20  15 143   0]
 [  4   1   0   7 168]]
Accuracy: 0.77
Elapsed Time: 05:56:47.74
# zcols: 19
# samples: 900
# features: 57608
[[142  10   0  12  16]
 [ 14  88  50  28   0]
 [  0  11 139  30   0]
 [  3  45  23 109   0]
 [  3   0   0  15 162]]
Accuracy: 0.7111111111111111
Elapsed Time: 06:02:08.66
# zcols: 20
# samples: 900
# features: 60640
[[144   6   0  11  19]
 [  8  95  50  27   0]
 [  0  12 143  25   0]
 [  1  25  10 144   0]
 [  5   1   0   0 174]]
Accuracy: 0.7777777777777778
Elapsed Time: 06:07:46.60
# zcols: 25
# samples: 900
# features: 75800
[[131   9   0   4  36]
 [ 12  90  55  23   0]
 [  0  12 144  24   0]
 [  1  43  12 124   0]
 [  0   0   0   4 176]]
Accuracy: 0.7388888888888889
Elapsed Time: 06:14:48.97
# zcols: 40
# samples: 900
# features: 121280
[[140   4   0   4  32]
 [ 12  92  31  45   0]
 [  0   7 147  26   0]
 [  0  21  13 146   0]
 [  2   0   0   1 177]]
Accuracy: 0.78
Elapsed Time: 06:26:11.03
# zcols: 50
# samples: 900
# features: 151600
[[136   4   0  12  28]
 [ 12 100  27  41   0]
 [  0   9 146  25   0]
 [  0  24  12 144   0]
 [  0   0   0   3 177]]
Accuracy: 0.7811111111111111
Elapsed Time: 06:40:24.04
# zcols: 60
# samples: 900
# features: 181920
[[136   2   0  12  30]
 [ 10  99  24  47   0]
 [  0   8 145  27   0]
 [  1  12  10 157   0]
 [  0   0   0   4 176]]
Accuracy: 0.7922222222222223
Elapsed Time: 06:57:28.60
# zcols: 70
# samples: 900
# features: 212240
[[134   2   0  13  31]
 [ 10 102  20  48   0]
 [  0   9 144  27   0]
 [  0  17   9 154   0]
 [  0   0   0   5 175]]
Accuracy: 0.7877777777777778
Elapsed Time: 07:17:22.84
# zcols: 80
# samples: 900
# features: 242560
[[134   4   0  14  28]
 [ 10 100  20  50   0]
 [  0   8 146  26   0]
 [  0  13  11 156   0]
 [  0   0   0   4 176]]
Accuracy: 0.7911111111111111
Elapsed Time: 07:40:07.65
# zcols: 90
# samples: 900
# features: 272880
[[136   3   0  12  29]
 [ 11 103  19  47   0]
 [  0   8 143  29   0]
 [  0  10  10 160   0]
 [  0   0   0   6 174]]
Accuracy: 0.7955555555555556
Elapsed Time: 08:05:47.58
# zcols: 100
# samples: 900
# features: 303200
[[133   3   0  19  25]
 [ 10 104  19  47   0]
 [  0  10 144  26   0]
 [  0  10  11 159   0]
 [  0   0   0   5 175]]
Accuracy: 0.7944444444444444
Elapsed Time: 08:34:16.44
# zcols: 110
# samples: 900
# features: 333520
[[133   4   0  19  24]
 [ 10 106  19  45   0]
 [  0   9 144  27   0]
 [  0   8   9 163   0]
 [  0   0   0   6 174]]
Accuracy: 0.8
Elapsed Time: 09:05:35.86
# zcols: 120
# samples: 900
# features: 363840
[[134   4   0  17  25]
 [ 10 108  19  43   0]
 [  0   9 143  28   0]
 [  0   7   8 165   0]
 [  1   0   0   5 174]]
Accuracy: 0.8044444444444444
Elapsed Time: 09:39:48.64
# zcols: 127
# samples: 900
# features: 385064
[[134   4   0  18  24]
 [ 10 107  18  45   0]
 [  0   9 143  28   0]
 [  0   7   9 164   0]
 [  1   0   0   5 174]]
Accuracy: 0.8022222222222222
Elapsed Time: 10:16:14.86
fm_sub1_l/FingerMotions/
numZcolumns [1, 2, 3, 4, 5, 6, 7, 8, 9, 10, 11, 12, 13, 14, 15, 16, 17, 18, 19, 20, 25, 40, 50, 60, 70, 80, 90, 100, 110, 120, 127]
# zcols: 1
# samples: 900
# features: 3032
[[126  24  13  11   6]
 [ 61  62  28  18  11]
 [ 10  22  81  51  16]
 [  3  20  37  78  42]
 [  4  17   5  58  96]]
Accuracy: 0.4922222222222222
Elapsed Time: 10:16:44.30
# zcols: 2
# samples: 900
# features: 6064
[[106  44  23   7   0]
 [ 51  75  37  12   5]
 [  1  41  77  56   5]
 [ 13   5  40 104  18]
 [  0   1  21  17 141]]
Accuracy: 0.5588888888888889
Elapsed Time: 10:17:17.94
# zcols: 3
# samples: 900
# features: 9096
[[144  23   5   6   2]
 [ 28  75  44  24   9]
 [  5  30  81  61   3]
 [  3  25  52  77  23]
 [  3  11  16  17 133]]
Accuracy: 0.5666666666666667
Elapsed Time: 10:18:07.71
# zcols: 4
# samples: 900
# features: 12128
[[116  45  11   4   4]
 [ 70  67  38   3   2]
 [  7  45  72  56   0]
 [ 12  10  39 103  16]
 [  1   0   7  16 156]]
Accuracy: 0.5711111111111111
Elapsed Time: 10:19:13.73
# zcols: 5
# samples: 900
# features: 15160
[[153  22   5   0   0]
 [ 20 107  40  12   1]
 [  0  29 121  29   1]
 [  1   9  32 105  33]
 [  0   1   7  51 121]]
Accuracy: 0.6744444444444444
Elapsed Time: 10:20:36.91
# zcols: 6
# samples: 900
# features: 18192
[[148  19  11   2   0]
 [ 31  84  51   7   7]
 [  0  36 114  30   0]
 [  1   7  32 133   7]
 [  0   1   6  34 139]]
Accuracy: 0.6866666666666666
Elapsed Time: 10:22:16.69
# zcols: 7
# samples: 900
# features: 21224
[[152  19   8   1   0]
 [ 27 102  49   2   0]
 [  0  40  87  53   0]
 [  0   3  34 119  24]
 [  0   2  10  29 139]]
Accuracy: 0.6655555555555556
Elapsed Time: 10:24:13.35
# zcols: 8
# samples: 900
# features: 24256
[[152  25   3   0   0]
 [ 29 103  47   1   0]
 [  0  25 133  21   1]
 [  0   4  51 111  14]
 [  0   3   1  35 141]]
Accuracy: 0.7111111111111111
Elapsed Time: 10:26:27.16
# zcols: 9
# samples: 900
# features: 27288
[[172   8   0   0   0]
 [  8 125  45   1   1]
 [  0  20 140  20   0]
 [  0   7  29 129  15]
 [  0   0  10  45 125]]
Accuracy: 0.7677777777777778
Elapsed Time: 10:28:58.64
# zcols: 10
# samples: 900
# features: 30320
[[164  14   1   0   1]
 [ 10 120  48   2   0]
 [  0  34 133  13   0]
 [  0   0  31 122  27]
 [  0   6   9  45 120]]
Accuracy: 0.7322222222222222
Elapsed Time: 10:31:48.58
# zcols: 11
# samples: 900
# features: 33352
[[166  13   1   0   0]
 [  9 132  39   0   0]
 [  0  29 125  26   0]
 [  0   2  28 119  31]
 [  1   6  14  44 115]]
Accuracy: 0.73
Elapsed Time: 10:34:55.48
# zcols: 12
# samples: 900
# features: 36384
[[167  13   0   0   0]
 [ 13 119  48   0   0]
 [  0  32 130  18   0]
 [  0   3  36 119  22]
 [  0   0  10  43 127]]
Accuracy: 0.7355555555555555
Elapsed Time: 10:38:19.95
# zcols: 13
# samples: 900
# features: 39416
[[171   9   0   0   0]
 [ 15 130  35   0   0]
 [  0  28 141  11   0]
 [  0   3  27 124  26]
 [  0   0   2  58 120]]
Accuracy: 0.7622222222222222
Elapsed Time: 10:42:01.08
# zcols: 14
# samples: 900
# features: 42448
[[175   5   0   0   0]
 [ 10 139  31   0   0]
 [  0  26 134  20   0]
 [  0   2  30 120  28]
 [  1   2   3  54 120]]
Accuracy: 0.7644444444444445
Elapsed Time: 10:45:59.73
# zcols: 15
# samples: 900
# features: 45480
[[174   6   0   0   0]
 [  7 127  46   0   0]
 [  0  34 139   7   0]
 [  0   1  27 133  19]
 [  0   1  15  48 116]]
Accuracy: 0.7655555555555555
Elapsed Time: 10:50:13.76
# zcols: 16
# samples: 900
# features: 48512
[[168  12   0   0   0]
 [  9 131  40   0   0]
 [  0  24 150   6   0]
 [  0   0  25 128  27]
 [  0   1   3  47 129]]
Accuracy: 0.7844444444444445
Elapsed Time: 10:54:45.83
# zcols: 17
# samples: 900
# features: 51544
[[171   6   3   0   0]
 [ 11 135  34   0   0]
 [  0  19 146  15   0]
 [  0   2  31 127  20]
 [  0   0   5  43 132]]
Accuracy: 0.79
Elapsed Time: 10:59:37.17
# zcols: 18
# samples: 900
# features: 54576
[[167  12   0   1   0]
 [ 10 128  41   1   0]
 [  0  31 136  13   0]
 [  0   4  27 128  21]
 [  0   0   5  44 131]]
Accuracy: 0.7666666666666667
Elapsed Time: 11:04:43.48
# zcols: 19
# samples: 900
# features: 57608
[[173   7   0   0   0]
 [  9 122  49   0   0]
 [  0  32 142   6   0]
 [  0   7  32 121  20]
 [  0   0   8  45 127]]
Accuracy: 0.7611111111111111
Elapsed Time: 11:10:09.17
# zcols: 20
# samples: 900
# features: 60640
[[173   7   0   0   0]
 [  8 137  35   0   0]
 [  0  25 142  13   0]
 [  0   2  32 123  23]
 [  0   3  13  48 116]]
Accuracy: 0.7677777777777778
Elapsed Time: 11:15:53.47
# zcols: 25
# samples: 900
# features: 75800
[[176   4   0   0   0]
 [  9 129  41   1   0]
 [  0  25 144  11   0]
 [  0   3  28 117  32]
 [  0   0  11  53 116]]
Accuracy: 0.7577777777777778
Elapsed Time: 11:23:03.34
# zcols: 40
# samples: 900
# features: 121280
[[180   0   0   0   0]
 [  9 121  49   1   0]
 [  0  28 140  12   0]
 [  0   3  34 115  28]
 [  1   1   8  50 120]]
Accuracy: 0.7511111111111111
Elapsed Time: 11:34:30.97
# zcols: 50
# samples: 900
# features: 151600
[[180   0   0   0   0]
 [  9 123  47   1   0]
 [  0  25 139  16   0]
 [  0   8  33 109  30]
 [  0   1   7  49 123]]
Accuracy: 0.7488888888888889
Elapsed Time: 11:48:46.92
# zcols: 60
# samples: 900
# features: 181920
[[180   0   0   0   0]
 [ 10 127  42   1   0]
 [  0  25 142  13   0]
 [  0  12  31 109  28]
 [  0   1   2  49 128]]
Accuracy: 0.7622222222222222
Elapsed Time: 12:06:01.46
# zcols: 70
# samples: 900
# features: 212240
[[180   0   0   0   0]
 [  9 128  42   1   0]
 [  0  24 142  14   0]
 [  0  10  33 107  30]
 [  0   1   1  50 128]]
Accuracy: 0.7611111111111111
Elapsed Time: 12:26:10.10
# zcols: 80
# samples: 900
# features: 242560
[[180   0   0   0   0]
 [ 10 121  48   1   0]
 [  0  25 141  14   0]
 [  0  11  34 108  27]
 [  0   1   1  50 128]]
Accuracy: 0.7533333333333333
Elapsed Time: 12:49:08.03
# zcols: 90
# samples: 900
# features: 272880
[[180   0   0   0   0]
 [  9 121  49   1   0]
 [  0  25 141  14   0]
 [  0  13  34 105  28]
 [  0   1   0  50 129]]
Accuracy: 0.7511111111111111
Elapsed Time: 13:15:03.53
# zcols: 100
# samples: 900
# features: 303200
[[180   0   0   0   0]
 [  9 123  47   1   0]
 [  0  23 143  14   0]
 [  0   9  37 108  26]
 [  0   1   0  49 130]]
Accuracy: 0.76
Elapsed Time: 13:43:56.57
# zcols: 110
# samples: 900
# features: 333520
[[180   0   0   0   0]
 [  9 123  47   1   0]
 [  0  25 141  14   0]
 [  0  11  35 107  27]
 [  0   1   0  50 129]]
Accuracy: 0.7555555555555555
Elapsed Time: 14:15:39.94
# zcols: 120
# samples: 900
# features: 363840
[[180   0   0   0   0]
 [  9 123  47   1   0]
 [  0  25 142  13   0]
 [  0  12  35 106  27]
 [  0   1   0  50 129]]
Accuracy: 0.7555555555555555
Elapsed Time: 14:50:14.80
# zcols: 127
# samples: 900
# features: 385064
[[180   0   0   0   0]
 [ 10 121  48   1   0]
 [  0  26 139  15   0]
 [  0  10  35 108  27]
 [  0   1   0  50 129]]
Accuracy: 0.7522222222222222
Elapsed Time: 15:27:08.70
fm_sub1_r/FingerMotions/
numZcolumns [1, 2, 3, 4, 5, 6, 7, 8, 9, 10, 11, 12, 13, 14, 15, 16, 17, 18, 19, 20, 25, 40, 50, 60, 70, 80, 90, 100, 110, 120, 127]
# zcols: 1
# samples: 900
# features: 3032
[[104  15  26  15  20]
 [ 22 120  20   6  12]
 [ 20  22  71  52  15]
 [ 10  15  82  57  16]
 [  9   8  26  26 111]]
Accuracy: 0.5144444444444445
Elapsed Time: 15:27:38.54
# zcols: 2
# samples: 900
# features: 6064
[[ 64  36  11  12  57]
 [ 38  78  27   5  32]
 [ 12  46  84  35   3]
 [  9   8  60  82  21]
 [  8   9   4  19 140]]
Accuracy: 0.49777777777777776
Elapsed Time: 15:28:12.50
# zcols: 3
# samples: 900
# features: 9096
[[104  22   0  13  41]
 [ 11 134  26   3   6]
 [  4  18 116  37   5]
 [ 10  20  40 106   4]
 [  0  10   0   0 170]]
Accuracy: 0.7
Elapsed Time: 15:29:02.44
# zcols: 4
# samples: 900
# features: 12128
[[142  22  10   2   4]
 [ 40  91  19  22   8]
 [  3  45 110  17   5]
 [  7   5  53 102  13]
 [  0   1   1  10 168]]
Accuracy: 0.6811111111111111
Elapsed Time: 15:30:08.99
# zcols: 5
# samples: 900
# features: 15160
[[112  26  18  13  11]
 [  6 136  32   6   0]
 [  1  25 134  20   0]
 [  0   5  24 149   2]
 [  2   2  13   9 154]]
Accuracy: 0.7611111111111111
Elapsed Time: 15:31:31.44
# zcols: 6
# samples: 900
# features: 18192
[[145  19   6   3   7]
 [ 16 139  19   6   0]
 [  0  25 137  18   0]
 [  0   0  31 132  17]
 [  1   1   0  12 166]]
Accuracy: 0.7988888888888889
Elapsed Time: 15:33:10.08
# zcols: 7
# samples: 900
# features: 21224
[[151  13   8   7   1]
 [ 20 131  22   6   1]
 [  1  20 134  18   7]
 [  0   1  27 134  18]
 [  0   1   8  30 141]]
Accuracy: 0.7677777777777778
Elapsed Time: 15:35:05.55
# zcols: 8
# samples: 900
# features: 24256
[[159   8   3   0  10]
 [ 11 116  44   8   1]
 [  0  13 155  12   0]
 [  0  17  23 121  19]
 [  0   0   0   1 179]]
Accuracy: 0.8111111111111111
Elapsed Time: 15:37:17.41
# zcols: 9
# samples: 900
# features: 27288
[[146  25   6   1   2]
 [ 10 145  21   3   1]
 [  0  26 134  20   0]
 [  0   5  17 136  22]
 [  0   0   0   1 179]]
Accuracy: 0.8222222222222222
Elapsed Time: 15:39:46.07
# zcols: 10
# samples: 900
# features: 30320
[[138  15  23   3   1]
 [  6 141  33   0   0]
 [  0   7 157  13   3]
 [  0   6  22 133  19]
 [  1   0   1  36 142]]
Accuracy: 0.79
Elapsed Time: 15:42:33.27
# zcols: 11
# samples: 900
# features: 33352
[[131  16  30   2   1]
 [  8 144  28   0   0]
 [  0  16 148  16   0]
 [  0   2   8 136  34]
 [  0   0   0   4 176]]
Accuracy: 0.8166666666666667
Elapsed Time: 15:45:37.40
# zcols: 12
# samples: 900
# features: 36384
[[162  12   6   0   0]
 [  7 133  32   8   0]
 [  0  22 143  14   1]
 [  0   9  11 135  25]
 [  0   0   0   2 178]]
Accuracy: 0.8344444444444444
Elapsed Time: 15:48:57.99
# zcols: 13
# samples: 900
# features: 39416
[[139  13  19   7   2]
 [  0 145  34   1   0]
 [  0  21 139  20   0]
 [  0   2   4 161  13]
 [  0   0   2  11 167]]
Accuracy: 0.8344444444444444
Elapsed Time: 15:52:35.78
# zcols: 14
# samples: 900
# features: 42448
[[156  12  11   0   1]
 [  6 139  33   1   1]
 [  0  23 138  19   0]
 [  0   8   6 148  18]
 [  0   0   0   5 175]]
Accuracy: 0.84
Elapsed Time: 15:56:30.38
# zcols: 15
# samples: 900
# features: 45480
[[156  11   8   3   2]
 [  1 132  44   1   2]
 [  0  17 144  19   0]
 [  0   6   1 149  24]
 [  0   0   2   8 170]]
Accuracy: 0.8344444444444444
Elapsed Time: 16:00:41.65
# zcols: 16
# samples: 900
# features: 48512
[[147  26   5   0   2]
 [  0 146  33   1   0]
 [  0  19 143  18   0]
 [  0   6  10 142  22]
 [  0   0   1  13 166]]
Accuracy: 0.8266666666666667
Elapsed Time: 16:05:08.68
# zcols: 17
# samples: 900
# features: 51544
[[140  26  11   2   1]
 [  0 148  30   2   0]
 [  0  20 139  21   0]
 [  0   9   6 146  19]
 [  0   0   0  13 167]]
Accuracy: 0.8222222222222222
Elapsed Time: 16:09:55.14
# zcols: 18
# samples: 900
# features: 54576
[[143  26   3   3   5]
 [  1 149  28   2   0]
 [  0  20 141  19   0]
 [  0   7   3 150  20]
 [  0   0   0   4 176]]
Accuracy: 0.8433333333333334
Elapsed Time: 16:14:58.17
# zcols: 19
# samples: 900
# features: 57608
[[131  39  10   0   0]
 [  0 141  37   2   0]
 [  0  26 137  17   0]
 [  0  11   9 133  27]
 [  0   0   0  15 165]]
Accuracy: 0.7855555555555556
Elapsed Time: 16:20:18.65
# zcols: 20
# samples: 900
# features: 60640
[[139  16  20   3   2]
 [  1 129  50   0   0]
 [  0   8 152  20   0]
 [  0   6  16 138  20]
 [  0   0   0  13 167]]
Accuracy: 0.8055555555555556
Elapsed Time: 16:25:55.00
# zcols: 25
# samples: 900
# features: 75800
[[147  16  14   3   0]
 [  0 136  40   4   0]
 [  0  17 146  17   0]
 [  0   9   0 146  25]
 [  0   0   0  24 156]]
Accuracy: 0.8122222222222222
Elapsed Time: 16:32:59.49
# zcols: 40
# samples: 900
# features: 121280
[[140  18  14   5   3]
 [  0 137  42   1   0]
 [  0  19 141  20   0]
 [  0  11   4 138  27]
 [  0   0   0  11 169]]
Accuracy: 0.8055555555555556
Elapsed Time: 16:44:18.74
# zcols: 50
# samples: 900
# features: 151600
[[149   8  18   5   0]
 [  0 134  44   2   0]
 [  0  19 143  18   0]
 [  0   8   3 145  24]
 [  0   0   1  14 165]]
Accuracy: 0.8177777777777778
Elapsed Time: 16:58:40.33
# zcols: 60
# samples: 900
# features: 181920
[[147   7  16   7   3]
 [  0 136  41   3   0]
 [  0  19 141  20   0]
 [  0   7   4 143  26]
 [  0   0   2  13 165]]
Accuracy: 0.8133333333333334
Elapsed Time: 17:15:54.75
# zcols: 70
# samples: 900
# features: 212240
[[149   6  20   4   1]
 [  1 132  45   2   0]
 [  0  20 139  21   0]
 [  0   6   2 149  23]
 [  0   0   2  12 166]]
Accuracy: 0.8166666666666667
Elapsed Time: 17:36:02.33
# zcols: 80
# samples: 900
# features: 242560
[[152   3  15   8   2]
 [  2 130  45   3   0]
 [  0  20 140  20   0]
 [  0  10   1 146  23]
 [  0   0   2  12 166]]
Accuracy: 0.8155555555555556
Elapsed Time: 17:59:10.43
# zcols: 90
# samples: 900
# features: 272880
[[153   3  14   8   2]
 [  3 132  42   3   0]
 [  0  20 140  20   0]
 [  0   8   1 147  24]
 [  0   0   2  13 165]]
Accuracy: 0.8188888888888889
Elapsed Time: 18:25:09.61
# zcols: 100
# samples: 900
# features: 303200
[[152   2  17   7   2]
 [  4 130  43   3   0]
 [  0  20 140  20   0]
 [  0  11   2 143  24]
 [  0   0   2  15 163]]
Accuracy: 0.8088888888888889
Elapsed Time: 18:53:57.63
# zcols: 110
# samples: 900
# features: 333520
[[152   2  14  10   2]
 [  5 128  44   3   0]
 [  0  20 139  21   0]
 [  0  10   1 146  23]
 [  0   0   2  13 165]]
Accuracy: 0.8111111111111111
Elapsed Time: 19:25:42.51
# zcols: 120
# samples: 900
# features: 363840
[[152   3  13  10   2]
 [  5 130  42   3   0]
 [  0  20 139  21   0]
 [  0  10   2 145  23]
 [  0   0   2  14 164]]
Accuracy: 0.8111111111111111
Elapsed Time: 20:00:30.21
# zcols: 127
# samples: 900
# features: 385064
[[152   3  13  10   2]
 [  4 133  40   3   0]
 [  0  20 139  21   0]
 [  0  10   2 145  23]
 [  0   0   2  13 165]]
Accuracy: 0.8155555555555556
Elapsed Time: 20:37:39.72
fm_sub2_l/FingerMotions/
numZcolumns [1, 2, 3, 4, 5, 6, 7, 8, 9, 10, 11, 12, 13, 14, 15, 16, 17, 18, 19, 20, 25, 40, 50, 60, 70, 80, 90, 100, 110, 120, 127]
# zcols: 1
# samples: 900
# features: 3032
[[122  50   4   4   0]
 [ 21 120  34   3   2]
 [ 12  42 108   9   9]
 [  1   1  20 144  14]
 [  0   3   4  27 146]]
Accuracy: 0.7111111111111111
Elapsed Time: 20:40:04.15
# zcols: 2
# samples: 900
# features: 6064
[[110  62   7   1   0]
 [  4 147  28   1   0]
 [  0  23 132  25   0]
 [  0   6  20 150   4]
 [  0   2   4  28 146]]
Accuracy: 0.7611111111111111
Elapsed Time: 20:40:38.72
# zcols: 3
# samples: 900
# features: 9096
[[122  38  19   0   1]
 [  3 155  17   5   0]
 [  0  12 155  13   0]
 [  0   7  18 147   8]
 [  0   0   5   8 167]]
Accuracy: 0.8288888888888889
Elapsed Time: 20:41:28.99
# zcols: 4
# samples: 900
# features: 12128
[[121  52   5   0   2]
 [  4 162  14   0   0]
 [  1  22 151   5   1]
 [  0   0  10 161   9]
 [  0   0   0   6 174]]
Accuracy: 0.8544444444444445
Elapsed Time: 20:42:35.40
# zcols: 5
# samples: 900
# features: 15160
[[121  46   9   2   2]
 [  0 174   6   0   0]
 [  0   4 170   6   0]
 [  0   1  16 148  15]
 [  0   0   0   7 173]]
Accuracy: 0.8733333333333333
Elapsed Time: 20:43:57.85
# zcols: 6
# samples: 900
# features: 18192
[[137  37   5   1   0]
 [  0 176   4   0   0]
 [  0   9 164   7   0]
 [  0   0   4 174   2]
 [  0   0   0  10 170]]
Accuracy: 0.9122222222222223
Elapsed Time: 20:45:36.91
# zcols: 7
# samples: 900
# features: 21224
[[123  49   0   8   0]
 [  1 176   1   2   0]
 [  0  12 160   8   0]
 [  0   0  13 161   6]
 [  0   0   0   7 173]]
Accuracy: 0.8811111111111111
Elapsed Time: 20:47:32.38
# zcols: 8
# samples: 900
# features: 24256
[[152  24   4   0   0]
 [  2 175   2   1   0]
 [  0   6 163  11   0]
 [  0   0   6 172   2]
 [  0   0   0   1 179]]
Accuracy: 0.9344444444444444
Elapsed Time: 20:49:44.95
# zcols: 9
# samples: 900
# features: 27288
[[156  24   0   0   0]
 [  0 177   3   0   0]
 [  0  11 161   8   0]
 [  0   0   3 177   0]
 [  0   0   0   6 174]]
Accuracy: 0.9388888888888889
Elapsed Time: 20:52:13.15
# zcols: 10
# samples: 900
# features: 30320
[[171   8   0   1   0]
 [  0 175   5   0   0]
 [  0   3 167  10   0]
 [  0   0   3 176   1]
 [  0   0   0  11 169]]
Accuracy: 0.9533333333333334
Elapsed Time: 20:55:01.07
# zcols: 11
# samples: 900
# features: 33352
[[151  22   2   5   0]
 [  0 179   0   1   0]
 [  0   4 161  15   0]
 [  0   0   3 176   1]
 [  0   0   0   5 175]]
Accuracy: 0.9355555555555556
Elapsed Time: 20:58:05.38
# zcols: 12
# samples: 900
# features: 36384
[[177   3   0   0   0]
 [  1 179   0   0   0]
 [  0   7 164   9   0]
 [  0   1   1 178   0]
 [  0   0   0  10 170]]
Accuracy: 0.9644444444444444
Elapsed Time: 21:01:24.60
# zcols: 13
# samples: 900
# features: 39416
[[166  14   0   0   0]
 [  0 174   3   3   0]
 [  0   8 161  11   0]
 [  0   0   1 179   0]
 [  0   0   0   2 178]]
Accuracy: 0.9533333333333334
Elapsed Time: 21:05:01.53
# zcols: 14
# samples: 900
# features: 42448
[[175   2   0   2   1]
 [  1 177   1   1   0]
 [  0   3 167  10   0]
 [  0   0   3 177   0]
 [  0   0   0   2 178]]
Accuracy: 0.9711111111111111
Elapsed Time: 21:08:55.76
# zcols: 15
# samples: 900
# features: 45480
[[175   4   1   0   0]
 [  0 176   4   0   0]
 [  0   8 162  10   0]
 [  0   0   0 180   0]
 [  0   0   0   6 174]]
Accuracy: 0.9633333333333334
Elapsed Time: 21:13:08.70
# zcols: 16
# samples: 900
# features: 48512
[[177   0   0   3   0]
 [  0 175   2   3   0]
 [  0   5 164  11   0]
 [  0   0   2 177   1]
 [  0   0   0   9 171]]
Accuracy: 0.96
Elapsed Time: 21:17:32.45
# zcols: 17
# samples: 900
# features: 51544
[[173   2   0   5   0]
 [  0 177   0   3   0]
 [  0   6 162  12   0]
 [  0   1   2 177   0]
 [  0   0   0  10 170]]
Accuracy: 0.9544444444444444
Elapsed Time: 21:22:15.65
# zcols: 18
# samples: 900
# features: 54576
[[176   0   0   4   0]
 [  0 177   0   3   0]
 [  0   7 162  11   0]
 [  0   0   4 175   1]
 [  0   0   0   9 171]]
Accuracy: 0.9566666666666667
Elapsed Time: 21:27:17.57
# zcols: 19
# samples: 900
# features: 57608
[[170   4   0   6   0]
 [  0 173   2   5   0]
 [  0   6 165   9   0]
 [  0   0   2 177   1]
 [  0   0   0   7 173]]
Accuracy: 0.9533333333333334
Elapsed Time: 21:32:34.65
# zcols: 20
# samples: 900
# features: 60640
[[177   1   1   1   0]
 [  0 177   1   2   0]
 [  0   9 158  13   0]
 [  0   0   1 178   1]
 [  0   0   0   8 172]]
Accuracy: 0.9577777777777777
Elapsed Time: 21:38:06.93
# zcols: 25
# samples: 900
# features: 75800
[[175   1   0   4   0]
 [  0 176   2   2   0]
 [  0  13 154  13   0]
 [  0   0   2 178   0]
 [  0   0   0   7 173]]
Accuracy: 0.9511111111111111
Elapsed Time: 21:45:08.16
# zcols: 40
# samples: 900
# features: 121280
[[175   0   0   5   0]
 [  0 170   3   7   0]
 [  0  11 154  15   0]
 [  0   0   5 174   1]
 [  0   0   0   9 171]]
Accuracy: 0.9377777777777778
Elapsed Time: 21:56:25.70
# zcols: 50
# samples: 900
# features: 151600
[[174   0   0   6   0]
 [  0 166   3  11   0]
 [  0  12 152  16   0]
 [  0   0   3 177   0]
 [  0   0   0   8 172]]
Accuracy: 0.9344444444444444
Elapsed Time: 22:10:42.54
# zcols: 60
# samples: 900
# features: 181920
[[176   0   0   4   0]
 [  0 161   8  11   0]
 [  0  14 151  15   0]
 [  0   0   2 177   1]
 [  0   0   0   9 171]]
Accuracy: 0.9288888888888889
Elapsed Time: 22:27:55.83
# zcols: 70
# samples: 900
# features: 212240
[[173   0   0   7   0]
 [  0 160   8  12   0]
 [  0  12 152  16   0]
 [  0   0   2 177   1]
 [  0   0   0   9 171]]
Accuracy: 0.9255555555555556
Elapsed Time: 22:47:52.14
# zcols: 80
# samples: 900
# features: 242560
[[171   0   0   9   0]
 [  0 159   8  13   0]
 [  0  15 150  15   0]
 [  0   0   5 174   1]
 [  0   0   0   9 171]]
Accuracy: 0.9166666666666666
Elapsed Time: 23:10:51.71
# zcols: 90
# samples: 900
# features: 272880
[[173   0   0   7   0]
 [  0 161   6  13   0]
 [  0  13 150  17   0]
 [  0   0   4 174   2]
 [  0   0   0   9 171]]
Accuracy: 0.9211111111111111
Elapsed Time: 23:36:46.88
# zcols: 100
# samples: 900
# features: 303200
[[173   0   0   7   0]
 [  0 161   6  13   0]
 [  0  12 149  19   0]
 [  0   0   4 176   0]
 [  0   0   0   9 171]]
Accuracy: 0.9222222222222223
Elapsed Time: 24:05:33.91
# zcols: 110
# samples: 900
# features: 333520
[[173   0   0   7   0]
 [  0 161   6  13   0]
 [  0  14 148  18   0]
 [  0   0   2 177   1]
 [  0   0   0   8 172]]
Accuracy: 0.9233333333333333
Elapsed Time: 24:37:08.04
# zcols: 120
# samples: 900
# features: 363840
[[173   0   0   7   0]
 [  0 161   6  13   0]
 [  0  14 148  18   0]
 [  0   0   5 174   1]
 [  0   0   0   8 172]]
Accuracy: 0.92
Elapsed Time: 25:11:34.78
# zcols: 127
# samples: 900
# features: 385064
[[173   0   0   7   0]
 [  0 161   6  13   0]
 [  0  13 149  18   0]
 [  0   0   5 173   2]
 [  0   0   0   8 172]]
Accuracy: 0.92
Elapsed Time: 25:48:46.42
fm_sub2_r/FingerMotions/
numZcolumns [1, 2, 3, 4, 5, 6, 7, 8, 9, 10, 11, 12, 13, 14, 15, 16, 17, 18, 19, 20, 25, 40, 50, 60, 70, 80, 90, 100, 110, 120, 127]
# zcols: 1
# samples: 900
# features: 3032
[[156  16   1   7   0]
 [ 16  53  56  42  13]
 [  6  36  82  43  13]
 [  7   8  37 113  15]
 [  0  23  10  31 116]]
Accuracy: 0.5777777777777777
Elapsed Time: 25:49:14.06
# zcols: 2
# samples: 900
# features: 6064
[[106  34   9  15  16]
 [ 20  85  50  20   5]
 [  1  20  72  69  18]
 [  1   6  26 139   8]
 [  0   3  15  36 126]]
Accuracy: 0.5866666666666667
Elapsed Time: 25:49:47.15
# zcols: 3
# samples: 900
# features: 9096
[[142  13   0  20   5]
 [  8 108  40  18   6]
 [  1  10 107  57   5]
 [  0  12  39 123   6]
 [  0   7   6  43 124]]
Accuracy: 0.6711111111111111
Elapsed Time: 25:50:35.95
# zcols: 4
# samples: 900
# features: 12128
[[171   5   2   0   2]
 [ 17 138  18   5   2]
 [  0  17 108  51   4]
 [  0   6  50 122   2]
 [  0   1  10  31 138]]
Accuracy: 0.7522222222222222
Elapsed Time: 25:51:41.29
# zcols: 5
# samples: 900
# features: 15160
[[167  11   1   0   1]
 [ 28 119  30   2   1]
 [  0   2 135  42   1]
 [  0   0  14 161   5]
 [  2   7   9  19 143]]
Accuracy: 0.8055555555555556
Elapsed Time: 25:53:02.21
# zcols: 6
# samples: 900
# features: 18192
[[140  15  21   4   0]
 [ 27 104  27  22   0]
 [  0   2 152  26   0]
 [  0   0  14 166   0]
 [  0   0   0  29 151]]
Accuracy: 0.7922222222222223
Elapsed Time: 25:54:39.90
# zcols: 7
# samples: 900
# features: 21224
[[165  11   4   0   0]
 [  0 115  55  10   0]
 [  0   0 126  54   0]
 [  0   5   9 164   2]
 [  0   1   4  25 150]]
Accuracy: 0.8
Elapsed Time: 25:56:33.32
# zcols: 8
# samples: 900
# features: 24256
[[173   7   0   0   0]
 [  7 155  16   2   0]
 [  0   0 145  35   0]
 [  0   0  13 166   1]
 [  0   2   1  24 153]]
Accuracy: 0.88
Elapsed Time: 25:58:44.21
# zcols: 9
# samples: 900
# features: 27288
[[178   0   0   2   0]
 [  7 147  26   0   0]
 [  0   0 147  33   0]
 [  0   0  11 152  17]
 [  0   0   0  32 148]]
Accuracy: 0.8577777777777778
Elapsed Time: 26:01:09.89
# zcols: 10
# samples: 900
# features: 30320
[[180   0   0   0   0]
 [  8 107  56   4   5]
 [  0   0 152  28   0]
 [  0   0   5 164  11]
 [  0   0   2  10 168]]
Accuracy: 0.8566666666666667
Elapsed Time: 26:03:54.94
# zcols: 11
# samples: 900
# features: 33352
[[180   0   0   0   0]
 [  9 150  21   0   0]
 [  0   0 152  28   0]
 [  0   0   3 175   2]
 [  0   0   1  19 160]]
Accuracy: 0.9077777777777778
Elapsed Time: 26:06:55.89
# zcols: 12
# samples: 900
# features: 36384
[[179   0   0   1   0]
 [  2 124  36  18   0]
 [  0   0 149  31   0]
 [  0   0   7 168   5]
 [  0   0   0  22 158]]
Accuracy: 0.8644444444444445
Elapsed Time: 26:10:13.30
# zcols: 13
# samples: 900
# features: 39416
[[167   0   0  13   0]
 [  0 127  23  30   0]
 [  0   0 147  33   0]
 [  0   0  15 154  11]
 [  0   0   0   7 173]]
Accuracy: 0.8533333333333334
Elapsed Time: 26:13:48.25
# zcols: 14
# samples: 900
# features: 42448
[[180   0   0   0   0]
 [  6 123  49   2   0]
 [  0   0 148  32   0]
 [  0   1   7 164   8]
 [  0   0   0  16 164]]
Accuracy: 0.8655555555555555
Elapsed Time: 26:17:38.23
# zcols: 15
# samples: 900
# features: 45480
[[178   0   0   2   0]
 [  1 121  49   9   0]
 [  0   0 147  33   0]
 [  0   0   8 164   8]
 [  0   0   0   9 171]]
Accuracy: 0.8677777777777778
Elapsed Time: 26:21:45.44
# zcols: 16
# samples: 900
# features: 48512
[[180   0   0   0   0]
 [  2 132  22  24   0]
 [  0   0 148  32   0]
 [  0   0   7 156  17]
 [  0   0   0  18 162]]
Accuracy: 0.8644444444444445
Elapsed Time: 26:26:07.09
# zcols: 17
# samples: 900
# features: 51544
[[179   0   1   0   0]
 [  7 113  59   1   0]
 [  0   0 152  28   0]
 [  0   0   6 157  17]
 [  0   0   0   7 173]]
Accuracy: 0.86
Elapsed Time: 26:30:48.09
# zcols: 18
# samples: 900
# features: 54576
[[180   0   0   0   0]
 [  2 118  54   6   0]
 [  0   0 149  31   0]
 [  0   0   8 155  17]
 [  0   0   0  10 170]]
Accuracy: 0.8577777777777778
Elapsed Time: 26:35:46.32
# zcols: 19
# samples: 900
# features: 57608
[[176   0   0   4   0]
 [  1 119  55   3   2]
 [  0   0 150  30   0]
 [  0   0   6 165   9]
 [  0   0   0  10 170]]
Accuracy: 0.8666666666666667
Elapsed Time: 26:41:00.30
# zcols: 20
# samples: 900
# features: 60640
[[180   0   0   0   0]
 [  0 120  49  11   0]
 [  0   0 151  29   0]
 [  0   0   6 156  18]
 [  0   0   0   6 174]]
Accuracy: 0.8677777777777778
Elapsed Time: 26:46:29.08
# zcols: 25
# samples: 900
# features: 75800
[[179   0   0   1   0]
 [  1 119  57   3   0]
 [  0   0 149  31   0]
 [  0   0   6 158  16]
 [  0   0   0   2 178]]
Accuracy: 0.87
Elapsed Time: 26:53:22.22
# zcols: 40
# samples: 900
# features: 121280
[[179   0   0   1   0]
 [  2 117  44  16   1]
 [  0   0 151  29   0]
 [  0   0   7 156  17]
 [  0   0   0   8 172]]
Accuracy: 0.8611111111111112
Elapsed Time: 27:04:33.44
# zcols: 50
# samples: 900
# features: 151600
[[174   0   0   6   0]
 [  1 124  29  22   4]
 [  0   0 150  30   0]
 [  0   0   5 158  17]
 [  0   0   0  11 169]]
Accuracy: 0.8611111111111112
Elapsed Time: 27:18:31.57
# zcols: 60
# samples: 900
# features: 181920
[[175   2   0   3   0]
 [  1 128  34  13   4]
 [  0   0 151  29   0]
 [  0   0   6 158  16]
 [  0   0   0  11 169]]
Accuracy: 0.8677777777777778
Elapsed Time: 27:35:20.24
# zcols: 70
# samples: 900
# features: 212240
[[174   2   0   4   0]
 [  0 142  24  12   2]
 [  0   0 151  29   0]
 [  0   0   6 157  17]
 [  0   0   0  12 168]]
Accuracy: 0.88
Elapsed Time: 27:54:53.59
# zcols: 80
# samples: 900
# features: 242560
[[176   0   0   4   0]
 [  0 142  22  12   4]
 [  0   0 151  29   0]
 [  0   0   5 159  16]
 [  0   0   0  13 167]]
Accuracy: 0.8833333333333333
Elapsed Time: 28:17:14.93
# zcols: 90
# samples: 900
# features: 272880
[[175   2   0   3   0]
 [  0 147  21  10   2]
 [  0   0 149  31   0]
 [  0   0   6 159  15]
 [  0   0   0  13 167]]
Accuracy: 0.8855555555555555
Elapsed Time: 28:42:35.25
# zcols: 100
# samples: 900
# features: 303200
[[173   0   0   7   0]
 [  0 150  18  10   2]
 [  0   0 152  28   0]
 [  0   0   6 160  14]
 [  0   0   0  14 166]]
Accuracy: 0.89
Elapsed Time: 29:10:40.78
# zcols: 110
# samples: 900
# features: 333520
[[175   0   0   5   0]
 [  0 151  18   9   2]
 [  0   0 152  28   0]
 [  0   0   5 160  15]
 [  0   0   0  14 166]]
Accuracy: 0.8933333333333333
Elapsed Time: 29:41:45.71
# zcols: 120
# samples: 900
# features: 363840
[[175   0   0   5   0]
 [  0 157  15   7   1]
 [  0   1 150  29   0]
 [  0   0   6 162  12]
 [  0   0   0  15 165]]
Accuracy: 0.8988888888888888
Elapsed Time: 30:15:35.81
# zcols: 127
# samples: 900
# features: 385064
[[175   0   0   5   0]
 [  0 155  17   7   1]
 [  0   3 148  29   0]
 [  0   0   5 162  13]
 [  0   0   0  15 165]]
Accuracy: 0.8944444444444445
Elapsed Time: 30:51:42.58
fm_sub3_l/FingerMotions/
numZcolumns [1, 2, 3, 4, 5, 6, 7, 8, 9, 10, 11, 12, 13, 14, 15, 16, 17, 18, 19, 20, 25, 40, 50, 60, 70, 80, 90, 100, 110, 120, 127]
# zcols: 1
# samples: 900
# features: 3032
[[ 62  32  38  22  26]
 [ 26  47  33  39  35]
 [ 14  20 100  21  25]
 [ 17  46  35  54  28]
 [ 19  21  45  36  59]]
Accuracy: 0.35777777777777775
Elapsed Time: 30:52:11.12
# zcols: 2
# samples: 900
# features: 6064
[[140  15   4  16   5]
 [ 15  99  36  13  17]
 [ 16  33  98  25   8]
 [ 14  49  15  79  23]
 [  0  11  29  35 105]]
Accuracy: 0.5788888888888889
Elapsed Time: 30:52:44.48
# zcols: 3
# samples: 900
# features: 9096
[[163   5   3   8   1]
 [  6 104  16  29  25]
 [  2  21 116  35   6]
 [  6  32  15 105  22]
 [  3  19  19  57  82]]
Accuracy: 0.6333333333333333
Elapsed Time: 30:53:33.53
# zcols: 4
# samples: 900
# features: 12128
[[157   6   7   2   8]
 [  1 124  30  12  13]
 [  0  18 151   5   6]
 [  7  45  16 108   4]
 [  6  34  51  14  75]]
Accuracy: 0.6833333333333333
Elapsed Time: 30:54:38.64
# zcols: 5
# samples: 900
# features: 15160
[[149  20   8   1   2]
 [  4 118  22  14  22]
 [  1   5 172   1   1]
 [  2   8  46 105  19]
 [ 17  32  16   9 106]]
Accuracy: 0.7222222222222222
Elapsed Time: 30:56:00.31
# zcols: 6
# samples: 900
# features: 18192
[[173   4   1   0   2]
 [  5 117  23   0  35]
 [  0  12 133  31   4]
 [  0   9  17 150   4]
 [ 13  20  34   4 109]]
Accuracy: 0.7577777777777778
Elapsed Time: 30:57:37.92
# zcols: 7
# samples: 900
# features: 21224
[[153  20   7   0   0]
 [  4 154   8  11   3]
 [  0   5 160  15   0]
 [  0  31  38 108   3]
 [  9  38   6  24 103]]
Accuracy: 0.7533333333333333
Elapsed Time: 30:59:31.88
# zcols: 8
# samples: 900
# features: 24256
[[180   0   0   0   0]
 [  0 171   6   0   3]
 [  0   5 161   8   6]
 [  0   2  59 119   0]
 [ 25   3   3   0 149]]
Accuracy: 0.8666666666666667
Elapsed Time: 31:01:42.92
# zcols: 9
# samples: 900
# features: 27288
[[168  10   0   0   2]
 [  0 146   2   0  32]
 [  0   2 163  11   4]
 [  0  21  22 136   1]
 [ 12  45  15   2 106]]
Accuracy: 0.7988888888888889
Elapsed Time: 31:04:09.11
# zcols: 10
# samples: 900
# features: 30320
[[154  24   0   0   2]
 [  1 146   5   0  28]
 [  0  17 159   2   2]
 [  0  37   8 135   0]
 [ 12  55   5   8 100]]
Accuracy: 0.7711111111111111
Elapsed Time: 31:06:52.21
# zcols: 11
# samples: 900
# features: 33352
[[173   6   0   0   1]
 [  1 165   4   1   9]
 [  0   0 141  38   1]
 [  0  14  36 118  12]
 [ 22  38   0   0 120]]
Accuracy: 0.7966666666666666
Elapsed Time: 31:09:52.26
# zcols: 12
# samples: 900
# features: 36384
[[152  17   0   0  11]
 [  0 147   8   2  23]
 [  0   3 133  43   1]
 [  0  19  32 123   6]
 [ 19  38   3   4 116]]
Accuracy: 0.7455555555555555
Elapsed Time: 31:13:11.47
# zcols: 13
# samples: 900
# features: 39416
[[150  30   0   0   0]
 [  1 141   6   0  32]
 [  0  11 160   6   3]
 [  0  34  14 129   3]
 [ 17  22   6   2 133]]
Accuracy: 0.7922222222222223
Elapsed Time: 31:16:45.60
# zcols: 14
# samples: 900
# features: 42448
[[161  18   0   0   1]
 [  0 155   1   3  21]
 [  0  16 151  12   1]
 [  0  24  25 129   2]
 [ 11  61   1   1 106]]
Accuracy: 0.78
Elapsed Time: 31:20:37.48
# zcols: 15
# samples: 900
# features: 45480
[[153  27   0   0   0]
 [  0 140  19   1  20]
 [  0  17 152  11   0]
 [  0  32  19 129   0]
 [ 15  39   6   0 120]]
Accuracy: 0.7711111111111111
Elapsed Time: 31:24:47.43
# zcols: 16
# samples: 900
# features: 48512
[[159  18   0   0   3]
 [  0 165   3   0  12]
 [  0  18 129  30   3]
 [  0  18  34 127   1]
 [ 19  45   0   0 116]]
Accuracy: 0.7733333333333333
Elapsed Time: 31:29:13.98
# zcols: 17
# samples: 900
# features: 51544
[[136  44   0   0   0]
 [  0 141   2   1  36]
 [  0   5 148  24   3]
 [  0  19  42 117   2]
 [ 17  68  11   0  84]]
Accuracy: 0.6955555555555556
Elapsed Time: 31:33:56.49
# zcols: 18
# samples: 900
# features: 54576
[[167   7   0   0   6]
 [  0 150   6   0  24]
 [  0  19 130  27   4]
 [  0  31  43 105   1]
 [ 17  42   1   0 120]]
Accuracy: 0.7466666666666667
Elapsed Time: 31:38:54.21
# zcols: 19
# samples: 900
# features: 57608
[[142  36   0   0   2]
 [  0 142  10   0  28]
 [  0  30 121  27   2]
 [  0  23  31 124   2]
 [  9  47   1   0 123]]
Accuracy: 0.7244444444444444
Elapsed Time: 31:44:09.13
# zcols: 20
# samples: 900
# features: 60640
[[147  21   0   0  12]
 [  0 157   7   0  16]
 [  0  33 125  22   0]
 [  0  25  24 128   3]
 [ 20  33   1   0 126]]
Accuracy: 0.7588888888888888
Elapsed Time: 31:49:40.94
# zcols: 25
# samples: 900
# features: 75800
[[158  20   0   0   2]
 [  0 158   9   0  13]
 [  0  33 125  22   0]
 [  1  22  24 130   3]
 [ 15  60   0   0 105]]
Accuracy: 0.7511111111111111
Elapsed Time: 31:56:40.88
# zcols: 40
# samples: 900
# features: 121280
[[162  17   0   0   1]
 [  0 144  31   0   5]
 [  0  30 144   6   0]
 [  0  23  41 110   6]
 [ 18  44   5   2 111]]
Accuracy: 0.7455555555555555
Elapsed Time: 32:07:58.39
# zcols: 50
# samples: 900
# features: 151600
[[172   6   0   0   2]
 [  0 136  36   0   8]
 [  0  22 151   7   0]
 [  0  20  28 126   6]
 [ 24  35   8   2 111]]
Accuracy: 0.7733333333333333
Elapsed Time: 32:22:03.00
# zcols: 60
# samples: 900
# features: 181920
[[168  10   0   0   2]
 [  0 139  33   0   8]
 [  0  16 160   4   0]
 [  0  23  21 133   3]
 [ 19  42  12   1 106]]
Accuracy: 0.7844444444444445
Elapsed Time: 32:38:58.86
# zcols: 70
# samples: 900
# features: 212240
[[172   6   0   0   2]
 [  0 142  35   0   3]
 [  0  21 154   5   0]
 [  0  20  25 130   5]
 [ 18  35  20   2 105]]
Accuracy: 0.7811111111111111
Elapsed Time: 32:58:44.53
# zcols: 80
# samples: 900
# features: 242560
[[173   6   0   0   1]
 [  0 141  36   0   3]
 [  0  14 161   5   0]
 [  1  20  17 135   7]
 [ 21  36  18   2 103]]
Accuracy: 0.7922222222222223
Elapsed Time: 33:21:25.20
# zcols: 90
# samples: 900
# features: 272880
[[177   2   0   0   1]
 [  0 140  36   0   4]
 [  0  18 157   5   0]
 [  0  22  19 133   6]
 [ 22  37  20   1 100]]
Accuracy: 0.7855555555555556
Elapsed Time: 33:46:56.22
# zcols: 100
# samples: 900
# features: 303200
[[175   4   0   0   1]
 [  0 142  35   0   3]
 [  0  20 157   3   0]
 [  0  21  16 137   6]
 [ 22  34  19   1 104]]
Accuracy: 0.7944444444444444
Elapsed Time: 34:15:10.31
# zcols: 110
# samples: 900
# features: 333520
[[175   4   0   0   1]
 [  0 142  35   0   3]
 [  0  17 160   3   0]
 [  0  23  15 136   6]
 [ 24  33  18   2 103]]
Accuracy: 0.7955555555555556
Elapsed Time: 34:46:28.81
# zcols: 120
# samples: 900
# features: 363840
[[175   4   0   0   1]
 [  0 142  35   0   3]
 [  0  19 158   3   0]
 [  1  21  16 135   7]
 [ 21  34  18   2 105]]
Accuracy: 0.7944444444444444
Elapsed Time: 35:20:37.72
# zcols: 127
# samples: 900
# features: 385064
[[176   3   0   0   1]
 [  0 142  35   0   3]
 [  0  19 158   3   0]
 [  1  20  16 136   7]
 [ 24  33  19   1 103]]
Accuracy: 0.7944444444444444
Elapsed Time: 35:57:05.15
fm_sub3_r/FingerMotions/
numZcolumns [1, 2, 3, 4, 5, 6, 7, 8, 9, 10, 11, 12, 13, 14, 15, 16, 17, 18, 19, 20, 25, 40, 50, 60, 70, 80, 90, 100, 110, 120, 127]
# zcols: 1
# samples: 900
# features: 3032
[[85 22  9 39 25]
 [16 73 38 27 26]
 [39 29 70 22 20]
 [18  8  9 96 49]
 [19 28 17 48 68]]
Accuracy: 0.43555555555555553
Elapsed Time: 35:57:40.56
# zcols: 2
# samples: 900
# features: 6064
[[156   0   4  11   9]
 [  0 118  48   6   8]
 [  6  11 155   1   7]
 [  3   4   0 123  50]
 [  1   1   2  58 118]]
Accuracy: 0.7444444444444445
Elapsed Time: 35:58:13.52
# zcols: 3
# samples: 900
# features: 9096
[[149   0   3   4  24]
 [  0 140  40   0   0]
 [  2   7 168   0   3]
 [  7   0   0 115  58]
 [  1   1   1  52 125]]
Accuracy: 0.7744444444444445
Elapsed Time: 35:59:01.71
# zcols: 4
# samples: 900
# features: 12128
[[177   0   0   1   2]
 [  0 150  29   0   1]
 [  5  18 142   8   7]
 [  3   0   0 130  47]
 [  0   0   1  45 134]]
Accuracy: 0.8144444444444444
Elapsed Time: 36:00:06.18
# zcols: 5
# samples: 900
# features: 15160
[[180   0   0   0   0]
 [  0 127  53   0   0]
 [  0  14 165   0   1]
 [  0   1   0 133  46]
 [ 19   0   2  27 132]]
Accuracy: 0.8188888888888889
Elapsed Time: 36:01:26.61
# zcols: 6
# samples: 900
# features: 18192
[[179   0   0   1   0]
 [  0 177   3   0   0]
 [  0   6 173   1   0]
 [  0   0   0 152  28]
 [  1   0   0  42 137]]
Accuracy: 0.9088888888888889
Elapsed Time: 36:03:02.58
# zcols: 7
# samples: 900
# features: 21224
[[179   0   0   0   1]
 [  6 165   7   0   2]
 [  0   5 175   0   0]
 [  0   0   0 153  27]
 [  0   0   0  47 133]]
Accuracy: 0.8944444444444445
Elapsed Time: 36:04:54.91
# zcols: 8
# samples: 900
# features: 24256
[[180   0   0   0   0]
 [  3 171   6   0   0]
 [  0   1 179   0   0]
 [  0   0   0 148  32]
 [  0   0   0  30 150]]
Accuracy: 0.92
Elapsed Time: 36:07:03.79
# zcols: 9
# samples: 900
# features: 27288
[[180   0   0   0   0]
 [  4 162   7   3   4]
 [  0   1 179   0   0]
 [  0   0   0 150  30]
 [  1   0   0  32 147]]
Accuracy: 0.9088888888888889
Elapsed Time: 36:09:28.47
# zcols: 10
# samples: 900
# features: 30320
[[180   0   0   0   0]
 [  9 165   6   0   0]
 [  5   2 173   0   0]
 [  0   0   0 141  39]
 [  0   0   0  25 155]]
Accuracy: 0.9044444444444445
Elapsed Time: 36:12:10.64
# zcols: 11
# samples: 900
# features: 33352
[[180   0   0   0   0]
 [  5 166   8   1   0]
 [  0  15 165   0   0]
 [  0   0   0 140  40]
 [  0   0   0  39 141]]
Accuracy: 0.88
Elapsed Time: 36:15:07.64
# zcols: 12
# samples: 900
# features: 36384
[[180   0   0   0   0]
 [  4 174   2   0   0]
 [  4   3 173   0   0]
 [  0   0   0 135  45]
 [  0   0   0  24 156]]
Accuracy: 0.9088888888888889
Elapsed Time: 36:18:22.53
# zcols: 13
# samples: 900
# features: 39416
[[180   0   0   0   0]
 [ 20 158   2   0   0]
 [  0   4 176   0   0]
 [  0   0   0 135  45]
 [  4   0   0  33 143]]
Accuracy: 0.88
Elapsed Time: 36:21:53.64
# zcols: 14
# samples: 900
# features: 42448
[[180   0   0   0   0]
 [  2 177   1   0   0]
 [  0   2 178   0   0]
 [  0   0   0 140  40]
 [  0   0   0  34 146]]
Accuracy: 0.9122222222222223
Elapsed Time: 36:25:40.53
# zcols: 15
# samples: 900
# features: 45480
[[180   0   0   0   0]
 [  7 168   5   0   0]
 [  0   7 173   0   0]
 [  0   0   0 136  44]
 [  0   0   0  36 144]]
Accuracy: 0.89
Elapsed Time: 36:29:44.92
# zcols: 16
# samples: 900
# features: 48512
[[180   0   0   0   0]
 [ 10 167   3   0   0]
 [  0  16 164   0   0]
 [  0   0   0 141  39]
 [  0   0   0  36 144]]
Accuracy: 0.8844444444444445
Elapsed Time: 36:34:06.87
# zcols: 17
# samples: 900
# features: 51544
[[180   0   0   0   0]
 [ 11 163   6   0   0]
 [  0  10 170   0   0]
 [  0   0   0 124  56]
 [  0   0   0  40 140]]
Accuracy: 0.8633333333333333
Elapsed Time: 36:38:45.57
# zcols: 18
# samples: 900
# features: 54576
[[180   0   0   0   0]
 [  6 168   6   0   0]
 [  0  14 166   0   0]
 [  0   0   0 134  46]
 [  0   0   0  35 145]]
Accuracy: 0.8811111111111111
Elapsed Time: 36:43:38.16
# zcols: 19
# samples: 900
# features: 57608
[[180   0   0   0   0]
 [  2 172   4   1   1]
 [  0  22 158   0   0]
 [  0   0   0 129  51]
 [  0   0   0  34 146]]
Accuracy: 0.8722222222222222
Elapsed Time: 36:48:47.66
# zcols: 20
# samples: 900
# features: 60640
[[180   0   0   0   0]
 [  3 174   3   0   0]
 [  0  14 166   0   0]
 [  0   0   0 129  51]
 [  0   0   0  24 156]]
Accuracy: 0.8944444444444445
Elapsed Time: 36:54:16.58
# zcols: 25
# samples: 900
# features: 75800
[[180   0   0   0   0]
 [  3 173   4   0   0]
 [  1   3 176   0   0]
 [  0   0   0 123  57]
 [  0   0   0  36 144]]
Accuracy: 0.8844444444444445
Elapsed Time: 37:01:09.05
# zcols: 40
# samples: 900
# features: 121280
[[180   0   0   0   0]
 [  4 169   7   0   0]
 [  0  17 163   0   0]
 [  0   0   0 128  52]
 [  0   0   0  37 143]]
Accuracy: 0.87
Elapsed Time: 37:12:13.65
# zcols: 50
# samples: 900
# features: 151600
[[180   0   0   0   0]
 [  3 171   6   0   0]
 [  1  10 169   0   0]
 [  0   0   0 127  53]
 [  0   0   0  40 140]]
Accuracy: 0.8744444444444445
Elapsed Time: 37:26:05.22
# zcols: 60
# samples: 900
# features: 181920
[[177   1   0   2   0]
 [  2 171   7   0   0]
 [  0  16 164   0   0]
 [  0   0   0 126  54]
 [  0   0   0  35 145]]
Accuracy: 0.87
Elapsed Time: 37:42:46.89
# zcols: 70
# samples: 900
# features: 212240
[[180   0   0   0   0]
 [  2 172   6   0   0]
 [  0  18 162   0   0]
 [  0   0   0 125  55]
 [  0   0   0  36 144]]
Accuracy: 0.87
Elapsed Time: 38:02:20.32
# zcols: 80
# samples: 900
# features: 242560
[[178   0   0   2   0]
 [  2 171   7   0   0]
 [  0  13 167   0   0]
 [  0   0   0 125  55]
 [  0   0   0  39 141]]
Accuracy: 0.8688888888888889
Elapsed Time: 38:24:39.65
# zcols: 90
# samples: 900
# features: 272880
[[177   0   0   3   0]
 [  3 168   9   0   0]
 [  0  19 161   0   0]
 [  0   0   0 125  55]
 [  0   0   0  33 147]]
Accuracy: 0.8644444444444445
Elapsed Time: 38:49:51.32
# zcols: 100
# samples: 900
# features: 303200
[[175   0   0   5   0]
 [  2 172   6   0   0]
 [  0  17 163   0   0]
 [  0   0   0 124  56]
 [  0   0   0  36 144]]
Accuracy: 0.8644444444444445
Elapsed Time: 39:17:49.26
# zcols: 110
# samples: 900
# features: 333520
[[177   0   0   3   0]
 [  2 168  10   0   0]
 [  0  17 163   0   0]
 [  0   0   0 123  57]
 [  0   0   0  34 146]]
Accuracy: 0.8633333333333333
Elapsed Time: 39:48:34.04
# zcols: 120
# samples: 900
# features: 363840
[[176   0   0   4   0]
 [  2 170   8   0   0]
 [  0  16 164   0   0]
 [  0   0   0 127  53]
 [  0   0   0  34 146]]
Accuracy: 0.87
Elapsed Time: 40:22:04.52
# zcols: 127
# samples: 900
# features: 385064
[[176   0   0   4   0]
 [  2 171   7   0   0]
 [  0  16 164   0   0]
 [  0   0   0 125  55]
 [  0   0   0  34 146]]
Accuracy: 0.8688888888888889
Elapsed Time: 40:57:54.57
fm_sub4_l/FingerMotions/
numZcolumns [1, 2, 3, 4, 5, 6, 7, 8, 9, 10, 11, 12, 13, 14, 15, 16, 17, 18, 19, 20, 25, 40, 50, 60, 70, 80, 90, 100, 110, 120, 127]
# zcols: 1
# samples: 900
# features: 3032
[[39 55 28 24 34]
 [44 83 15  9 29]
 [25 17 94 21 23]
 [15  7 44 74 40]
 [41 46 30 27 36]]
Accuracy: 0.3622222222222222
Elapsed Time: 40:58:25.74
# zcols: 2
# samples: 900
# features: 6064
[[103  62   3   2  10]
 [ 35 114  13   5  13]
 [  2  23 112  26  17]
 [  0   3  30 133  14]
 [ 20  65  27  14  54]]
Accuracy: 0.5733333333333334
Elapsed Time: 40:58:58.88
# zcols: 3
# samples: 900
# features: 9096
[[ 86  67  10   7  10]
 [ 43 116   6   7   8]
 [  6  10 111  38  15]
 [  6   1  30 107  36]
 [ 12   9  16  83  60]]
Accuracy: 0.5333333333333333
Elapsed Time: 40:59:47.79
# zcols: 4
# samples: 900
# features: 12128
[[133  47   0   0   0]
 [ 25 139   4   2  10]
 [  3   9 139  16  13]
 [  0   5  35 127  13]
 [  2  24   8  41 105]]
Accuracy: 0.7144444444444444
Elapsed Time: 41:00:52.84
# zcols: 5
# samples: 900
# features: 15160
[[148  28   2   2   0]
 [ 15 140  19   0   6]
 [  2   5 136  25  12]
 [  0   1  14 140  25]
 [ 36  11   3  48  82]]
Accuracy: 0.7177777777777777
Elapsed Time: 41:02:14.21
# zcols: 6
# samples: 900
# features: 18192
[[158  22   0   0   0]
 [ 12 137  30   0   1]
 [  0  25 140  10   5]
 [  0   0  14 153  13]
 [  3   1  11  19 146]]
Accuracy: 0.8155555555555556
Elapsed Time: 41:03:51.30
# zcols: 7
# samples: 900
# features: 21224
[[145  28   6   1   0]
 [  1 166   7   3   3]
 [  0  12 147  14   7]
 [  2   1  11 152  14]
 [ 17   0   3  51 109]]
Accuracy: 0.7988888888888889
Elapsed Time: 41:05:45.19
# zcols: 8
# samples: 900
# features: 24256
[[144  31   3   0   2]
 [ 12 141  27   0   0]
 [  0  20 147  11   2]
 [  0   1   9 168   2]
 [  3   2   6  51 118]]
Accuracy: 0.7977777777777778
Elapsed Time: 41:07:55.74
# zcols: 9
# samples: 900
# features: 27288
[[161  12   5   2   0]
 [  5 167   6   1   1]
 [  0  25 136  18   1]
 [  2   1  16 152   9]
 [  0   2  14  72  92]]
Accuracy: 0.7866666666666666
Elapsed Time: 41:10:23.10
# zcols: 10
# samples: 900
# features: 30320
[[167  11   2   0   0]
 [  2 162  16   0   0]
 [  0  12 150  18   0]
 [  0   0  11 157  12]
 [  0   1  11  44 124]]
Accuracy: 0.8444444444444444
Elapsed Time: 41:13:06.19
# zcols: 11
# samples: 900
# features: 33352
[[141  39   0   0   0]
 [  5 169   5   1   0]
 [  0  10 160   8   2]
 [  2   2  11 146  19]
 [  5   0   0  54 121]]
Accuracy: 0.8188888888888889
Elapsed Time: 41:16:05.83
# zcols: 12
# samples: 900
# features: 36384
[[146  34   0   0   0]
 [  6 162  12   0   0]
 [  0  10 164   6   0]
 [  0   0   8 166   6]
 [  0   2   6  49 123]]
Accuracy: 0.8455555555555555
Elapsed Time: 41:19:24.09
# zcols: 13
# samples: 900
# features: 39416
[[155  24   1   0   0]
 [  4 172   3   1   0]
 [  0  12 164   4   0]
 [  0   0   4 161  15]
 [  0   0  12  62 106]]
Accuracy: 0.8422222222222222
Elapsed Time: 41:22:58.47
# zcols: 14
# samples: 900
# features: 42448
[[146  33   1   0   0]
 [  2 162  15   1   0]
 [  0  13 166   1   0]
 [  0   0  12 166   2]
 [  0   0   4  52 124]]
Accuracy: 0.8488888888888889
Elapsed Time: 41:26:49.90
# zcols: 15
# samples: 900
# features: 45480
[[151  29   0   0   0]
 [  3 166  10   0   1]
 [  0  15 162   3   0]
 [  0   0   2 173   5]
 [  0   0   3  61 116]]
Accuracy: 0.8533333333333334
Elapsed Time: 41:30:58.77
# zcols: 16
# samples: 900
# features: 48512
[[151  29   0   0   0]
 [  5 166   9   0   0]
 [  0  15 163   2   0]
 [  0   0   6 173   1]
 [  4   1   4  57 114]]
Accuracy: 0.8522222222222222
Elapsed Time: 41:35:24.51
# zcols: 17
# samples: 900
# features: 51544
[[163  17   0   0   0]
 [  7 167   6   0   0]
 [  0   9 169   2   0]
 [  0   0   8 164   8]
 [  0   0   0  51 129]]
Accuracy: 0.88
Elapsed Time: 41:40:04.74
# zcols: 18
# samples: 900
# features: 54576
[[156  24   0   0   0]
 [  3 155  21   1   0]
 [  0  18 161   1   0]
 [  0   1  10 158  11]
 [  0   0   2  60 118]]
Accuracy: 0.8311111111111111
Elapsed Time: 41:45:02.46
# zcols: 19
# samples: 900
# features: 57608
[[144  35   0   1   0]
 [  5 173   2   0   0]
 [  0  10 166   4   0]
 [  0   1  18 151  10]
 [  1   0  10  54 115]]
Accuracy: 0.8322222222222222
Elapsed Time: 41:50:15.87
# zcols: 20
# samples: 900
# features: 60640
[[161  19   0   0   0]
 [  9 159  12   0   0]
 [  0  12 164   4   0]
 [  0   1   8 161  10]
 [  1   0   4  58 117]]
Accuracy: 0.8466666666666667
Elapsed Time: 41:55:48.98
# zcols: 25
# samples: 900
# features: 75800
[[151  29   0   0   0]
 [  6 164  10   0   0]
 [  0   2 173   5   0]
 [  0   0  14 155  11]
 [  2   0   2  55 121]]
Accuracy: 0.8488888888888889
Elapsed Time: 42:02:47.89
# zcols: 40
# samples: 900
# features: 121280
[[154  22   4   0   0]
 [  4 169   7   0   0]
 [  0  11 167   2   0]
 [  0   1  10 157  12]
 [  0   0   5  55 120]]
Accuracy: 0.8522222222222222
Elapsed Time: 42:14:00.01
# zcols: 50
# samples: 900
# features: 151600
[[162  14   4   0   0]
 [  4 168   8   0   0]
 [  0   6 170   4   0]
 [  0   1  17 152  10]
 [  0   0   4  57 119]]
Accuracy: 0.8566666666666667
Elapsed Time: 42:28:06.32
# zcols: 60
# samples: 900
# features: 181920
[[167   8   5   0   0]
 [  3 167  10   0   0]
 [  0  11 166   3   0]
 [  0   1  14 156   9]
 [  0   0   7  58 115]]
Accuracy: 0.8566666666666667
Elapsed Time: 42:45:03.00
# zcols: 70
# samples: 900
# features: 212240
[[163   7  10   0   0]
 [  3 159  18   0   0]
 [  0   7 170   3   0]
 [  0   0  11 162   7]
 [  0   0  12  58 110]]
Accuracy: 0.8488888888888889
Elapsed Time: 43:04:47.25
# zcols: 80
# samples: 900
# features: 242560
[[167   4   9   0   0]
 [  3 165  12   0   0]
 [  0   7 170   3   0]
 [  0   0  15 157   8]
 [  0   0  12  57 111]]
Accuracy: 0.8555555555555555
Elapsed Time: 43:27:25.30
# zcols: 90
# samples: 900
# features: 272880
[[164   6  10   0   0]
 [  3 165  12   0   0]
 [  0   5 173   2   0]
 [  0   0  17 157   6]
 [  0   0  16  58 106]]
Accuracy: 0.85
Elapsed Time: 43:52:46.02
# zcols: 100
# samples: 900
# features: 303200
[[166   4  10   0   0]
 [  3 164  13   0   0]
 [  0   4 174   2   0]
 [  0   0  16 157   7]
 [  0   0   5  58 117]]
Accuracy: 0.8644444444444445
Elapsed Time: 44:21:05.61
# zcols: 110
# samples: 900
# features: 333520
[[166   4  10   0   0]
 [  3 165  12   0   0]
 [  0   5 173   2   0]
 [  0   0  13 161   6]
 [  0   0  12  57 111]]
Accuracy: 0.8622222222222222
Elapsed Time: 44:52:20.20
# zcols: 120
# samples: 900
# features: 363840
[[165   4  11   0   0]
 [  4 164  12   0   0]
 [  0   5 171   4   0]
 [  0   0  15 156   9]
 [  0   0  10  57 113]]
Accuracy: 0.8544444444444445
Elapsed Time: 45:26:25.54
# zcols: 127
# samples: 900
# features: 385064
[[166   4  10   0   0]
 [  3 165  12   0   0]
 [  0   4 173   3   0]
 [  0   0  15 159   6]
 [  0   0  10  57 113]]
Accuracy: 0.8622222222222222
Elapsed Time: 46:02:44.86
fm_sub4_r/FingerMotions/
numZcolumns [1, 2, 3, 4, 5, 6, 7, 8, 9, 10, 11, 12, 13, 14, 15, 16, 17, 18, 19, 20, 25, 40, 50, 60, 70, 80, 90, 100, 110, 120, 127]
# zcols: 1
# samples: 900
# features: 3032
[[89 25 30 10 26]
 [23 62 36 30 29]
 [19 63 41 28 29]
 [16 34 36 54 40]
 [43 18 34 28 57]]
Accuracy: 0.33666666666666667
Elapsed Time: 46:03:13.64
# zcols: 2
# samples: 900
# features: 6064
[[122  41   9   2   6]
 [ 48  51  25  27  29]
 [ 29  43  44  24  40]
 [ 10  11  37  84  38]
 [ 27  16  38  23  76]]
Accuracy: 0.41888888888888887
Elapsed Time: 46:03:46.87
# zcols: 3
# samples: 900
# features: 9096
[[123  30  16   5   6]
 [ 20  86  45  22   7]
 [ 14  14 112  16  24]
 [  5   9  48 108  10]
 [ 23   4  14  37 102]]
Accuracy: 0.59
Elapsed Time: 46:04:35.72
# zcols: 4
# samples: 900
# features: 12128
[[106  38  22   7   7]
 [ 52  72  35   6  15]
 [  6  29  68  39  38]
 [  2   2  17 136  23]
 [  3  13  22  30 112]]
Accuracy: 0.5488888888888889
Elapsed Time: 46:05:41.17
# zcols: 5
# samples: 900
# features: 15160
[[136  37   4   0   3]
 [ 21 122  33   0   4]
 [  6  40  75  35  24]
 [  0   0  19 136  25]
 [  0   2  27  40 111]]
Accuracy: 0.6444444444444445
Elapsed Time: 46:07:02.19
# zcols: 6
# samples: 900
# features: 18192
[[155  11   1   8   5]
 [ 18 121  39   1   1]
 [  4  32  88  37  19]
 [  1   0  23 133  23]
 [  1   1  31  25 122]]
Accuracy: 0.6877777777777778
Elapsed Time: 46:08:40.42
# zcols: 7
# samples: 900
# features: 21224
[[133  41   5   0   1]
 [ 16  99  59   4   2]
 [  6  57  79  20  18]
 [  1   2  32 112  33]
 [  1   0  23  32 124]]
Accuracy: 0.6077777777777778
Elapsed Time: 46:10:34.06
# zcols: 8
# samples: 900
# features: 24256
[[157  11   7   0   5]
 [ 24 115  37   4   0]
 [ 10  22 104  37   7]
 [  0   0  22 141  17]
 [  0   0  18  13 149]]
Accuracy: 0.74
Elapsed Time: 46:12:45.04
# zcols: 9
# samples: 900
# features: 27288
[[158  13   8   0   1]
 [  6 126  48   0   0]
 [  6   9 117  42   6]
 [  0   0  36 132  12]
 [  0   0   6  28 146]]
Accuracy: 0.7544444444444445
Elapsed Time: 46:15:11.12
# zcols: 10
# samples: 900
# features: 30320
[[129  43   4   0   4]
 [ 11 107  59   3   0]
 [  7  20 101  35  17]
 [  0   0  12 148  20]
 [  2   0  28  12 138]]
Accuracy: 0.6922222222222222
Elapsed Time: 46:17:53.73
# zcols: 11
# samples: 900
# features: 33352
[[154  12  14   0   0]
 [ 14 103  62   0   1]
 [  8  17 107  42   6]
 [  0   0  33 131  16]
 [  0   0  30  11 139]]
Accuracy: 0.7044444444444444
Elapsed Time: 46:20:54.61
# zcols: 12
# samples: 900
# features: 36384
[[154  23   3   0   0]
 [  7 117  56   0   0]
 [  1  17 100  51  11]
 [  0   1  32 132  15]
 [  1   0  28  12 139]]
Accuracy: 0.7133333333333334
Elapsed Time: 46:24:14.10
# zcols: 13
# samples: 900
# features: 39416
[[148   8  24   0   0]
 [  8 112  60   0   0]
 [  7  18 120  30   5]
 [  0   1  37 135   7]
 [  0   0  19   7 154]]
Accuracy: 0.7433333333333333
Elapsed Time: 46:27:47.39
# zcols: 14
# samples: 900
# features: 42448
[[141  17  22   0   0]
 [ 10 102  66   0   2]
 [  7  30 108  26   9]
 [  1   0  35 136   8]
 [  0   0  27   9 144]]
Accuracy: 0.7011111111111111
Elapsed Time: 46:31:39.93
# zcols: 15
# samples: 900
# features: 45480
[[143  36   1   0   0]
 [ 13 106  60   0   1]
 [  2  26 122  21   9]
 [  0   0  40 130  10]
 [  0   0   8   7 165]]
Accuracy: 0.74
Elapsed Time: 46:35:49.13
# zcols: 16
# samples: 900
# features: 48512
[[164   8   7   0   1]
 [  5 119  54   0   2]
 [  1  23 113  32  11]
 [  0   0  23 144  13]
 [  0   0  20   4 156]]
Accuracy: 0.7733333333333333
Elapsed Time: 46:40:14.37
# zcols: 17
# samples: 900
# features: 51544
[[147  24   8   0   1]
 [  5 110  64   0   1]
 [  2  22 129  20   7]
 [  0   0  33 134  13]
 [  0   0  15   5 160]]
Accuracy: 0.7555555555555555
Elapsed Time: 46:44:56.00
# zcols: 18
# samples: 900
# features: 54576
[[147  33   0   0   0]
 [  8 112  60   0   0]
 [  2  27 110  34   7]
 [  0   0  33 138   9]
 [  2   0  32   8 138]]
Accuracy: 0.7166666666666667
Elapsed Time: 46:49:54.02
# zcols: 19
# samples: 900
# features: 57608
[[156  21   3   0   0]
 [ 16 103  61   0   0]
 [  6  22 115  28   9]
 [  0   0  35 127  18]
 [  0   0  12   9 159]]
Accuracy: 0.7333333333333333
Elapsed Time: 46:55:08.04
# zcols: 20
# samples: 900
# features: 60640
[[143  22  15   0   0]
 [ 12 108  59   0   1]
 [  4  27 102  38   9]
 [  0   0  29 133  18]
 [  0   0  34   1 145]]
Accuracy: 0.7011111111111111
Elapsed Time: 47:00:41.08
# zcols: 25
# samples: 900
# features: 75800
[[143  35   2   0   0]
 [  5 114  61   0   0]
 [  1  30 103  38   8]
 [  0   0  30 139  11]
 [  0   0  18   8 154]]
Accuracy: 0.7255555555555555
Elapsed Time: 47:07:36.71
# zcols: 40
# samples: 900
# features: 121280
[[135  40   5   0   0]
 [  4 123  52   0   1]
 [  5  33 114  25   3]
 [  0   0  31 137  12]
 [  0   0  19  11 150]]
Accuracy: 0.7322222222222222
Elapsed Time: 47:18:50.34
# zcols: 50
# samples: 900
# features: 151600
[[147  28   5   0   0]
 [  1 130  49   0   0]
 [  5  42 104  25   4]
 [  0   0  33 135  12]
 [  0   0  13  13 154]]
Accuracy: 0.7444444444444445
Elapsed Time: 47:32:56.91
# zcols: 60
# samples: 900
# features: 181920
[[156  18   6   0   0]
 [  2 126  49   0   3]
 [  5  38 103  31   3]
 [  0   0  33 135  12]
 [  0   0  21   6 153]]
Accuracy: 0.7477777777777778
Elapsed Time: 47:49:58.38
# zcols: 70
# samples: 900
# features: 212240
[[160  17   3   0   0]
 [  3 123  52   0   2]
 [  4  42 104  27   3]
 [  0   0  29 144   7]
 [  0   0  18   5 157]]
Accuracy: 0.7644444444444445
Elapsed Time: 48:09:42.97
# zcols: 80
# samples: 900
# features: 242560
[[167   9   4   0   0]
 [  0 127  50   0   3]
 [  4  45  97  29   5]
 [  0   0  36 134  10]
 [  0   0  15   7 158]]
Accuracy: 0.7588888888888888
Elapsed Time: 48:32:23.54
# zcols: 90
# samples: 900
# features: 272880
[[167  10   3   0   0]
 [  2 130  48   0   0]
 [  3  47  95  28   7]
 [  0   0  33 139   8]
 [  0   0  15   7 158]]
Accuracy: 0.7655555555555555
Elapsed Time: 48:57:56.24
# zcols: 100
# samples: 900
# features: 303200
[[170   9   1   0   0]
 [  1 128  47   0   4]
 [  4  41 104  23   8]
 [  0   0  34 137   9]
 [  0   0  12   6 162]]
Accuracy: 0.7788888888888889
Elapsed Time: 49:26:22.30
# zcols: 110
# samples: 900
# features: 333520
[[163  14   3   0   0]
 [  1 129  48   0   2]
 [  3  45  96  29   7]
 [  0   0  32 139   9]
 [  0   0  15   6 159]]
Accuracy: 0.7622222222222222
Elapsed Time: 49:57:43.74
# zcols: 120
# samples: 900
# features: 363840
[[171   9   0   0   0]
 [  1 130  46   0   3]
 [  3  47  94  28   8]
 [  0   0  32 139   9]
 [  0   0  14   6 160]]
Accuracy: 0.7711111111111111
Elapsed Time: 50:31:35.66
# zcols: 127
# samples: 900
# features: 385064
[[170   8   2   0   0]
 [  1 130  46   0   3]
 [  3  47  93  28   9]
 [  0   0  32 140   8]
 [  0   0  12   7 161]]
Accuracy: 0.7711111111111111
Elapsed Time: 51:08:02.97

Process finished with exit code 0
