# numZColumns = [1,2,3,4,5,6,7,8,9,10]
# numTrials = 3
# frameStart = 0
# frameEnd = 180
# numFrames = frameEnd - frameStart
# waveletname = 'db3'
# levels = [3,4]

======================================
AlexFingerMovement
# zcols: 1
# samples: 2700
# features: 584
[[214 326   0   0   0]
 [ 28 512   0   0   0]
 [  0   0 296 244   0]
 [  0   0  75 465   0]
 [  0   0   0 102 438]]
Accuracy: 0.7129629629629629
Elapsed Time: 00:02:28.22
# zcols: 2
# samples: 2700
# features: 1168
[[421 119   0   0   0]
 [ 15 525   0   0   0]
 [  0   2 273 228  37]
 [  0   0  23 517   0]
 [  0   0   3  46 491]]
Accuracy: 0.8248148148148148
Elapsed Time: 00:05:44.69
# zcols: 3
# samples: 2700
# features: 1752
[[415 125   0   0   0]
 [104 436   0   0   0]
 [  0  45 238 257   0]
 [  0   0  26 514   0]
 [  0   0   0  43 497]]
Accuracy: 0.7777777777777778
Elapsed Time: 00:09:29.49
# zcols: 4
# samples: 2700
# features: 2336
[[436 104   0   0   0]
 [  5 509  26   0   0]
 [  0  45 331 132  32]
 [  0   0  43 495   2]
 [  0   0   2  27 511]]
Accuracy: 0.8451851851851852
Elapsed Time: 00:13:55.60
# zcols: 5
# samples: 2700
# features: 2920
[[407 132   0   0   1]
 [ 17 498  23   2   0]
 [  2  69 292 170   7]
 [  0   0  56 478   6]
 [  0   2  13  55 470]]
Accuracy: 0.7944444444444444
Elapsed Time: 00:19:05.77
# zcols: 6
# samples: 2700
# features: 3504
[[427 110   1   2   0]
 [ 33 492  15   0   0]
 [  0  81 337 113   9]
 [  0   0  66 457  17]
 [  0   2  23  21 494]]
Accuracy: 0.8174074074074074
Elapsed Time: 00:24:49.27
# zcols: 7
# samples: 2700
# features: 4088
[[388 149   3   0   0]
 [ 12 486  38   3   1]
 [  9 105 281 126  19]
 [  0   1  68 439  32]
 [  0   3  36  65 436]]
Accuracy: 0.7518518518518519
Elapsed Time: 00:31:30.41
# zcols: 8
# samples: 2700
# features: 4672
[[337 200   3   0   0]
 [ 93 420  25   1   1]
 [  6 107 311 108   8]
 [  0   3  77 437  23]
 [  1   1   7  43 488]]
Accuracy: 0.7381481481481481
Elapsed Time: 00:38:28.82
# zcols: 9
# samples: 2700
# features: 5256
[[300 223   3   9   5]
 [ 45 449  42   4   0]
 [  4  79 316 129  12]
 [  0   3  60 446  31]
 [  0   2   7  59 472]]
Accuracy: 0.7344444444444445
Elapsed Time: 00:46:05.88
# zcols: 10
# samples: 2700
# features: 5840
[[402 130   6   1   1]
 [ 43 469  25   2   1]
 [  1  36 356 119  28]
 [  0   2  65 435  38]
 [  2   2  20  76 440]]
Accuracy: 0.7785185185185185
Elapsed Time: 00:55:01.37
======================================
AlexRightFingerMovement
# zcols: 1
# samples: 2700
# features: 584
[[360 180   0   0   0]
 [  7 345  88 100   0]
 [  0   0 503  37   0]
 [  0  69  90 201 180]
 [  0   0   0 104 436]]
Accuracy: 0.6833333333333333
Elapsed Time: 00:02:37.08
# zcols: 2
# samples: 2700
# features: 1168
[[497  43   0   0   0]
 [  0 359   8 173   0]
 [  0  12 513  15   0]
 [  0  71 112 177 180]
 [ 50  19   0 111 360]]
Accuracy: 0.705925925925926
Elapsed Time: 00:06:04.14
# zcols: 3
# samples: 2700
# features: 1752
[[363 144  33   0   0]
 [ 15 266 201  58   0]
 [  0 116 359  65   0]
 [  0 101 118 145 176]
 [ 18  74   1  88 359]]
Accuracy: 0.5525925925925926
Elapsed Time: 00:10:31.31
# zcols: 4
# samples: 2700
# features: 2336
[[360 180   0   0   0]
 [  3 333  20 184   0]
 [  0  74 377  89   0]
 [  0  61 170 138 171]
 [  0  25   0  86 429]]
Accuracy: 0.6062962962962963
Elapsed Time: 00:15:55.90
# zcols: 5
# samples: 2700
# features: 2920
[[357 183   0   0   0]
 [ 19 296 126  96   3]
 [  5  88 336 110   1]
 [  0  45 191 136 168]
 [  5  24   3  21 487]]
Accuracy: 0.597037037037037
Elapsed Time: 00:21:52.89
# zcols: 6
# samples: 2700
# features: 3504
[[356 154  20  10   0]
 [ 37 259 138 101   5]
 [  2 120 347  71   0]
 [  0 166 178  95 101]
 [  0  17  40  49 434]]
Accuracy: 0.5522222222222222
Elapsed Time: 00:28:41.11
# zcols: 7
# samples: 2700
# features: 4088
[[346 191   3   0   0]
 [ 32 271 144  89   4]
 [ 12 102 346  74   6]
 [  0  84 141 136 179]
 [  0  22  19 120 379]]
Accuracy: 0.5474074074074075
Elapsed Time: 00:36:20.65
# zcols: 8
# samples: 2700
# features: 4672
[[290 242   3   2   3]
 [ 49 222 159 107   3]
 [  4  86 322 123   5]
 [  2  89 135 155 159]
 [  9  30  58  99 344]]
Accuracy: 0.4937037037037037
Elapsed Time: 00:43:41.65
# zcols: 9
# samples: 2700
# features: 5256
[[346 189   1   4   0]
 [ 34 223 147 131   5]
 [  4  92 323 119   2]
 [  5 134 199  75 127]
 [ 22 105  27  92 294]]
Accuracy: 0.46703703703703703
Elapsed Time: 00:51:44.01
# zcols: 10
# samples: 2700
# features: 5840
[[294 199  30  14   3]
 [ 49 168 208 103  12]
 [ 12 104 290 132   2]
 [ 19  82 167 109 163]
 [ 44 154  41  86 215]]
Accuracy: 0.3985185185185185
Elapsed Time: 01:00:27.29
======================================
fm_sub1_l
# zcols: 1
# samples: 2700
# features: 584
[[521  19   0   0   0]
 [167 268  86  12   7]
 [  0  37 364 139   0]
 [  0   0  77 334 129]
 [  0   0   0  25 515]]
Accuracy: 0.7414814814814815
Elapsed Time: 00:02:22.25
# zcols: 2
# samples: 2700
# features: 1168
[[512  28   0   0   0]
 [142 361  37   0   0]
 [  0  52 360 128   0]
 [  0   0 166 330  44]
 [  0   0   0  47 493]]
Accuracy: 0.7614814814814815
Elapsed Time: 00:05:16.75
# zcols: 3
# samples: 2700
# features: 1752
[[483  52   0   5   0]
 [159 280  94   7   0]
 [  0  68 347 124   1]
 [  0   1 245 240  54]
 [  0   0   2  81 457]]
Accuracy: 0.6692592592592592
Elapsed Time: 00:08:54.96
# zcols: 4
# samples: 2700
# features: 2336
[[520  20   0   0   0]
 [ 84 337 114   5   0]
 [  0 101 244 194   1]
 [  0   1 130 379  30]
 [  0   0   7  56 477]]
Accuracy: 0.7248148148148148
Elapsed Time: 00:13:14.52
# zcols: 5
# samples: 2700
# features: 2920
[[433 107   0   0   0]
 [165 286  87   1   1]
 [  5  90 192 252   1]
 [  0   0 131 315  94]
 [  1   1   1  89 448]]
Accuracy: 0.62
Elapsed Time: 00:18:15.03
# zcols: 6
# samples: 2700
# features: 3504
[[435 101   4   0   0]
 [164 229 130  15   2]
 [  0 109 190 240   1]
 [  0   4 166 337  33]
 [  1   5  10  39 485]]
Accuracy: 0.6207407407407407
Elapsed Time: 00:23:47.89
# zcols: 7
# samples: 2700
# features: 4088
[[431  90  12   4   3]
 [124 310  71  31   4]
 [  1 108 192 236   3]
 [  1  21 166 339  13]
 [  3   2  14  44 477]]
Accuracy: 0.6477777777777778
Elapsed Time: 00:29:59.23
# zcols: 8
# samples: 2700
# features: 4672
[[435  84  16   4   1]
 [152 266 113   7   2]
 [  4 101 221 211   3]
 [  0   4 104 411  21]
 [  0   1   4  57 478]]
Accuracy: 0.6707407407407407
Elapsed Time: 00:36:43.46
# zcols: 9
# samples: 2700
# features: 5256
[[433  95   6   6   0]
 [195 240  85  17   3]
 [  3  83 226 219   9]
 [  1   5 176 331  27]
 [  9 164  21  38 308]]
Accuracy: 0.5696296296296296
Elapsed Time: 00:44:03.91
# zcols: 10
# samples: 2700
# features: 5840
[[446  91   2   0   1]
 [154 272 106   5   3]
 [  1 140 148 241  10]
 [  0   1 163 347  29]
 [  3   1   5  66 465]]
Accuracy: 0.6214814814814815
Elapsed Time: 00:52:02.60
======================================
fm_sub1_r
# zcols: 1
# samples: 2700
# features: 584
[[312  54   0   2 172]
 [ 16 408 115   1   0]
 [  0 136 403   1   0]
 [  0   0 123 374  43]
 [  0   0   0   0 540]]
Accuracy: 0.7544444444444445
Elapsed Time: 00:02:21.93
# zcols: 2
# samples: 2700
# features: 1168
[[314 162   4  11  49]
 [  1 412 125   2   0]
 [  0  87 431  22   0]
 [  0   0  66 474   0]
 [  0   0   0   0 540]]
Accuracy: 0.804074074074074
Elapsed Time: 00:05:15.78
# zcols: 3
# samples: 2700
# features: 1752
[[325 139   0   0  76]
 [ 11 385 120  24   0]
 [  0 155 353  32   0]
 [  0   0  63 440  37]
 [  0   2   0  29 509]]
Accuracy: 0.7451851851851852
Elapsed Time: 00:08:52.86
# zcols: 4
# samples: 2700
# features: 2336
[[253  54 143  35  55]
 [  7 421  95   8   9]
 [  0 117 378  45   0]
 [  0  31 190 283  36]
 [  2   0   0  38 500]]
Accuracy: 0.6796296296296296
Elapsed Time: 00:13:12.13
# zcols: 5
# samples: 2700
# features: 2920
[[209  82  55  68 126]
 [ 59 368  98  13   2]
 [  1 184 344  11   0]
 [  0   4  80 358  98]
 [  1   2   2  62 473]]
Accuracy: 0.6488888888888888
Elapsed Time: 00:18:15.11
# zcols: 6
# samples: 2700
# features: 3504
[[251  69  79  58  83]
 [ 33 389  83  33   2]
 [  2 152 339  27  20]
 [  0  66 133 305  36]
 [  5   5  10  19 501]]
Accuracy: 0.6611111111111111
Elapsed Time: 00:23:48.19
# zcols: 7
# samples: 2700
# features: 4088
[[177  83  37  24 219]
 [ 29 336 114  54   7]
 [  9 196 271  62   2]
 [  5  45 202 200  88]
 [ 12  11   3  17 497]]
Accuracy: 0.5485185185185185
Elapsed Time: 00:29:59.65
# zcols: 8
# samples: 2700
# features: 4672
[[139 116  86 129  70]
 [ 49 372  91  24   4]
 [  4 205 235  92   4]
 [ 12  11 124 298  95]
 [  2   5   5  18 510]]
Accuracy: 0.5755555555555556
Elapsed Time: 00:36:43.79
# zcols: 9
# samples: 2700
# features: 5256
[[164 132  36  67 141]
 [ 27 349 144  17   3]
 [ 32 181 209 112   6]
 [ 11  13 163 265  88]
 [  8   6   9  31 486]]
Accuracy: 0.5455555555555556
Elapsed Time: 00:44:09.01
# zcols: 10
# samples: 2700
# features: 5840
[[144 128  35 116 117]
 [ 72 370  72  14  12]
 [  7 215 238  75   5]
 [  7   7 146 316  64]
 [  5   6  13  37 479]]
Accuracy: 0.572962962962963
Elapsed Time: 00:52:09.19
======================================
fm_sub2_l
# zcols: 1
# samples: 2700
# features: 584
[[354 186   0   0   0]
 [  0 540   0   0   0]
 [  0  33 507   0   0]
 [  0   0   0 540   0]
 [  0   0   0   0 540]]
Accuracy: 0.9188888888888889
Elapsed Time: 00:02:21.73
# zcols: 2
# samples: 2700
# features: 1168
[[358 182   0   0   0]
 [  0 540   0   0   0]
 [  0   8 532   0   0]
 [  0   0   8 526   6]
 [  0   0   0   9 531]]
Accuracy: 0.9211111111111111
Elapsed Time: 00:05:14.07
# zcols: 3
# samples: 2700
# features: 1752
[[350 165  25   0   0]
 [ 14 467  59   0   0]
 [  0  48 490   2   0]
 [  0   2  15 496  27]
 [  0   0   0  21 519]]
Accuracy: 0.86
Elapsed Time: 00:08:47.06
# zcols: 4
# samples: 2700
# features: 2336
[[354 186   0   0   0]
 [  1 530   9   0   0]
 [  0  27 511   2   0]
 [  0   0  25 514   1]
 [  0   0   0   6 534]]
Accuracy: 0.9048148148148148
Elapsed Time: 00:13:00.00
# zcols: 5
# samples: 2700
# features: 2920
[[358 170  12   0   0]
 [  8 516  15   1   0]
 [  1 113 416  10   0]
 [  0   0  29 511   0]
 [  0   0   0   1 539]]
Accuracy: 0.8666666666666667
Elapsed Time: 00:18:01.31
# zcols: 6
# samples: 2700
# features: 3504
[[356 182   2   0   0]
 [  8 515  17   0   0]
 [  1  71 456  12   0]
 [  0   0  52 487   1]
 [  0   0   0   3 537]]
Accuracy: 0.8707407407407407
Elapsed Time: 00:23:31.83
# zcols: 7
# samples: 2700
# features: 4088
[[355 165  20   0   0]
 [  6 506  28   0   0]
 [  1  93 430  14   2]
 [  0   0  14 524   2]
 [  0   1   1   9 529]]
Accuracy: 0.8681481481481481
Elapsed Time: 00:29:34.74
# zcols: 8
# samples: 2700
# features: 4672
[[340 198   2   0   0]
 [ 13 484  41   2   0]
 [  1  72 455   9   3]
 [  2   5  34 497   2]
 [  0   1   0   4 535]]
Accuracy: 0.855925925925926
Elapsed Time: 00:36:08.69
# zcols: 9
# samples: 2700
# features: 5256
[[330 201   9   0   0]
 [ 13 495  31   1   0]
 [  3  69 450  18   0]
 [  0   4  21 515   0]
 [  0   0   3   4 533]]
Accuracy: 0.8603703703703703
Elapsed Time: 00:43:18.03
# zcols: 10
# samples: 2700
# features: 5840
[[338 196   5   1   0]
 [ 14 478  46   1   1]
 [ 15  94 407  24   0]
 [  0   4  46 484   6]
 [  0   0   0  13 527]]
Accuracy: 0.8274074074074074
Elapsed Time: 00:51:05.58
======================================
fm_sub3_l
# zcols: 1
# samples: 2700
# features: 584
[[540   0   0   0   0]
 [  0 540   0   0   0]
 [  0   0 525  15   0]
 [  0   7 153 380   0]
 [  0   0   0   0 540]]
Accuracy: 0.9351851851851852
Elapsed Time: 00:02:21.31
# zcols: 2
# samples: 2700
# features: 1168
[[540   0   0   0   0]
 [  0 540   0   0   0]
 [  0   0 538   2   0]
 [  0   9  58 473   0]
 [  0  89   0   0 451]]
Accuracy: 0.9414814814814815
Elapsed Time: 00:05:14.42
# zcols: 3
# samples: 2700
# features: 1752
[[540   0   0   0   0]
 [  0 540   0   0   0]
 [  0   0 514  26   0]
 [  0   0 148 392   0]
 [  0   0   0  11 529]]
Accuracy: 0.9314814814814815
Elapsed Time: 00:08:50.94
# zcols: 4
# samples: 2700
# features: 2336
[[536   0   2   0   2]
 [  0 529   7   4   0]
 [  1  14 524   1   0]
 [  1   0 136 398   5]
 [  0  26   0  52 462]]
Accuracy: 0.9070370370370371
Elapsed Time: 00:13:08.64
# zcols: 5
# samples: 2700
# features: 2920
[[538   2   0   0   0]
 [  1 470  64   5   0]
 [  0  20 504  16   0]
 [  0   0  29 406 105]
 [  0  54   2 203 281]]
Accuracy: 0.8144444444444444
Elapsed Time: 00:18:08.71
# zcols: 6
# samples: 2700
# features: 3504
[[520  17   2   0   1]
 [  1 499  20  17   3]
 [  1   5 510  23   1]
 [  3   4 124 361  48]
 [  2   2   4 111 421]]
Accuracy: 0.855925925925926
Elapsed Time: 00:23:43.62
# zcols: 7
# samples: 2700
# features: 4088
[[513  23   1   1   2]
 [  0 388 109  16  27]
 [  4  13 507  14   2]
 [  4  17  95 345  79]
 [  4  43  10  70 413]]
Accuracy: 0.8022222222222222
Elapsed Time: 00:30:30.70
# zcols: 8
# samples: 2700
# features: 4672
[[526   9   0   3   2]
 [ 11 461  44   9  15]
 [  3   8 474  47   8]
 [  6   8  57 409  60]
 [  8   6   6 151 369]]
Accuracy: 0.8292592592592593
Elapsed Time: 00:38:07.32
# zcols: 9
# samples: 2700
# features: 5256
[[507  29   0   2   2]
 [  8 485  34   3  10]
 [  3  44 441  35  17]
 [  1  11  63 326 139]
 [  2  54  24 167 293]]
Accuracy: 0.76
Elapsed Time: 00:46:33.97
# zcols: 10
# samples: 2700
# features: 5840
[[491  38   7   4   0]
 [  8 421  56  45  10]
 [  5  23 429  72  11]
 [  6   5  51 433  45]
 [  2  97  14 261 166]]
Accuracy: 0.7185185185185186
Elapsed Time: 00:55:47.72
======================================
fm_sub3_r
# zcols: 1
# samples: 2700
# features: 584
[[540   0   0   0   0]
 [  0 499  41   0   0]
 [  1 177 360   1   1]
 [  0   0   0 520  20]
 [  0   0   0  60 480]]
Accuracy: 0.8885185185185185
Elapsed Time: 00:02:38.34
# zcols: 2
# samples: 2700
# features: 1168
[[540   0   0   0   0]
 [  0 454  86   0   0]
 [  0 156 384   0   0]
 [  0   0   0 528  12]
 [  0   0   0  64 476]]
Accuracy: 0.8822222222222222
Elapsed Time: 00:05:55.80
# zcols: 3
# samples: 2700
# features: 1752
[[540   0   0   0   0]
 [  0 469  71   0   0]
 [  0 138 393   9   0]
 [  0   0   0 528  12]
 [  0   0   0 196 344]]
Accuracy: 0.8422222222222222
Elapsed Time: 00:10:03.91
# zcols: 4
# samples: 2700
# features: 2336
[[540   0   0   0   0]
 [  0 493  45   2   0]
 [  1   1 538   0   0]
 [  0   0   0 501  39]
 [  0   0   0 148 392]]
Accuracy: 0.9125925925925926
Elapsed Time: 00:14:55.16
# zcols: 5
# samples: 2700
# features: 2920
[[540   0   0   0   0]
 [  0 535   5   0   0]
 [  0   6 534   0   0]
 [  0   0   0 454  86]
 [  0   0   0  93 447]]
Accuracy: 0.9296296296296296
Elapsed Time: 00:20:45.41
# zcols: 6
# samples: 2700
# features: 3504
[[539   1   0   0   0]
 [  3 519  15   0   3]
 [  0  26 514   0   0]
 [  0   0   0 458  82]
 [  0   0   1  99 440]]
Accuracy: 0.9148148148148149
Elapsed Time: 00:26:11.78
# zcols: 7
# samples: 2700
# features: 4088
[[540   0   0   0   0]
 [  0 521  18   1   0]
 [  0   8 531   0   1]
 [  0   0   0 483  57]
 [  0   0   2  69 469]]
Accuracy: 0.9422222222222222
Elapsed Time: 00:32:14.38
# zcols: 8
# samples: 2700
# features: 4672
[[538   2   0   0   0]
 [  3 529   7   0   1]
 [  0  41 499   0   0]
 [  0   0   0 426 114]
 [  0   3   2  61 474]]
Accuracy: 0.9133333333333333
Elapsed Time: 00:38:49.14
# zcols: 9
# samples: 2700
# features: 5256
[[535   5   0   0   0]
 [  5 495  34   4   2]
 [  0  14 525   0   1]
 [  1   0   0 459  80]
 [  0   3   1 117 419]]
Accuracy: 0.9011111111111111
Elapsed Time: 00:45:58.25
# zcols: 10
# samples: 2700
# features: 5840
[[531   8   0   1   0]
 [  1 498  41   0   0]
 [  1  40 499   0   0]
 [  0   0   0 478  62]
 [  0   0   0  66 474]]
Accuracy: 0.9185185185185185
Elapsed Time: 00:53:45.79

Process finished with exit code 0
