/media/alexanderfernandes/6686E8B186E882C3/Users/alexanderfernandes/Code/Python/Ultrasound/venv/bin/python /media/alexanderfernandes/6686E8B186E882C3/Users/alexanderfernandes/Code/ultrasoundclassification/python/scripts/WaveletCoefficientClassification.py
AlexFingerMovement/FingerMovement/
numZcolumns [1, 2, 3, 4, 5, 6, 7, 8, 9, 10, 11, 12, 13, 14, 15, 16, 17, 18, 19, 20, 25, 40, 50, 60, 70, 80, 90, 100, 110, 120, 127]
numTrials 3
numFrames 180
frameGroupSize 3
/media/alexanderfernandes/6686E8B186E882C3/Users/alexanderfernandes/Code/Python/Ultrasound/venv/lib/python3.5/site-packages/sklearn/discriminant_analysis.py:388: UserWarning: Variables are collinear.
  warnings.warn("Variables are collinear.")
# zcols: 1
# samples: 900
# features: 1168
[[ 75  85  13   4   3]
 [ 37 111  19   9   4]
 [  3  22  69  57  29]
 [  5  11  42 110  12]
 [  1   2  18  28 131]]
Accuracy: 0.5511111111111111
Elapsed Time: 00:00:18.98
# zcols: 2
# samples: 900
# features: 2336
[[ 86  82   2  10   0]
 [ 18 143  16   2   1]
 [  2  21  85  50  22]
 [  1   5  39 115  20]
 [  5   6  15  27 127]]
Accuracy: 0.6177777777777778
Elapsed Time: 00:00:34.47
# zcols: 3
# samples: 900
# features: 3504
[[132  48   0   0   0]
 [ 18 157   4   0   1]
 [  3  21 114  37   5]
 [  0   0  54 106  20]
 [  0   0  10  34 136]]
Accuracy: 0.7166666666666667
Elapsed Time: 00:00:56.37
# zcols: 4
# samples: 900
# features: 4672
[[ 60 112   6   2   0]
 [ 36 135   7   2   0]
 [  8  41  68  55   8]
 [  2   4  15 127  32]
 [  6   3  20  20 131]]
Accuracy: 0.5788888888888889
Elapsed Time: 00:01:24.79
# zcols: 5
# samples: 900
# features: 5840
[[130  46   3   1   0]
 [  5 164   9   2   0]
 [  3  43 104  20  10]
 [  1   0  16 154   9]
 [  0   0   4  25 151]]
Accuracy: 0.7811111111111111
Elapsed Time: 00:01:59.98
# zcols: 6
# samples: 900
# features: 7008
[[143  32   4   1   0]
 [ 15 157   7   1   0]
 [  0  43 100  35   2]
 [  0   0  11 157  12]
 [  0   1  10   9 160]]
Accuracy: 0.7966666666666666
Elapsed Time: 00:02:41.67
# zcols: 7
# samples: 900
# features: 8176
[[133  35   6   1   5]
 [ 47 125   8   0   0]
 [  3  25 114  34   4]
 [  0   2  21 153   4]
 [  2   0   8  17 153]]
Accuracy: 0.7533333333333333
Elapsed Time: 00:03:30.15
# zcols: 8
# samples: 900
# features: 9344
[[127  52   1   0   0]
 [ 13 146  17   4   0]
 [  0  15 127  37   1]
 [  0   0  13 163   4]
 [  0   2   0  11 167]]
Accuracy: 0.8111111111111111
Elapsed Time: 00:04:25.23
# zcols: 9
# samples: 900
# features: 10512
[[112  60   0   2   6]
 [ 14 160   6   0   0]
 [  0  14 134  32   0]
 [  0   0  14 165   1]
 [  0   0   4  16 160]]
Accuracy: 0.8122222222222222
Elapsed Time: 00:05:26.95
# zcols: 10
# samples: 900
# features: 11680
[[130  49   0   0   1]
 [  5 170   5   0   0]
 [  1  39 117  22   1]
 [  0   0   8 164   8]
 [  1   0   0  16 163]]
Accuracy: 0.8266666666666667
Elapsed Time: 00:06:35.44
# zcols: 11
# samples: 900
# features: 12848
[[ 92  61  25   2   0]
 [ 31 147   2   0   0]
 [  0  17 132  31   0]
 [  0   0  17 160   3]
 [  0   0   1  12 167]]
Accuracy: 0.7755555555555556
Elapsed Time: 00:07:50.90
# zcols: 12
# samples: 900
# features: 14016
[[107  66   2   1   4]
 [ 16 158   5   1   0]
 [  2  30 111  32   5]
 [  0   0   2 174   4]
 [  0   0   4  24 152]]
Accuracy: 0.78
Elapsed Time: 00:09:13.34
# zcols: 13
# samples: 900
# features: 15184
[[111  68   0   1   0]
 [ 30 148   2   0   0]
 [  4  21 126  29   0]
 [  0   1  11 167   1]
 [  0   0   2  17 161]]
Accuracy: 0.7922222222222223
Elapsed Time: 00:10:42.36
# zcols: 14
# samples: 900
# features: 16352
[[ 93  67  11   0   9]
 [ 35 145   0   0   0]
 [  6  23 121  30   0]
 [  0   0  18 159   3]
 [  0   0   7  17 156]]
Accuracy: 0.7488888888888889
Elapsed Time: 00:12:18.18
# zcols: 15
# samples: 900
# features: 17520
[[117  53  10   0   0]
 [ 16 163   1   0   0]
 [  0   2 154  24   0]
 [  0   1  16 151  12]
 [  0   0   0  22 158]]
Accuracy: 0.8255555555555556
Elapsed Time: 00:14:00.97
# zcols: 16
# samples: 900
# features: 18688
[[110  66   0   0   4]
 [ 31 124  22   3   0]
 [  3   7 146  24   0]
 [  0   0  12 166   2]
 [  1   0   2  15 162]]
Accuracy: 0.7866666666666666
Elapsed Time: 00:15:51.51
# zcols: 17
# samples: 900
# features: 19856
[[ 85  85   5   4   1]
 [ 31 147   2   0   0]
 [  1  38 115  26   0]
 [  0   1   9 169   1]
 [  0   0   0   3 177]]
Accuracy: 0.77
Elapsed Time: 00:17:48.65
# zcols: 18
# samples: 900
# features: 21024
[[100  63  16   0   1]
 [ 25 145  10   0   0]
 [  2   3 140  35   0]
 [  0   0  17 163   0]
 [  0   0   0   9 171]]
Accuracy: 0.7988888888888889
Elapsed Time: 00:19:52.92
# zcols: 19
# samples: 900
# features: 22192
[[111  61   1   0   7]
 [ 23 156   0   1   0]
 [  0  15 132  33   0]
 [  0   0  26 144  10]
 [  1   0   0  11 168]]
Accuracy: 0.79
Elapsed Time: 00:22:04.14
# zcols: 20
# samples: 900
# features: 23360
[[ 84  75   4   0  17]
 [ 30 145   1   4   0]
 [  6  10 148  16   0]
 [  0   0  27 150   3]
 [  2   0   0  10 168]]
Accuracy: 0.7722222222222223
Elapsed Time: 00:24:21.76
# zcols: 25
# samples: 900
# features: 29200
[[104  73   2   0   1]
 [ 33 132   1  14   0]
 [  1   8 135  36   0]
 [  0   1  28 149   2]
 [  1   0   0   9 170]]
Accuracy: 0.7666666666666667
Elapsed Time: 00:27:15.29
# zcols: 40
# samples: 900
# features: 46720
[[103  57  15   0   5]
 [ 23 156   1   0   0]
 [  4   5 145  26   0]
 [  0   0  38 139   3]
 [  1   0   1   8 170]]
Accuracy: 0.7922222222222223
Elapsed Time: 00:31:55.32
# zcols: 50
# samples: 900
# features: 58400
[[117  57   4   0   2]
 [ 29 150   1   0   0]
 [  5  12 132  30   1]
 [  0   0  45 129   6]
 [  1   0   8   8 163]]
Accuracy: 0.7677777777777778
Elapsed Time: 00:37:57.67
# zcols: 60
# samples: 900
# features: 70080
[[119  53   6   0   2]
 [ 27 151   2   0   0]
 [  2  22 125  29   2]
 [  0   0  49 128   3]
 [  4   0   8   9 159]]
Accuracy: 0.7577777777777778
Elapsed Time: 00:45:03.98
# zcols: 70
# samples: 900
# features: 81760
[[106  53  18   0   3]
 [ 25 154   1   0   0]
 [  4  17 128  30   1]
 [  0   3  44 127   6]
 [  2   0   8   7 163]]
Accuracy: 0.7533333333333333
Elapsed Time: 00:53:18.49
# zcols: 80
# samples: 900
# features: 93440
[[116  50  10   0   4]
 [ 21 157   2   0   0]
 [  5  20 122  31   2]
 [  0   1  50 124   5]
 [  4   0  13   9 154]]
Accuracy: 0.7477777777777778
Elapsed Time: 01:02:54.63
# zcols: 90
# samples: 900
# features: 105120
[[109  47  21   0   3]
 [ 23 153   4   0   0]
 [  3  21 123  31   2]
 [  0   3  48 124   5]
 [  4   0  13  10 153]]
Accuracy: 0.7355555555555555
Elapsed Time: 01:13:32.15
# zcols: 100
# samples: 900
# features: 116800
[[106  45  25   0   4]
 [ 24 152   4   0   0]
 [  5  21 120  33   1]
 [  0   2  50 120   8]
 [  4   0  13  14 149]]
Accuracy: 0.7188888888888889
Elapsed Time: 01:25:16.73
# zcols: 110
# samples: 900
# features: 128480
[[106  46  24   0   4]
 [ 23 152   4   1   0]
 [  4  21 120  33   2]
 [  0   3  49 120   8]
 [  4   0  13  12 151]]
Accuracy: 0.7211111111111111
Elapsed Time: 01:38:09.36
# zcols: 120
# samples: 900
# features: 140160
[[105  45  26   0   4]
 [ 23 153   4   0   0]
 [  5  21 119  32   3]
 [  0   3  48 123   6]
 [  4   0  14  12 150]]
Accuracy: 0.7222222222222222
Elapsed Time: 01:53:23.07
# zcols: 127
# samples: 900
# features: 148336
[[106  44  26   0   4]
 [ 24 151   4   1   0]
 [  5  21 118  33   3]
 [  0   3  48 122   7]
 [  4   0  14  13 149]]
Accuracy: 0.7177777777777777
Elapsed Time: 02:09:37.45
AlexRightFingerMovement/RightFingerMotions/
numZcolumns [1, 2, 3, 4, 5, 6, 7, 8, 9, 10, 11, 12, 13, 14, 15, 16, 17, 18, 19, 20, 25, 40, 50, 60, 70, 80, 90, 100, 110, 120, 127]
numTrials 3
numFrames 180
frameGroupSize 3
# zcols: 1
# samples: 900
# features: 1168
[[ 90  79   4   3   4]
 [ 25  37  58  57   3]
 [  4  19 106  51   0]
 [  0  76  70  33   1]
 [ 14   5   5  18 138]]
Accuracy: 0.4488888888888889
Elapsed Time: 02:09:55.85
# zcols: 2
# samples: 900
# features: 2336
[[106  24  11  20  19]
 [ 12  54  67  40   7]
 [  7  20 110  41   2]
 [  1  43  81  29  26]
 [ 16   4   7  30 123]]
Accuracy: 0.4688888888888889
Elapsed Time: 02:10:11.99
# zcols: 3
# samples: 900
# features: 3504
[[114  23  10  30   3]
 [ 11  74  57  34   4]
 [  1  33  83  62   1]
 [  3  13  45  57  62]
 [  7  22   5   6 140]]
Accuracy: 0.52
Elapsed Time: 02:10:34.91
# zcols: 4
# samples: 900
# features: 4672
[[106  66   5   2   1]
 [  7  90  34  44   5]
 [  0  39 112  23   6]
 [ 10  11  79  41  39]
 [  3  16   5  27 129]]
Accuracy: 0.5311111111111111
Elapsed Time: 02:11:04.98
# zcols: 5
# samples: 900
# features: 5840
[[126  45   4   4   1]
 [  6  71  56  45   2]
 [  1  43 109  27   0]
 [ 12  47  37  50  34]
 [  3  17   9  38 113]]
Accuracy: 0.5211111111111111
Elapsed Time: 02:11:42.47
# zcols: 6
# samples: 900
# features: 7008
[[125  49   2   2   2]
 [  3  86  33  54   4]
 [  0  23 115  37   5]
 [  2  45  49  83   1]
 [ 10  16   4   8 142]]
Accuracy: 0.6122222222222222
Elapsed Time: 02:12:27.69
# zcols: 7
# samples: 900
# features: 8176
[[139  33   2   5   1]
 [ 21  49  42  61   7]
 [  4  43 104  28   1]
 [  0  56  36  41  47]
 [  2   3   9  34 132]]
Accuracy: 0.5166666666666667
Elapsed Time: 02:13:19.52
# zcols: 8
# samples: 900
# features: 9344
[[115  50   5   9   1]
 [  6  85  30  57   2]
 [  0  32 123  25   0]
 [  2  34  41  61  42]
 [  3   6   5  35 131]]
Accuracy: 0.5722222222222222
Elapsed Time: 02:14:18.76
# zcols: 9
# samples: 900
# features: 10512
[[131  46   1   1   1]
 [  7  85  54  34   0]
 [  2  27 121  30   0]
 [  0  27  63  42  48]
 [  3   2   0  12 163]]
Accuracy: 0.6022222222222222
Elapsed Time: 02:15:24.99
# zcols: 10
# samples: 900
# features: 11680
[[123  48   4   4   1]
 [ 17  70  52  34   7]
 [  0  40 118  22   0]
 [  2  52  26  90  10]
 [ 12  19   1  35 113]]
Accuracy: 0.5711111111111111
Elapsed Time: 02:16:40.49
# zcols: 11
# samples: 900
# features: 12848
[[142  34   0   0   4]
 [ 24  69  42  45   0]
 [  0  28 120  32   0]
 [  0  18  60  92  10]
 [ 11   9   2  38 120]]
Accuracy: 0.6033333333333334
Elapsed Time: 02:18:00.97
# zcols: 12
# samples: 900
# features: 14016
[[131  46   0   1   2]
 [  8  94  44  32   2]
 [  0  45 115  20   0]
 [  0  19  38 110  13]
 [  7  12   1  13 147]]
Accuracy: 0.6633333333333333
Elapsed Time: 02:19:30.82
# zcols: 13
# samples: 900
# features: 15184
[[153  25   0   1   1]
 [  3  80  40  57   0]
 [  0  33 127  20   0]
 [  1  25  44 107   3]
 [  3   4   1  44 128]]
Accuracy: 0.6611111111111111
Elapsed Time: 02:21:08.09
# zcols: 14
# samples: 900
# features: 16352
[[131  43   1   0   5]
 [ 14  84  49  33   0]
 [  0  17 140  23   0]
 [  0  51  29  90  10]
 [  5   8   4  20 143]]
Accuracy: 0.6533333333333333
Elapsed Time: 02:22:54.10
# zcols: 15
# samples: 900
# features: 17520
[[157  19   0   1   3]
 [ 12  89  50  29   0]
 [  1  32 128  19   0]
 [  2  80  32  65   1]
 [  1  24   3  11 141]]
Accuracy: 0.6444444444444445
Elapsed Time: 02:24:45.83
# zcols: 16
# samples: 900
# features: 18688
[[142  34   0   3   1]
 [  7  70  63  40   0]
 [  0  29 131  20   0]
 [  0  20  48  78  34]
 [  0   9   1  11 159]]
Accuracy: 0.6444444444444445
Elapsed Time: 02:26:45.07
# zcols: 17
# samples: 900
# features: 19856
[[134  42   0   3   1]
 [  7  88  39  45   1]
 [  0  35 118  27   0]
 [  0  36  59  55  30]
 [  1  19   1  19 140]]
Accuracy: 0.5944444444444444
Elapsed Time: 02:28:52.82
# zcols: 18
# samples: 900
# features: 21024
[[147  29   0   1   3]
 [  6  82  40  51   1]
 [  0  26 131  23   0]
 [  0  46  29  98   7]
 [  3  12   0   5 160]]
Accuracy: 0.6866666666666666
Elapsed Time: 02:31:09.34
# zcols: 19
# samples: 900
# features: 22192
[[144  26   0   2   8]
 [ 12  88  35  43   2]
 [  0  20 123  37   0]
 [  1  72  48  59   0]
 [  4   1   1  19 155]]
Accuracy: 0.6322222222222222
Elapsed Time: 02:33:35.70
# zcols: 20
# samples: 900
# features: 23360
[[133  43   0   2   2]
 [ 19  80  55  26   0]
 [  0  22 141  17   0]
 [  1  68  22  85   4]
 [  2  12   0  12 154]]
Accuracy: 0.6588888888888889
Elapsed Time: 02:36:07.24
# zcols: 25
# samples: 900
# features: 29200
[[145  26   0   0   9]
 [ 15  76  54  35   0]
 [  0  21 138  21   0]
 [  0  55  40  85   0]
 [  0   1   0   7 172]]
Accuracy: 0.6844444444444444
Elapsed Time: 02:39:25.89
# zcols: 40
# samples: 900
# features: 46720
[[155  14   0   0  11]
 [ 15  95  34  36   0]
 [  0  20 134  26   0]
 [  0  29  19 128   4]
 [  3   4   0   5 168]]
Accuracy: 0.7555555555555555
Elapsed Time: 02:44:31.68
# zcols: 50
# samples: 900
# features: 58400
[[148  11   0   6  15]
 [ 15  84  35  46   0]
 [  0  15 137  28   0]
 [  0  20  16 134  10]
 [  1   0   0  13 166]]
Accuracy: 0.7433333333333333
Elapsed Time: 02:50:59.84
# zcols: 60
# samples: 900
# features: 70080
[[140   5   0  11  24]
 [ 18  83  39  40   0]
 [  0  12 136  32   0]
 [  1  18  14 142   5]
 [  0   0   0  12 168]]
Accuracy: 0.7433333333333333
Elapsed Time: 02:58:46.43
# zcols: 70
# samples: 900
# features: 81760
[[144   7   0  10  19]
 [ 13  87  31  49   0]
 [  0  13 135  32   0]
 [  0  12  16 149   3]
 [  0   0   0  14 166]]
Accuracy: 0.7566666666666667
Elapsed Time: 03:07:55.42
# zcols: 80
# samples: 900
# features: 93440
[[141   5   0  11  23]
 [ 13  83  31  53   0]
 [  0  11 141  28   0]
 [  0  15  14 149   2]
 [  2   0   0  11 167]]
Accuracy: 0.7566666666666667
Elapsed Time: 03:18:36.61
# zcols: 90
# samples: 900
# features: 105120
[[142   5   0  15  18]
 [ 14  84  33  49   0]
 [  0  12 142  26   0]
 [  0  12  16 151   1]
 [  1   0   0  15 164]]
Accuracy: 0.7588888888888888
Elapsed Time: 03:29:39.51
 # zcols: 100
# samples: 900
# features: 116800
[[142   5   0  20  13]
 [ 12  85  28  55   0]
 [  0  12 138  30   0]
 [  1  17  17 145   0]
 [  1   0   0  14 165]]
Accuracy: 0.75
Elapsed Time: 03:42:47.06
# zcols: 110
# samples: 900
# features: 128480
[[140   5   0  21  14]
 [ 12  87  32  49   0]
 [  0  11 141  28   0]
 [  1  15  13 151   0]
 [  0   0   0  16 164]]
Accuracy: 0.7588888888888888
Elapsed Time: 03:57:15.73
`# zcols: 120
# samples: 900
# features: 140160
[[139   5   0  23  13]
 [ 12  85  28  55   0]
 [  0  12 139  29   0]
 [  0  15  15 150   0]
 [  0   0   0  17 163]]
Accuracy: 0.7511111111111111
Elapsed Time: 04:12:08.96
# zcols: 127
# samples: 900
# features: 148336
[[139   5   0  24  12]
 [ 12  83  30  55   0]
 [  0  12 141  27   0]
 [  1  16  13 150   0]
 [  0   0   0  17 163]]
Accuracy: 0.7511111111111111
Elapsed Time: 04:27:08.95
fm_sub1_l/FingerMotions/
numZcolumns [1, 2, 3, 4, 5, 6, 7, 8, 9, 10, 11, 12, 13, 14, 15, 16, 17, 18, 19, 20, 25, 40, 50, 60, 70, 80, 90, 100, 110, 120, 127]
numTrials 3
numFrames 180
frameGroupSize 3
# zcols: 1
# samples: 900
# features: 1168
[[130  41   3   5   1]
 [ 42  93  22  17   6]
 [  1  23  90  52  14]
 [  3  16  19 121  21]
 [  0   3  22  39 116]]
Accuracy: 0.6111111111111112
Elapsed Time: 04:27:26.92
# zcols: 2
# samples: 900
# features: 2336
[[126  47   4   2   1]
 [ 44  84  36  12   4]
 [  3  33  76  59   9]
 [  4   6  54  95  21]
 [  1  10  21  17 131]]
Accuracy: 0.5688888888888889
Elapsed Time: 04:27:42.00
# zcols: 3
# samples: 900
# features: 3504
[[116  42  22   0   0]
 [ 62  56  49  10   3]
 [  1  29  85  58   7]
 [  0   9  37 104  30]
 [  4  44   6  11 115]]
Accuracy: 0.5288888888888889
Elapsed Time: 04:28:03.62
# zcols: 4
# samples: 900
# features: 4672
[[149  23   5   3   0]
 [ 23 123  31   2   1]
 [  1  14  94  69   2]
 [  4   5  53  89  29]
 [  2   2   2  21 153]]
Accuracy: 0.6755555555555556
Elapsed Time: 04:28:31.78
# zcols: 5
# samples: 900
# features: 5840
[[168   7   1   3   1]
 [ 56  79  35   8   2]
 [  2  31  79  67   1]
 [  1   9  43 106  21]
 [  5   3   6   8 158]]
Accuracy: 0.6555555555555556
Elapsed Time: 04:29:06.63
# zcols: 6
# samples: 900
# features: 7008
[[150  25   3   2   0]
 [ 42  73  61   4   0]
 [  1  21  88  66   4]
 [  0   1  35 119  25]
 [  0  32   7  32 109]]
Accuracy: 0.5988888888888889
Elapsed Time: 04:29:48.04
# zcols: 7
# samples: 900
# features: 8176
[[150  24   3   3   0]
 [ 34  98  30  15   3]
 [  1  16 112  47   4]
 [  1   4  45 109  21]
 [  1  16  30  15 118]]
Accuracy: 0.6522222222222223
Elapsed Time: 04:30:36.21
# zcols: 8
# samples: 900
# features: 9344
[[165  13   2   0   0]
 [ 45  97  32   5   1]
 [  1  28  96  54   1]
 [  0   4  25 137  14]
 [  1   0   1  31 147]]
Accuracy: 0.7133333333333334
Elapsed Time: 04:31:31.31
# zcols: 9
# samples: 900
# features: 10512
[[171   8   1   0   0]
 [ 55  79  37   5   4]
 [  0  25 109  44   2]
 [  0   4  17 145  14]
 [  0  46   1  23 110]]
Accuracy: 0.6822222222222222
Elapsed Time: 04:32:33.25
# zcols: 10
# samples: 900
# features: 11680
[[157  23   0   0   0]
 [ 33 114  29   3   1]
 [  0  24 115  40   1]
 [  0   2  16 148  14]
 [  0   0   2  22 156]]
Accuracy: 0.7666666666666667
Elapsed Time: 04:33:42.04
# zcols: 11
# samples: 900
# features: 12848
[[163  17   0   0   0]
 [ 39 108  30   3   0]
 [  0  24 109  47   0]
 [  0   2  25 140  13]
 [  0   3   0  30 147]]
Accuracy: 0.7411111111111112
Elapsed Time: 04:34:57.79
# zcols: 12
# samples: 900
# features: 14016
[[163  15   2   0   0]
 [ 14 113  49   3   1]
 [  2  41  93  42   2]
 [  0   0  33 131  16]
 [  3  17   4  41 115]]
Accuracy: 0.6833333333333333
Elapsed Time: 04:36:20.24
# zcols: 13
# samples: 900
# features: 15184
[[166   7   6   1   0]
 [ 25 123  24   5   3]
 [  0  27 132  21   0]
 [  0   6  19 142  13]
 [  0   1   0  40 139]]
Accuracy: 0.78
Elapsed Time: 04:37:49.51
# zcols: 14
# samples: 900
# features: 16352
[[165  15   0   0   0]
 [ 18 132  26   3   1]
 [  0  30 119  31   0]
 [  0   0  26 142  12]
 [ 10  38   3  42  87]]
Accuracy: 0.7166666666666667
Elapsed Time: 04:39:28.03
# zcols: 15
# samples: 900
# features: 17520
[[170   9   1   0   0]
 [ 35  99  46   0   0]
 [  0  41 109  30   0]
 [  0   0  30 134  16]
 [  0   3  25  53  99]]
Accuracy: 0.6788888888888889
Elapsed Time: 04:41:11.07
# zcols: 16
# samples: 900
# features: 18688
[[172   7   0   1   0]
 [ 15 136  28   1   0]
 [  0  36 107  37   0]
 [  0   1  27 142  10]
 [  0   0   1  42 137]]
Accuracy: 0.7711111111111111
Elapsed Time: 04:43:02.03
# zcols: 17
# samples: 900
# features: 19856
[[165  14   1   0   0]
 [ 15 135  30   0   0]
 [  0  34 109  37   0]
 [  0   0  22 146  12]
 [  3   1   4  40 132]]
Accuracy: 0.7633333333333333
Elapsed Time: 04:45:00.25
# zcols: 18
# samples: 900
# features: 21024
[[161  18   1   0   0]
 [ 12 124  44   0   0]
 [  0  33 125  22   0]
 [  0   0  22 143  15]
 [  0   1   6  45 128]]
Accuracy: 0.7566666666666667
Elapsed Time: 04:47:04.48
# zcols: 19
# samples: 900
# features: 22192
[[158  22   0   0   0]
 [ 16 130  33   1   0]
 [  0  29 120  31   0]
 [  0   2  30 130  18]
 [  0   0   1  30 149]]
Accuracy: 0.7633333333333333
Elapsed Time: 04:49:15.60
# zcols: 20
# samples: 900
# features: 23360
[[168  11   1   0   0]
 [ 11 135  34   0   0]
 [  0  25 132  23   0]
 [  0   1  32 135  12]
 [  0   1  29  40 110]]
Accuracy: 0.7555555555555555
Elapsed Time: 04:51:33.46
# zcols: 25
# samples: 900
# features: 29200
[[162  18   0   0   0]
 [ 11 142  27   0   0]
 [  0  28 128  23   1]
 [  0   0  38 126  16]
 [  1   0  18  42 119]]
Accuracy: 0.7522222222222222
Elapsed Time: 04:54:26.46
# zcols: 40
# samples: 900
# features: 46720
[[171   8   1   0   0]
 [ 10 132  38   0   0]
 [  0  30 126  24   0]
 [  0   0  42 127  11]
 [  0   3  28  44 105]]
Accuracy: 0.7344444444444445
Elapsed Time: 04:59:06.80
# zcols: 50
# samples: 900
# features: 58400
[[167   8   5   0   0]
 [  8 141  31   0   0]
 [  0  31 125  24   0]
 [  0   1  41 125  13]
 [  0   1  38  46  95]]
Accuracy: 0.7255555555555555
Elapsed Time: 05:04:59.69
# zcols: 60
# samples: 900
# features: 70080
[[171   5   4   0   0]
 [  8 134  38   0   0]
 [  0  34 119  27   0]
 [  0   1  37 128  14]
 [  0   1  37  48  94]]
Accuracy: 0.7177777777777777
Elapsed Time: 05:12:02.35
# zcols: 70
# samples: 900
# features: 81760
[[165   9   6   0   0]
 [  8 136  36   0   0]
 [  0  33 117  30   0]
 [  0   0  42 124  14]
 [  0   1  38  47  94]]
Accuracy: 0.7066666666666667
Elapsed Time: 05:20:17.10
# zcols: 80
# samples: 900
# features: 93440
[[168   5   7   0   0]
 [  9 128  43   0   0]
 [  0  33 119  28   0]
 [  0   3  41 125  11]
 [  0   0  36  44 100]]
Accuracy: 0.7111111111111111
Elapsed Time: 05:29:44.15
# zcols: 90
# samples: 900
# features: 105120
[[165   7   8   0   0]
 [  9 132  39   0   0]
 [  0  35 117  28   0]
 [  0   3  43 120  14]
 [  0   0  38  45  97]]
Accuracy: 0.7011111111111111
Elapsed Time: 05:40:26.55
# zcols: 100
# samples: 900
# features: 116800
[[166   6   8   0   0]
 [  9 126  45   0   0]
 [  0  31 121  28   0]
 [  0   5  45 119  11]
 [  0   2  39  44  95]]
Accuracy: 0.6966666666666667
Elapsed Time: 05:52:14.79
# zcols: 110
# samples: 900
# features: 128480
[[167   6   7   0   0]
 [ 10 129  41   0   0]
 [  0  33 121  25   1]
 [  0   5  46 116  13]
 [  0   1  39  43  97]]
Accuracy: 0.7
Elapsed Time: 06:05:16.84
# zcols: 120
# samples: 900
# features: 140160
[[168   5   7   0   0]
 [ 10 129  41   0   0]
 [  0  32 118  30   0]
 [  0   6  45 118  11]
 [  0   0  41  45  94]]
Accuracy: 0.6966666666666667
Elapsed Time: 06:19:35.15
# zcols: 127
# samples: 900
# features: 148336
[[164   6  10   0   0]
 [ 10 132  38   0   0]
 [  0  33 119  28   0]
 [  0   7  46 117  10]
 [  0   0  41  45  94]]
Accuracy: 0.6955555555555556
Elapsed Time: 06:34:38.17
fm_sub1_r/FingerMotions/
numZcolumns [1, 2, 3, 4, 5, 6, 7, 8, 9, 10, 11, 12, 13, 14, 15, 16, 17, 18, 19, 20, 25, 40, 50, 60, 70, 80, 90, 100, 110, 120, 127]
numTrials 3
numFrames 180
frameGroupSize 3
# zcols: 1
# samples: 900
# features: 1168
[[123   8  18  22   9]
 [ 16  88  48  10  18]
 [  6  63  81  23   7]
 [  2  22  43  68  45]
 [ 13  13   8  86  60]]
Accuracy: 0.4666666666666667
Elapsed Time: 06:34:55.94
# zcols: 2
# samples: 900
# features: 2336
[[ 57  25  27  37  34]
 [ 17  67  55  14  27]
 [  7  40 109  22   2]
 [ 19  36  39  72  14]
 [  7  28   1  41 103]]
Accuracy: 0.4533333333333333
Elapsed Time: 06:35:11.01
# zcols: 3
# samples: 900
# features: 3504
[[106   6  15  34  19]
 [ 29  82  45  12  12]
 [  2  41 100  34   3]
 [  7   4  35 124  10]
 [  1   8   1  12 158]]
Accuracy: 0.6333333333333333
Elapsed Time: 06:35:32.55
# zcols: 4
# samples: 900
# features: 4672
[[119  10   3  14  34]
 [  4 131  33   6   6]
 [  2  68  84  19   7]
 [  9   6  46 102  17]
 [  6   5   8  34 127]]
Accuracy: 0.6255555555555555
Elapsed Time: 06:36:00.79
# zcols: 5
# samples: 900
# features: 5840
[[110  10  13  11  36]
 [  9 136  21   5   9]
 [  0  28 113  29  10]
 [  4   9  25 124  18]
 [  6   0   2  13 159]]
Accuracy: 0.7133333333333334
Elapsed Time: 06:36:35.59
# zcols: 6
# samples: 900
# features: 7008
[[ 82  18  11  40  29]
 [ 24  98  50   8   0]
 [  1  35 113  26   5]
 [  5   2  38 116  19]
 [  2   5   1  28 144]]
Accuracy: 0.6144444444444445
Elapsed Time: 06:37:17.00
# zcols: 7
# samples: 900
# features: 8176
[[ 95  17   6   4  58]
 [ 23  97  50  10   0]
 [  7  25 130  17   1]
 [  0   1  43 128   8]
 [  2   0   5  18 155]]
Accuracy: 0.6722222222222223
Elapsed Time: 06:38:04.97
# zcols: 8
# samples: 900
# features: 9344
[[122  18   8   1  31]
 [  6 125  41   5   3]
 [  1  49 112  18   0]
 [  0   7  18 146   9]
 [  6   0   2   3 169]]
Accuracy: 0.7488888888888889
Elapsed Time: 06:38:59.39
# zcols: 9
# samples: 900
# features: 10512
[[110   8   8  26  28]
 [ 11 112  51   5   1]
 [  0  28 131  20   1]
 [  0  16  14 138  12]
 [  1   0   7  11 161]]
Accuracy: 0.7244444444444444
Elapsed Time: 06:40:00.70
# zcols: 10
# samples: 900
# features: 11680
[[ 98  31  18  29   4]
 [  8 125  39   7   1]
 [  5  28 125  21   1]
 [  0   3  39 125  13]
 [  1   2   6  14 157]]
Accuracy: 0.7
Elapsed Time: 06:41:09.43
# zcols: 11
# samples: 900
# features: 12848
[[107  23   4   7  39]
 [ 20 137  22   1   0]
 [  1  41 114  24   0]
 [ 11   1  21 131  16]
 [  2   0   1   5 172]]
Accuracy: 0.7344444444444445
Elapsed Time: 06:42:24.25
# zcols: 12
# samples: 900
# features: 14016
[[103  20  18   9  30]
 [  7 134  37   2   0]
 [  0  31 134  15   0]
 [  2  11  27 130  10]
 [  0   0   3   7 170]]
Accuracy: 0.7455555555555555
Elapsed Time: 06:43:46.06
# zcols: 13
# samples: 900
# features: 15184
[[111  15  31  18   5]
 [  4 114  55   6   1]
 [  0  24 131  18   7]
 [  0   4  28 124  24]
 [  0   0   0   0 180]]
Accuracy: 0.7333333333333333
Elapsed Time: 06:45:14.82
# zcols: 14
# samples: 900
# features: 16352
[[102  50   4  20   4]
 [  5 131  41   3   0]
 [  1  35 125  17   2]
 [  0   0   7 161  12]
 [  0   0   3  15 162]]
Accuracy: 0.7566666666666667
Elapsed Time: 06:46:50.34
# zcols: 15
# samples: 900
# features: 17520
[[108  17   7   5  43]
 [  5 120  53   2   0]
 [  0  27 131  21   1]
 [  0   4  19 150   7]
 [  1   0   0  14 165]]
Accuracy: 0.7488888888888889
Elapsed Time: 06:48:32.03
# zcols: 16
# samples: 900
# features: 18688
[[119  26  14   8  13]
 [ 10 123  42   4   1]
 [  0  21 133  26   0]
 [  0   4  12 155   9]
 [  0   0   1   6 173]]
Accuracy: 0.7811111111111111
Elapsed Time: 06:50:20.88
# zcols: 17
# samples: 900
# features: 19856
[[143  19  18   0   0]
 [  4 127  43   6   0]
 [  0  31 123  25   1]
 [  0   4  25 138  13]
 [  0   0   2  17 161]]
Accuracy: 0.7688888888888888
Elapsed Time: 06:52:16.38
# zcols: 18
# samples: 900
# features: 21024
[[111  19   9  26  15]
 [  6 126  44   4   0]
 [  0  26 135  19   0]
 [  0   2  12 159   7]
 [  0   0   2   7 171]]
Accuracy: 0.78
Elapsed Time: 06:54:18.90
# zcols: 19
# samples: 900
# features: 22192
[[122  38   9   4   7]
 [  4 122  53   1   0]
 [  0  34 130  16   0]
 [  0   0  16 158   6]
 [  1   1   3  15 160]]
Accuracy: 0.7688888888888888
Elapsed Time: 06:56:28.87
# zcols: 20
# samples: 900
# features: 23360
[[148  12  13   3   4]
 [  6 121  53   0   0]
 [  0  12 152  16   0]
 [  0   1  10 158  11]
 [  0   0   0   4 176]]
Accuracy: 0.8388888888888889
Elapsed Time: 06:58:46.76
# zcols: 25
# samples: 900
# features: 29200
[[142  12   7  16   3]
 [  2 121  57   0   0]
 [  0  28 132  20   0]
 [  0   4  15 150  11]
 [  0   0   1   0 179]]
Accuracy: 0.8044444444444444
Elapsed Time: 07:01:40.04
# zcols: 40
# samples: 900
# features: 46720
[[152  10   8   5   5]
 [  3 117  60   0   0]
 [  0  19 145  16   0]
 [  0   3  11 146  20]
 [  0   0   1   4 175]]
Accuracy: 0.8166666666666667
Elapsed Time: 07:06:20.12
# zcols: 50
# samples: 900
# features: 58400
[[149  12  10   7   2]
 [  7 115  58   0   0]
 [  0  20 148  12   0]
 [  0   6   4 145  25]
 [  0   0   1   6 173]]
Accuracy: 0.8111111111111111
Elapsed Time: 07:12:11.92
# zcols: 60
# samples: 900
# features: 70080
[[136  25  14   5   0]
 [  1 119  60   0   0]
 [  0  18 153   9   0]
 [  0   8   7 140  25]
 [  0   0   2  10 168]]
Accuracy: 0.7955555555555556
Elapsed Time: 07:19:13.56
# zcols: 70
# samples: 900
# features: 81760
[[140  16  18   6   0]
 [  3 120  57   0   0]
 [  0  18 153   9   0]
 [  0   5   8 143  24]
 [  0   0   1   9 170]]
Accuracy: 0.8066666666666666
Elapsed Time: 07:27:25.84
# zcols: 80
# samples: 900
# features: 93440
[[142  14  17   7   0]
 [  2 118  59   1   0]
 [  0  19 152   9   0]
 [  0   6   9 142  23]
 [  0   0   1   9 170]]
Accuracy: 0.8044444444444444
Elapsed Time: 07:36:52.13
# zcols: 90
# samples: 900
# features: 105120
[[139  18  17   6   0]
 [  1 118  61   0   0]
 [  0  17 155   8   0]
 [  0   4   6 145  25]
 [  0   0   1  13 166]]
Accuracy: 0.8033333333333333
Elapsed Time: 07:47:27.16
# zcols: 100
# samples: 900
# features: 116800
[[145  13  13   9   0]
 [  2 119  59   0   0]
 [  0  19 153   8   0]
 [  0   5   7 145  23]
 [  0   0   3  15 162]]
Accuracy: 0.8044444444444444
Elapsed Time: 07:59:13.49
# zcols: 110
# samples: 900
# features: 128480
[[141  16  13   9   1]
 [  3 116  60   1   0]
 [  0  19 153   8   0]
 [  0   3  12 143  22]
 [  0   0   2  15 163]]
Accuracy: 0.7955555555555556
Elapsed Time: 08:12:11.49
# zcols: 120
# samples: 900
# features: 140160
[[142  16  16   6   0]
 [  4 112  60   4   0]
 [  0  19 153   8   0]
 [  0   8  12 138  22]
 [  0   0   2  17 161]]
Accuracy: 0.7844444444444445
Elapsed Time: 08:26:21.37
# zcols: 127
# samples: 900
# features: 148336
[[142  18  15   5   0]
 [  2 117  59   2   0]
 [  0  18 154   8   0]
 [  0   5  12 142  21]
 [  0   0   3  16 161]]
Accuracy: 0.7955555555555556
Elapsed Time: 08:41:20.63
fm_sub2_l/FingerMotions/
numZcolumns [1, 2, 3, 4, 5, 6, 7, 8, 9, 10, 11, 12, 13, 14, 15, 16, 17, 18, 19, 20, 25, 40, 50, 60, 70, 80, 90, 100, 110, 120, 127]
numTrials 3
numFrames 180
frameGroupSize 3
# zcols: 1
# samples: 900
# features: 1168
[[117  60   3   0   0]
 [  3 165  12   0   0]
 [  2  23 132  23   0]
 [  2   1  46 127   4]
 [  0   1   1   4 174]]
Accuracy: 0.7944444444444444
Elapsed Time: 08:41:38.35
# zcols: 2
# samples: 900
# features: 2336
[[109  52  18   1   0]
 [  7 146  24   2   1]
 [  3  29 129  17   2]
 [  2   5  11 156   6]
 [  0   0   2   7 171]]
Accuracy: 0.79
Elapsed Time: 08:41:53.42
# zcols: 3
# samples: 900
# features: 3504
[[114  48  16   2   0]
 [  4 165   8   3   0]
 [  4  22 142  12   0]
 [  0   5  21 152   2]
 [  0   0   0   4 176]]
Accuracy: 0.8322222222222222
Elapsed Time: 08:42:15.00
# zcols: 4
# samples: 900
# features: 4672
[[119  51  10   0   0]
 [  0 164  14   2   0]
 [  6  16 144  13   1]
 [  0   3  18 158   1]
 [  1   0   0   0 179]]
Accuracy: 0.8488888888888889
Elapsed Time: 08:42:43.14
# zcols: 5
# samples: 900
# features: 5840
[[118  56   6   0   0]
 [  5 166   9   0   0]
 [  1  10 154  15   0]
 [  0   2   9 164   5]
 [  0   0   4   9 167]]
Accuracy: 0.8544444444444445
Elapsed Time: 08:43:17.85
# zcols: 6
# samples: 900
# features: 7008
[[119  47  13   1   0]
 [  2 161  16   1   0]
 [  0  22 149   9   0]
 [  0   1   6 173   0]
 [  0   0   0   3 177]]
Accuracy: 0.8655555555555555
Elapsed Time: 08:43:59.29
# zcols: 7
# samples: 900
# features: 8176
[[121  57   2   0   0]
 [  0 171   9   0   0]
 [  0  28 140  12   0]
 [  0   2   4 168   6]
 [  0   0   0   5 175]]
Accuracy: 0.8611111111111112
Elapsed Time: 08:44:47.48
# zcols: 8
# samples: 900
# features: 9344
[[116  59   5   0   0]
 [  0 173   6   1   0]
 [  0  15 160   5   0]
 [  0   0   3 177   0]
 [  0   0   0   0 180]]
Accuracy: 0.8955555555555555
Elapsed Time: 08:45:42.19
# zcols: 9
# samples: 900
# features: 10512
[[121  58   1   0   0]
 [  1 174   4   1   0]
 [  0   6 173   1   0]
 [  0   0   3 177   0]
 [  0   0   0   1 179]]
Accuracy: 0.9155555555555556
Elapsed Time: 08:46:43.45
# zcols: 10
# samples: 900
# features: 11680
[[120  60   0   0   0]
 [  0 174   6   0   0]
 [  0   4 168   8   0]
 [  0   0   7 172   1]
 [  0   0   1   4 175]]
Accuracy: 0.8988888888888888
Elapsed Time: 08:47:51.59
# zcols: 11
# samples: 900
# features: 12848
[[120  52   7   1   0]
 [  0 175   5   0   0]
 [  0   5 170   5   0]
 [  0   0   3 177   0]
 [  0   0   0   6 174]]
Accuracy: 0.9066666666666666
Elapsed Time: 08:49:06.14
# zcols: 12
# samples: 900
# features: 14016
[[123  57   0   0   0]
 [  1 178   1   0   0]
 [  1   7 167   5   0]
 [  0   0   2 178   0]
 [  0   0   0   6 174]]
Accuracy: 0.9111111111111111
Elapsed Time: 08:50:27.35
# zcols: 13
# samples: 900
# features: 15184
[[120  58   2   0   0]
 [  0 173   7   0   0]
 [  0   4 169   7   0]
 [  0   0   6 173   1]
 [  0   0   0   0 180]]
Accuracy: 0.9055555555555556
Elapsed Time: 08:51:55.80
# zcols: 14
# samples: 900
# features: 16352
[[124  55   1   0   0]
 [  0 172   8   0   0]
 [  0   7 162  11   0]
 [  0   0   2 178   0]
 [  0   0   0  12 168]]
Accuracy: 0.8933333333333333
Elapsed Time: 08:53:30.68
# zcols: 15
# samples: 900
# features: 17520
[[136  40   4   0   0]
 [  0 177   3   0   0]
 [  0   9 166   5   0]
 [  0   0   2 176   2]
 [  0   0   0   2 178]]
Accuracy: 0.9255555555555556
Elapsed Time: 08:55:13.48
# zcols: 16
# samples: 900
# features: 18688
[[125  55   0   0   0]
 [  0 176   4   0   0]
 [  0   5 167   8   0]
 [  0   0   0 180   0]
 [  0   0   0   1 179]]
Accuracy: 0.9188888888888889
Elapsed Time: 08:57:02.75
# zcols: 17
# samples: 900
# features: 19856
[[147  33   0   0   0]
 [  0 176   4   0   0]
 [  0   6 167   7   0]
 [  0   0   0 180   0]
 [  0   0   0   5 175]]
Accuracy: 0.9388888888888889
Elapsed Time: 08:58:58.35
# zcols: 18
# samples: 900
# features: 21024
[[129  50   1   0   0]
 [  0 173   7   0   0]
 [  0  13 161   6   0]
 [  0   0   1 179   0]
 [  0   0   0   0 180]]
Accuracy: 0.9133333333333333
Elapsed Time: 09:01:02.15
# zcols: 19
# samples: 900
# features: 22192
[[135  44   1   0   0]
 [  0 175   5   0   0]
 [  0   6 168   6   0]
 [  0   0   1 179   0]
 [  0   0   0   9 171]]
Accuracy: 0.92
Elapsed Time: 09:03:13.41
# zcols: 20
# samples: 900
# features: 23360
[[137  43   0   0   0]
 [  0 172   8   0   0]
 [  0   8 163   9   0]
 [  0   0   3 177   0]
 [  0   0   0  10 170]]
Accuracy: 0.91
Elapsed Time: 09:05:31.35
# zcols: 25
# samples: 900
# features: 29200
[[140  37   3   0   0]
 [  0 168  12   0   0]
 [  0   5 165  10   0]
 [  0   0   6 174   0]
 [  0   0   0   1 179]]
Accuracy: 0.9177777777777778
Elapsed Time: 09:08:26.03
# zcols: 40
# samples: 900
# features: 46720
[[149  28   3   0   0]
 [  0 171   9   0   0]
 [  0   6 164  10   0]
 [  0   0   1 179   0]
 [  0   0   0  14 166]]
Accuracy: 0.9211111111111111
Elapsed Time: 09:13:05.92
# zcols: 50
# samples: 900
# features: 58400
[[158  18   4   0   0]
 [  0 167  12   1   0]
 [  0   8 156  16   0]
 [  0   0   0 180   0]
 [  0   0   0   5 175]]
Accuracy: 0.9288888888888889
Elapsed Time: 09:18:56.62
# zcols: 60
# samples: 900
# features: 70080
[[154  21   5   0   0]
 [  0 163  15   2   0]
 [  0   8 157  15   0]
 [  0   0   0 180   0]
 [  0   0   0   9 171]]
Accuracy: 0.9166666666666666
Elapsed Time: 09:26:00.07
# zcols: 70
# samples: 900
# features: 81760
[[161  14   4   1   0]
 [  0 161  12   7   0]
 [  0   7 157  16   0]
 [  0   0   3 177   0]
 [  0   0   0  12 168]]
Accuracy: 0.9155555555555556
Elapsed Time: 09:34:15.17
# zcols: 80
# samples: 900
# features: 93440
[[161  14   3   2   0]
 [  0 161  13   6   0]
 [  0   9 156  15   0]
 [  0   0   3 177   0]
 [  0   0   0  13 167]]
Accuracy: 0.9133333333333333
Elapsed Time: 09:43:43.25
# zcols: 90
# samples: 900
# features: 105120
[[161  14   4   1   0]
 [  0 158  17   5   0]
 [  0  11 155  14   0]
 [  0   0   7 173   0]
 [  0   0   0   9 171]]
Accuracy: 0.9088888888888889
Elapsed Time: 09:54:21.85
# zcols: 100
# samples: 900
# features: 116800
[[159  14   3   4   0]
 [  0 158  12  10   0]
 [  0   9 153  18   0]
 [  0   0   5 174   1]
 [  0   0   0  14 166]]
Accuracy: 0.9
Elapsed Time: 10:06:13.42
# zcols: 110
# samples: 900
# features: 128480
[[159  14   4   3   0]
 [  0 158  12  10   0]
 [  0  10 154  16   0]
 [  0   0   4 175   1]
 [  0   0   0  11 169]]
Accuracy: 0.9055555555555556
Elapsed Time: 10:19:19.65
# zcols: 120
# samples: 900
# features: 140160
[[158  15   3   4   0]
 [  0 157  12  11   0]
 [  0  11 154  15   0]
 [  0   0   6 173   1]
 [  0   0   0  14 166]]
Accuracy: 0.8977777777777778
Elapsed Time: 10:33:34.79
# zcols: 127
# samples: 900
# features: 148336
[[158  14   3   5   0]
 [  0 154  15  11   0]
 [  0  10 155  15   0]
 [  0   0   6 173   1]
 [  0   0   0  14 166]]
Accuracy: 0.8955555555555555
Elapsed Time: 10:48:37.99
fm_sub2_r/FingerMotions/
numZcolumns [1, 2, 3, 4, 5, 6, 7, 8, 9, 10, 11, 12, 13, 14, 15, 16, 17, 18, 19, 20, 25, 40, 50, 60, 70, 80, 90, 100, 110, 120, 127]
numTrials 3
numFrames 180
frameGroupSize 3
# zcols: 1
# samples: 900
# features: 1168
[[156  21   1   2   0]
 [  8 131  19  19   3]
 [  3  27  83  62   5]
 [  0  11  38 114  17]
 [  2   6   6  43 123]]
Accuracy: 0.6744444444444444
Elapsed Time: 10:48:55.66
# zcols: 2
# samples: 900
# features: 2336
[[157   6  15   2   0]
 [ 17 121  24  16   2]
 [  1  20 108  47   4]
 [  0   1  32 146   1]
 [  0   0   5  16 159]]
Accuracy: 0.7677777777777778
Elapsed Time: 10:49:10.79
# zcols: 3
# samples: 900
# features: 3504
[[178   2   0   0   0]
 [ 19 152   8   0   1]
 [  0   5  93  80   2]
 [  0   0  33 147   0]
 [  0   0   1  26 153]]
Accuracy: 0.8033333333333333
Elapsed Time: 10:49:32.49
# zcols: 4
# samples: 900
# features: 4672
[[171   1   8   0   0]
 [  9 127  43   1   0]
 [  1  13 115  51   0]
 [  0   0  40 138   2]
 [  0   0   1  26 153]]
Accuracy: 0.7822222222222223
Elapsed Time: 10:50:00.66
# zcols: 5
# samples: 900
# features: 5840
[[172   6   0   0   2]
 [ 18 153   4   5   0]
 [  0   2 130  48   0]
 [  0   0  27 153   0]
 [  0   0   3  11 166]]
Accuracy: 0.86
Elapsed Time: 10:50:35.70
# zcols: 6
# samples: 900
# features: 7008
[[155   0  23   2   0]
 [ 47  70  58   4   1]
 [  0   7 134  39   0]
 [  0   0  10 170   0]
 [  0   2   4  25 149]]
Accuracy: 0.7533333333333333
Elapsed Time: 10:51:17.49
# zcols: 7
# samples: 900
# features: 8176
[[171   9   0   0   0]
 [  2 146  30   2   0]
 [  0   0 143  37   0]
 [  0   0  11 168   1]
 [  0   0   0  13 167]]
Accuracy: 0.8833333333333333
Elapsed Time: 10:52:05.94
# zcols: 8
# samples: 900
# features: 9344
[[173   5   1   1   0]
 [  5 133  42   0   0]
 [  0   1 131  48   0]
 [  0   0   8 172   0]
 [  0   0   0  41 139]]
Accuracy: 0.8311111111111111
Elapsed Time: 10:53:01.19
# zcols: 9
# samples: 900
# features: 10512
[[180   0   0   0   0]
 [ 38  94  48   0   0]
 [  0   1 138  41   0]
 [  0   0  17 161   2]
 [  0   0   0  36 144]]
Accuracy: 0.7966666666666666
Elapsed Time: 10:54:03.09
# zcols: 10
# samples: 900
# features: 11680
[[177   3   0   0   0]
 [  3 149  24   3   1]
 [  0   0 151  29   0]
 [  0   0  14 163   3]
 [  0   0   0  37 143]]
Accuracy: 0.87
Elapsed Time: 10:55:12.02
# zcols: 11
# samples: 900
# features: 12848
[[180   0   0   0   0]
 [  9 150  21   0   0]
 [  0   0 142  38   0]
 [  0   0  20 154   6]
 [  0   0   0  42 138]]
Accuracy: 0.8488888888888889
Elapsed Time: 10:56:27.81
# zcols: 12
# samples: 900
# features: 14016
[[179   0   0   1   0]
 [ 25  93  60   2   0]
 [  0   0 137  43   0]
 [  0   0   8 170   2]
 [  0   0   0  35 145]]
Accuracy: 0.8044444444444444
Elapsed Time: 10:57:50.08
# zcols: 13
# samples: 900
# features: 15184
[[161   4  10   5   0]
 [  0 174   6   0   0]
 [  0   0 141  39   0]
 [  0   0  13 161   6]
 [  0   0   0  17 163]]
Accuracy: 0.8888888888888888
Elapsed Time: 10:59:19.48
# zcols: 14
# samples: 900
# features: 16352
[[180   0   0   0   0]
 [  0 133  47   0   0]
 [  0   0 142  38   0]
 [  0   0  16 149  15]
 [  0   0   1  16 163]]
Accuracy: 0.8522222222222222
Elapsed Time: 11:00:54.96
# zcols: 15
# samples: 900
# features: 17520
[[170   5   0   5   0]
 [  1 121  58   0   0]
 [  0   0 149  31   0]
 [  0   0   6 173   1]
 [  0   0   2  24 154]]
Accuracy: 0.8522222222222222
Elapsed Time: 11:02:38.78
# zcols: 16
# samples: 900
# features: 18688
[[164  14   1   1   0]
 [  4 119  57   0   0]
 [  0   0 139  41   0]
 [  0   0  15 156   9]
 [  0   0   1  35 144]]
Accuracy: 0.8022222222222222
Elapsed Time: 11:04:28.05
# zcols: 17
# samples: 900
# features: 19856
[[180   0   0   0   0]
 [  1 118  61   0   0]
 [  0   0 143  37   0]
 [  0   0  15 146  19]
 [  0   0   0  22 158]]
Accuracy: 0.8277777777777777
Elapsed Time: 11:06:25.89
# zcols: 18
# samples: 900
# features: 21024
[[155   4  21   0   0]
 [  8 112  60   0   0]
 [  0   0 137  43   0]
 [  0   0  21 139  20]
 [  0   0   1  30 149]]
Accuracy: 0.7688888888888888
Elapsed Time: 11:08:30.89
# zcols: 19
# samples: 900
# features: 22192
[[138   0   0  42   0]
 [  0 121  58   1   0]
 [  0   0 135  45   0]
 [  0   0  13 157  10]
 [  0   0   0  20 160]]
Accuracy: 0.79
Elapsed Time: 11:10:42.64
# zcols: 20
# samples: 900
# features: 23360
[[175   0   0   5   0]
 [  0 120  60   0   0]
 [  0   0 143  37   0]
 [  0   0  19 141  20]
 [  0   0   0  21 159]]
Accuracy: 0.82
Elapsed Time: 11:13:01.20
# zcols: 25
# samples: 900
# features: 29200
[[154   0   0  26   0]
 [  0 119  61   0   0]
 [  0   0 140  40   0]
 [  0   0  13 155  12]
 [  0   0   0  20 160]]
Accuracy: 0.8088888888888889
Elapsed Time: 11:15:55.10
# zcols: 40
# samples: 900
# features: 46720
[[118   0  30  32   0]
 [  7 102  70   1   0]
 [  0   0 146  34   0]
 [  0   0  13 147  20]
 [  0   0   6  26 148]]
Accuracy: 0.7344444444444445
Elapsed Time: 11:20:35.66
# zcols: 50
# samples: 900
# features: 58400
[[138   0   3  39   0]
 [  6 114  57   3   0]
 [  0   0 145  35   0]
 [  0   0  11 148  21]
 [  0   0   7  29 144]]
Accuracy: 0.7655555555555555
Elapsed Time: 11:26:26.64
# zcols: 60
# samples: 900
# features: 70080
[[154   1   3  22   0]
 [  1 121  46  12   0]
 [  0   0 148  32   0]
 [  0   0   8 151  21]
 [  1   0   9  27 143]]
Accuracy: 0.7966666666666666
Elapsed Time: 11:33:31.47
# zcols: 70
# samples: 900
# features: 81760
[[171   0   1   8   0]
 [  1 126  47   6   0]
 [  0   0 147  33   0]
 [  0   0   8 151  21]
 [  2   1   9  30 138]]
Accuracy: 0.8144444444444444
Elapsed Time: 11:41:46.09
# zcols: 80
# samples: 900
# features: 93440
[[171   0   1   8   0]
 [  1 127  47   5   0]
 [  0   0 148  32   0]
 [  0   0   8 152  20]
 [  0   1  11  32 136]]
Accuracy: 0.8155555555555556
Elapsed Time: 11:51:12.17
# zcols: 90
# samples: 900
# features: 105120
[[172   0   0   8   0]
 [  1 131  43   5   0]
 [  0   0 148  32   0]
 [  0   0   7 153  20]
 [  2   1  10  37 130]]
Accuracy: 0.8155555555555556
Elapsed Time: 12:01:49.98
# zcols: 100
# samples: 900
# features: 116800
[[175   1   0   4   0]
 [  1 133  39   7   0]
 [  0   0 148  32   0]
 [  0   0   8 152  20]
 [  3   1   7  36 133]]
Accuracy: 0.8233333333333334
Elapsed Time: 12:13:42.22
# zcols: 110
# samples: 900
# features: 128480
[[173   0   0   7   0]
 [  1 134  37   8   0]
 [  0   0 148  32   0]
 [  0   0   8 151  21]
 [  3   1   9  40 127]]
Accuracy: 0.8144444444444444
Elapsed Time: 12:26:45.80
# zcols: 120
# samples: 900
# features: 140160
[[175   0   0   5   0]
 [  1 141  34   4   0]
 [  0   0 148  32   0]
 [  0   0   8 152  20]
 [  3   1  10  39 127]]
Accuracy: 0.8255555555555556
Elapsed Time: 12:40:56.90
# zcols: 127
# samples: 900
# features: 148336
[[175   0   0   5   0]
 [  1 140  34   5   0]
 [  0   0 148  32   0]
 [  0   0   8 152  20]
 [  3   1  10  40 126]]
Accuracy: 0.8233333333333334
Elapsed Time: 12:55:56.59
fm_sub3_l/FingerMotions/
numZcolumns [1, 2, 3, 4, 5, 6, 7, 8, 9, 10, 11, 12, 13, 14, 15, 16, 17, 18, 19, 20, 25, 40, 50, 60, 70, 80, 90, 100, 110, 120, 127]
numTrials 3
numFrames 180
frameGroupSize 3
# zcols: 1
# samples: 900
# features: 1168
[[176   1   3   0   0]
 [  8 130   4  37   1]
 [  6  20 115  38   1]
 [  1  15  18 138   8]
 [  2   1   6   9 162]]
Accuracy: 0.8011111111111111
Elapsed Time: 12:56:14.20
# zcols: 2
# samples: 900
# features: 2336
[[132   2  10  31   5]
 [  1 124  22  30   3]
 [  5  17 142  15   1]
 [  4  36  13 103  24]
 [  9   5   3  55 108]]
Accuracy: 0.6766666666666666
Elapsed Time: 12:56:29.29
# zcols: 3
# samples: 900
# features: 3504
[[147   8  10  14   1]
 [ 17 144  16   3   0]
 [  1  11 141  20   7]
 [  4   3  39  94  40]
 [  9   2  13  51 105]]
Accuracy: 0.7011111111111111
Elapsed Time: 12:56:50.79
# zcols: 4
# samples: 900
# features: 4672
[[127  27   2   1  23]
 [ 35 129  10   0   6]
 [  0  35 110  34   1]
 [  6  11  17 139   7]
 [ 25   8  16  49  82]]
Accuracy: 0.6522222222222223
Elapsed Time: 12:57:19.09
# zcols: 5
# samples: 900
# features: 5840
[[167  13   0   0   0]
 [  3 149  23   2   3]
 [  0  16 147   8   9]
 [  0   2  22 114  42]
 [  0  10   3  20 147]]
Accuracy: 0.8044444444444444
Elapsed Time: 12:57:53.99
# zcols: 6
# samples: 900
# features: 7008
[[174   5   0   0   1]
 [  7 160  13   0   0]
 [  1   0 132  29  18]
 [  0   0  36 137   7]
 [  3   0  28  48 101]]
Accuracy: 0.7822222222222223
Elapsed Time: 12:58:35.55
# zcols: 7
# samples: 900
# features: 8176
[[163   3  13   1   0]
 [  0 142  23   0  15]
 [  3   2 163  10   2]
 [  1   9  61 108   1]
 [  0  60   6   2 112]]
Accuracy: 0.7644444444444445
Elapsed Time: 12:59:24.28
# zcols: 8
# samples: 900
# features: 9344
[[171   8   1   0   0]
 [  0 175   1   0   4]
 [  1   2 165  12   0]
 [  0   1  28 139  12]
 [  9   1   4  39 127]]
Accuracy: 0.8633333333333333
Elapsed Time: 13:00:19.38
# zcols: 9
# samples: 900
# features: 10512
[[173   4   3   0   0]
 [  0 173   6   0   1]
 [  0   0 147  26   7]
 [  0   0  28 124  28]
 [  1  24  21  17 117]]
Accuracy: 0.8155555555555556
Elapsed Time: 13:01:21.37
# zcols: 10
# samples: 900
# features: 11680
[[165  15   0   0   0]
 [  0 147   8   0  25]
 [  0   0 159  20   1]
 [  0   0  26 144  10]
 [  0  57  13  13  97]]
Accuracy: 0.7911111111111111
Elapsed Time: 13:02:29.84
# zcols: 11
# samples: 900
# features: 12848
[[169  10   0   1   0]
 [  1 120  12   2  45]
 [  0   0 148  32   0]
 [  0   0  47 127   6]
 [  1  53   7   5 114]]
Accuracy: 0.7533333333333333
Elapsed Time: 13:03:45.06
# zcols: 12
# samples: 900
# features: 14016
[[157  22   0   0   1]
 [  0 134  43   1   2]
 [  0   8 133  39   0]
 [  1   0   8 134  37]
 [  1  38  22   9 110]]
Accuracy: 0.7422222222222222
Elapsed Time: 13:05:07.33
# zcols: 13
# samples: 900
# features: 15184
[[144  36   0   0   0]
 [  1 117   2   0  60]
 [  0   2 152  25   1]
 [  0   3  51 114  12]
 [  2  45   8  17 108]]
Accuracy: 0.7055555555555556
Elapsed Time: 13:06:36.47
# zcols: 14
# samples: 900
# features: 16352
[[148  28   0   4   0]
 [  1 131  11   1  36]
 [  0   1 132  43   4]
 [  1   0  61 116   2]
 [  8  26  34   5 107]]
Accuracy: 0.7044444444444444
Elapsed Time: 13:08:11.99
# zcols: 15
# samples: 900
# features: 17520
[[180   0   0   0   0]
 [  0 154   7   0  19]
 [  0   0 150  22   8]
 [  0   2  48 119  11]
 [  0  40  24   0 116]]
Accuracy: 0.7988888888888889
Elapsed Time: 13:09:54.62
# zcols: 16
# samples: 900
# features: 18688
[[162  18   0   0   0]
 [  0 163   2   0  15]
 [  0   1 138  41   0]
 [  0   0  39 135   6]
 [  3  51   5   8 113]]
Accuracy: 0.79
Elapsed Time: 13:11:44.70
# zcols: 17
# samples: 900
# features: 19856
[[172   8   0   0   0]
 [  0 137   0   0  43]
 [  0   2 141  19  18]
 [  0   1  40 127  12]
 [  2  33  15  20 110]]
Accuracy: 0.7633333333333333
Elapsed Time: 13:13:42.08
# zcols: 18
# samples: 900
# features: 21024
[[159  21   0   0   0]
 [  1 135   1   1  42]
 [  0   2 133  43   2]
 [  0   3  29 134  14]
 [  4  65   0  12  99]]
Accuracy: 0.7333333333333333
Elapsed Time: 13:15:46.43
# zcols: 19
# samples: 900
# features: 22192
[[169   3   0   0   8]
 [  0 117  14   1  48]
 [  0  23 117  38   2]
 [  0   2  44 126   8]
 [  1  48   4   2 125]]
Accuracy: 0.7266666666666667
Elapsed Time: 13:17:58.26
# zcols: 20
# samples: 900
# features: 23360
[[171   6   0   1   2]
 [  1 138   0   0  41]
 [  0   5 135  40   0]
 [  0   2  31 137  10]
 [  3  38   0  10 129]]
Accuracy: 0.7888888888888889
Elapsed Time: 13:20:17.07
# zcols: 25
# samples: 900
# features: 29200
[[152  25   1   0   2]
 [  0 153   0   2  25]
 [  0  31 109  35   5]
 [  0  10  21 137  12]
 [  4  35   6   4 131]]
Accuracy: 0.7577777777777778
Elapsed Time: 13:23:11.75
# zcols: 40
# samples: 900
# features: 46720
[[132  48   0   0   0]
 [  1 150   3   1  25]
 [  0  47 110  18   5]
 [  0  19  16 142   3]
 [ 12  45   0   3 120]]
Accuracy: 0.7266666666666667
Elapsed Time: 13:27:52.77
# zcols: 50
# samples: 900
# features: 58400
[[138  40   0   0   2]
 [  1 150   6   1  22]
 [  0  26 131  22   1]
 [  0  13  25 139   3]
 [ 10  41   2   6 121]]
Accuracy: 0.7544444444444445
Elapsed Time: 13:33:45.26
# zcols: 60
# samples: 900
# features: 70080
[[137  39   2   0   2]
 [  1 150  13   2  14]
 [  0  32 136  12   0]
 [  0  15  17 145   3]
 [ 10  52   2   3 113]]
Accuracy: 0.7566666666666667
Elapsed Time: 13:40:48.57
# zcols: 70
# samples: 900
# features: 81760
[[134  42   0   0   4]
 [  1 165   8   1   5]
 [  0  26 142  12   0]
 [  0  18  18 142   2]
 [ 12  42   1   5 120]]
Accuracy: 0.7811111111111111
Elapsed Time: 13:49:05.37
# zcols: 80
# samples: 900
# features: 93440
[[131  46   2   0   1]
 [  1 160  11   2   6]
 [  0  22 151   7   0]
 [  0  14  18 146   2]
 [ 10  45   5   5 115]]
Accuracy: 0.7811111111111111
Elapsed Time: 13:58:29.31
# zcols: 90
# samples: 900
# features: 105120
[[133  44   1   0   2]
 [  0 165  10   1   4]
 [  0  21 153   6   0]
 [  0  19  13 148   0]
 [ 11  46   3   5 115]]
Accuracy: 0.7933333333333333
Elapsed Time: 14:09:03.94
# zcols: 100
# samples: 900
# features: 116800
[[136  40   2   0   2]
 [  0 168   7   1   4]
 [  0  24 153   3   0]
 [  0  14  16 150   0]
 [ 12  46   6   4 112]]
Accuracy: 0.7988888888888889
Elapsed Time: 14:20:51.88
# zcols: 110
# samples: 900
# features: 128480
[[133  44   2   0   1]
 [  0 171   5   1   3]
 [  0  21 156   3   0]
 [  0  21  17 142   0]
 [ 12  41   5   2 120]]
Accuracy: 0.8022222222222222
Elapsed Time: 14:33:50.86
# zcols: 120
# samples: 900
# features: 140160
[[131  46   1   0   2]
 [  0 167   9   1   3]
 [  0  22 155   3   0]
 [  0  17  16 146   1]
 [ 13  42   7   2 116]]
Accuracy: 0.7944444444444444
Elapsed Time: 14:47:58.94
# zcols: 127
# samples: 900
# features: 148336
[[135  42   2   0   1]
 [  0 165  11   1   3]
 [  0  21 156   3   0]
 [  0  20  15 145   0]
 [ 12  40   7   2 119]]
Accuracy: 0.8
Elapsed Time: 15:02:59.21
fm_sub3_r/FingerMotions/
numZcolumns [1, 2, 3, 4, 5, 6, 7, 8, 9, 10, 11, 12, 13, 14, 15, 16, 17, 18, 19, 20, 25, 40, 50, 60, 70, 80, 90, 100, 110, 120, 127]
numTrials 3
numFrames 180
frameGroupSize 3
# zcols: 1
# samples: 900
# features: 1168
[[148  10   4  15   3]
 [ 44  93  24   7  12]
 [  6  43 126   4   1]
 [  6   8   0 126  40]
 [  3   4   4  80  89]]
Accuracy: 0.6466666666666666
Elapsed Time: 15:03:16.77
# zcols: 2
# samples: 900
# features: 2336
[[156   4  13   1   6]
 [ 25  80  62   9   4]
 [ 42  36  91   1  10]
 [  0   3   2 121  54]
 [  2   2   2  70 104]]
Accuracy: 0.6133333333333333
Elapsed Time: 15:03:31.91
# zcols: 3
# samples: 900
# features: 3504
[[174   3   2   1   0]
 [ 11 104  62   0   3]
 [ 10  15 154   0   1]
 [  0   0   0 124  56]
 [  3   1   0  69 107]]
Accuracy: 0.7366666666666667
Elapsed Time: 15:03:53.45
# zcols: 4
# samples: 900
# features: 4672
[[173   4   3   0   0]
 [ 12 136  26   2   4]
 [ 17  29 129   2   3]
 [  0   2   1 131  46]
 [  0   5   2  41 132]]
Accuracy: 0.7788888888888889
Elapsed Time: 15:04:21.66
# zcols: 5
# samples: 900
# features: 5840
[[177   3   0   0   0]
 [  0 145  35   0   0]
 [  1   6 172   0   1]
 [  1   0   0 156  23]
 [  0   0   0  23 157]]
Accuracy: 0.8966666666666666
Elapsed Time: 15:04:56.59
# zcols: 6
# samples: 900
# features: 7008
[[180   0   0   0   0]
 [  1 129  50   0   0]
 [  0  10 170   0   0]
 [  1   0   0 145  34]
 [  0   0   0  29 151]]
Accuracy: 0.8611111111111112
Elapsed Time: 15:05:38.00
# zcols: 7
# samples: 900
# features: 8176
[[177   1   0   2   0]
 [  4 123  53   0   0]
 [  0  21 158   1   0]
 [  1   0   0 132  47]
 [  0   1   0  26 153]]
Accuracy: 0.8255555555555556
Elapsed Time: 15:06:26.20
# zcols: 8
# samples: 900
# features: 9344
[[180   0   0   0   0]
 [  5 139  35   0   1]
 [  0  17 163   0   0]
 [  0   0   0 131  49]
 [  0   0   0  17 163]]
Accuracy: 0.8622222222222222
Elapsed Time: 15:07:20.95
# zcols: 9
# samples: 900
# features: 10512
[[180   0   0   0   0]
 [ 18 114  48   0   0]
 [  0   8 172   0   0]
 [  0   0   0 136  44]
 [  0   0   0  25 155]]
Accuracy: 0.8411111111111111
Elapsed Time: 15:08:22.97
# zcols: 10
# samples: 900
# features: 11680
[[179   1   0   0   0]
 [  0 149  31   0   0]
 [  0  14 166   0   0]
 [  0   0   0 127  53]
 [  1   0   0  20 159]]
Accuracy: 0.8666666666666667
Elapsed Time: 15:09:31.91
# zcols: 11
# samples: 900
# features: 12848
[[179   0   1   0   0]
 [  4 149  26   1   0]
 [  1   6 173   0   0]
 [  0   0   0 135  45]
 [  0   0   0  15 165]]
Accuracy: 0.89
Elapsed Time: 15:10:47.99
# zcols: 12
# samples: 900
# features: 14016
[[179   0   1   0   0]
 [  0 120  60   0   0]
 [  0   9 171   0   0]
 [  0   0   0 136  44]
 [  0   0   0   5 175]]
Accuracy: 0.8677777777777778
Elapsed Time: 15:12:10.96
# zcols: 13
# samples: 900
# features: 15184
[[179   0   0   1   0]
 [ 29 139  12   0   0]
 [  0  16 164   0   0]
 [  0   0   0 139  41]
 [  0   0   0  22 158]]
Accuracy: 0.8655555555555555
Elapsed Time: 15:13:40.52
# zcols: 14
# samples: 900
# features: 16352
[[177   3   0   0   0]
 [  2 115  63   0   0]
 [  0  10 170   0   0]
 [  1   0   0 141  38]
 [  1   0   0  11 168]]
Accuracy: 0.8566666666666667
Elapsed Time: 15:15:16.28
# zcols: 15
# samples: 900
# features: 17520
[[179   0   0   1   0]
 [  0 154  26   0   0]
 [  0   6 174   0   0]
 [  0   0   0 149  31]
 [  0   0   0  18 162]]
Accuracy: 0.9088888888888889
Elapsed Time: 15:16:59.25
# zcols: 16
# samples: 900
# features: 18688
[[179   0   0   0   1]
 [  0 124  45   9   2]
 [  0   1 179   0   0]
 [  0   0   1 144  35]
 [  0   0   0  28 152]]
Accuracy: 0.8644444444444445
Elapsed Time: 15:18:49.38
# zcols: 17
# samples: 900
# features: 19856
[[179   0   0   1   0]
 [  8 110  62   0   0]
 [  0   8 172   0   0]
 [  0   0   0 139  41]
 [  0   0   0   6 174]]
Accuracy: 0.86
Elapsed Time: 15:20:47.37
# zcols: 18
# samples: 900
# features: 21024
[[179   0   0   0   1]
 [ 14 150  16   0   0]
 [  0  18 162   0   0]
 [  0   0   0 138  42]
 [  0   0   0   7 173]]
Accuracy: 0.8911111111111111
Elapsed Time: 15:22:52.01
# zcols: 19
# samples: 900
# features: 22192
[[179   0   0   1   0]
 [  6 111  35  25   3]
 [  0   1 179   0   0]
 [  0   0   0 145  35]
 [  0   0   0  12 168]]
Accuracy: 0.8688888888888889
Elapsed Time: 15:25:02.72
# zcols: 20
# samples: 900
# features: 23360
[[180   0   0   0   0]
 [ 14 132  26   7   1]
 [  0  12 168   0   0]
 [  0   0   0 137  43]
 [  0   0   0   7 173]]
Accuracy: 0.8777777777777778
Elapsed Time: 15:27:20.98
# zcols: 25
# samples: 900
# features: 29200
[[178   0   0   2   0]
 [  2 132  26  18   2]
 [  0   5 175   0   0]
 [  0   0   0 137  43]
 [  0   0   0  11 169]]
Accuracy: 0.8788888888888889
Elapsed Time: 15:30:15.25
# zcols: 40
# samples: 900
# features: 46720
[[169   0   0  11   0]
 [  0 110  69   0   1]
 [  0  10 170   0   0]
 [  0   0   0 136  44]
 [  0   0   0   8 172]]
Accuracy: 0.8411111111111111
Elapsed Time: 15:34:56.10
# zcols: 50
# samples: 900
# features: 58400
[[169   3   0   8   0]
 [  2 131  39   8   0]
 [  0  14 166   0   0]
 [  0   0   0 137  43]
 [  0   3   0  16 161]]
Accuracy: 0.8488888888888889
Elapsed Time: 15:40:46.79
# zcols: 60
# samples: 900
# features: 70080
[[168   5   0   7   0]
 [  2 140  31   4   3]
 [  0  14 166   0   0]
 [  0   0   0 136  44]
 [  0   1   0  18 161]]
Accuracy: 0.8566666666666667
Elapsed Time: 15:47:48.35
# zcols: 70
# samples: 900
# features: 81760
[[169   2   0   9   0]
 [  4 136  34   1   5]
 [  0  14 166   0   0]
 [  0   0   0 134  46]
 [  0   1   0  17 162]]
Accuracy: 0.8522222222222222
Elapsed Time: 15:56:05.87
# zcols: 80
# samples: 900
# features: 93440
[[169   6   0   5   0]
 [  2 141  32   4   1]
 [  0  14 166   0   0]
 [  0   0   0 133  47]
 [  0   2   0  18 160]]
Accuracy: 0.8544444444444445
Elapsed Time: 16:05:33.56
# zcols: 90
# samples: 900
# features: 105120
[[166   1   0  13   0]
 [  2 145  29   2   2]
 [  0  14 166   0   0]
 [  0   0   0 134  46]
 [  0   1   0  20 159]]
Accuracy: 0.8555555555555555
Elapsed Time: 16:16:12.45
# zcols: 100
# samples: 900
# features: 116800
[[167   1   0  12   0]
 [  2 145  31   0   2]
 [  0  15 165   0   0]
 [  0   0   0 133  47]
 [  0   1   0  18 161]]
Accuracy: 0.8566666666666667
Elapsed Time: 16:28:04.09
# zcols: 110
# samples: 900
# features: 128480
[[168   0   0  12   0]
 [  2 152  23   1   2]
 [  0  17 163   0   0]
 [  0   0   0 133  47]
 [  0   0   0  17 163]]
Accuracy: 0.8655555555555555
Elapsed Time: 16:41:08.03
# zcols: 120
# samples: 900
# features: 140160
[[166   2   0  12   0]
 [  2 150  27   0   1]
 [  0  13 167   0   0]
 [  0   0   0 133  47]
 [  0   1   0  19 160]]
Accuracy: 0.8622222222222222
Elapsed Time: 16:55:25.11
# zcols: 127
# samples: 900
# features: 148336
[[166   3   0  11   0]
 [  2 152  23   2   1]
 [  0  14 166   0   0]
 [  0   0   0 133  47]
 [  0   1   0  18 161]]
Accuracy: 0.8644444444444445
Elapsed Time: 17:10:25.43
fm_sub4_l/FingerMotions/
numZcolumns [1, 2, 3, 4, 5, 6, 7, 8, 9, 10, 11, 12, 13, 14, 15, 16, 17, 18, 19, 20, 25, 40, 50, 60, 70, 80, 90, 100, 110, 120, 127]
numTrials 3
numFrames 180
frameGroupSize 3
# zcols: 1
# samples: 900
# features: 1168
[[113  50   8   1   8]
 [ 55  99  16   4   6]
 [  9  52  70  32  17]
 [  2   4  36 100  38]
 [  5  11  49  35  80]]
Accuracy: 0.5133333333333333
Elapsed Time: 17:10:43.23
# zcols: 2
# samples: 900
# features: 2336
[[ 99  66   4   3   8]
 [ 67 103   5   2   3]
 [  8  11 137  20   4]
 [  1   1  11 134  33]
 [ 19   9  17  52  83]]
Accuracy: 0.6177777777777778
Elapsed Time: 17:10:58.38
# zcols: 3
# samples: 900
# features: 3504
[[125  46   2   1   6]
 [ 19 145   5   4   7]
 [  2   1 119  42  16]
 [  4   0  33 129  14]
 [  5   2  26  22 125]]
Accuracy: 0.7144444444444444
Elapsed Time: 17:11:20.08
# zcols: 4
# samples: 900
# features: 4672
[[103  72   0   0   5]
 [ 29 147   2   1   1]
 [  1   6 117  43  13]
 [  0   2  21 138  19]
 [  2   7  37  28 106]]
Accuracy: 0.6788888888888889
Elapsed Time: 17:11:48.44
# zcols: 5
# samples: 900
# features: 5840
[[146  34   0   0   0]
 [ 28 149   3   0   0]
 [ 14  17 108  37   4]
 [  1   3  30 131  15]
 [ 21   8   9  24 118]]
Accuracy: 0.7244444444444444
Elapsed Time: 17:12:23.58
# zcols: 6
# samples: 900
# features: 7008
[[141  38   1   0   0]
 [ 17 154   8   1   0]
 [  0   5 113  52  10]
 [  0   0  36 128  16]
 [  5   0  23  14 138]]
Accuracy: 0.7488888888888889
Elapsed Time: 17:13:05.17
# zcols: 7
# samples: 900
# features: 8176
[[119  57   1   1   2]
 [ 12 164   2   1   1]
 [  6   8 120  38   8]
 [  2   4  14 150  10]
 [  2   2   9  59 108]]
Accuracy: 0.7344444444444445
Elapsed Time: 17:13:53.94
# zcols: 8
# samples: 900
# features: 9344
[[121  55   0   2   2]
 [  8 167   3   2   0]
 [  0   2 157  13   8]
 [  0   3  14 146  17]
 [  9   3  34  54  80]]
Accuracy: 0.7455555555555555
Elapsed Time: 17:14:49.13
# zcols: 9
# samples: 900
# features: 10512
[[120  56   1   1   2]
 [  5 167   4   4   0]
 [  2  30 116  25   7]
 [  3   5  28 135   9]
 [  4  10  21  35 110]]
Accuracy: 0.72
Elapsed Time: 17:15:51.03
# zcols: 10
# samples: 900
# features: 11680
[[147  30   1   1   1]
 [ 10 145  24   0   1]
 [  2   6 135  28   9]
 [  1   0  30 134  15]
 [  0  14  19  29 118]]
Accuracy: 0.7544444444444445
Elapsed Time: 17:16:59.65
# zcols: 11
# samples: 900
# features: 12848
[[117  55   5   3   0]
 [  9 165   6   0   0]
 [  8  19 106  40   7]
 [  4   0  26 134  16]
 [  1   4  14  46 115]]
Accuracy: 0.7077777777777777
Elapsed Time: 17:18:15.15
# zcols: 12
# samples: 900
# features: 14016
[[114  56   0   9   1]
 [  8 165   3   2   2]
 [  0  15 137  24   4]
 [  2   0  31 136  11]
 [  4   2  13  47 114]]
Accuracy: 0.74
Elapsed Time: 17:19:37.31
# zcols: 13
# samples: 900
# features: 15184
[[143  36   0   0   1]
 [  9 158   7   4   2]
 [  3  20 129  28   0]
 [  0   1  29 131  19]
 [  9  11   3  58  99]]
Accuracy: 0.7333333333333333
Elapsed Time: 17:21:06.46
# zcols: 14
# samples: 900
# features: 16352
[[124  55   0   0   1]
 [  9 171   0   0   0]
 [  0  47  97  32   4]
 [  0   0  34 138   8]
 [  1  30  15  61  73]]
Accuracy: 0.67
Elapsed Time: 17:22:42.09
# zcols: 15
# samples: 900
# features: 17520
[[119  59   0   1   1]
 [  7 163   6   3   1]
 [  0  10 138  32   0]
 [  1   0  37 140   2]
 [  0   5  27  57  91]]
Accuracy: 0.7233333333333334
Elapsed Time: 17:24:25.03
# zcols: 16
# samples: 900
# features: 18688
[[137  42   0   1   0]
 [  3 171   5   0   1]
 [  0  13 139  27   1]
 [  0   0  21 153   6]
 [  7   0   9  51 113]]
Accuracy: 0.7922222222222223
Elapsed Time: 17:26:14.59
# zcols: 17
# samples: 900
# features: 19856
[[154  25   0   0   1]
 [ 21 141  15   2   1]
 [  0  17 137  26   0]
 [  0   3  14 153  10]
 [ 11   7  17  55  90]]
Accuracy: 0.75
Elapsed Time: 17:28:12.45
# zcols: 18
# samples: 900
# features: 21024
[[126  53   1   0   0]
 [  2 167  11   0   0]
 [  0  23 124  31   2]
 [  0   0  29 140  11]
 [  2   1  11  47 119]]
Accuracy: 0.7511111111111111
Elapsed Time: 17:30:16.23
# zcols: 19
# samples: 900
# features: 22192
[[132  48   0   0   0]
 [  8 158  10   3   1]
 [  0  11 141  28   0]
 [  0   2  36 132  10]
 [  3  18   6  44 109]]
Accuracy: 0.7466666666666667
Elapsed Time: 17:32:27.42
# zcols: 20
# samples: 900
# features: 23360
[[145  34   0   0   1]
 [  8 169   3   0   0]
 [  0  15 142  23   0]
 [  2   1  21 151   5]
 [  4   3   5  58 110]]
Accuracy: 0.7966666666666666
Elapsed Time: 17:34:46.37
# zcols: 25
# samples: 900
# features: 29200
[[123  57   0   0   0]
 [  6 161  12   0   1]
 [  0   3 162  15   0]
 [  1   3  30 132  14]
 [ 14   2   2  57 105]]
Accuracy: 0.7588888888888888
Elapsed Time: 17:37:40.00
# zcols: 40
# samples: 900
# features: 46720
[[130  50   0   0   0]
 [ 10 169   0   0   1]
 [  1  12 155  12   0]
 [  1   0  22 147  10]
 [  1   4   6  58 111]]
Accuracy: 0.7911111111111111
Elapsed Time: 17:42:20.07
# zcols: 50
# samples: 900
# features: 58400
[[150  30   0   0   0]
 [  9 159  11   0   1]
 [  0  12 158  10   0]
 [  1   1  24 145   9]
 [  9   4   6  55 106]]
Accuracy: 0.7977777777777778
Elapsed Time: 17:48:10.87
# zcols: 60
# samples: 900
# features: 70080
[[153  23   3   0   1]
 [  9 158  12   0   1]
 [  0  12 159   9   0]
 [  1   0  24 148   7]
 [  2   4   7  54 113]]
Accuracy: 0.8122222222222222
Elapsed Time: 17:55:16.44
# zcols: 70
# samples: 900
# features: 81760
[[157  20   3   0   0]
 [  8 153  18   0   1]
 [  0   9 164   7   0]
 [  1   0  25 142  12]
 [  3   3  10  54 110]]
Accuracy: 0.8066666666666666
Elapsed Time: 18:03:33.88
# zcols: 80
# samples: 900
# features: 93440
[[158  18   4   0   0]
 [  7 152  19   0   2]
 [  0  11 161   8   0]
 [  1   0  25 144  10]
 [  2   4   8  55 111]]
Accuracy: 0.8066666666666666
Elapsed Time: 18:12:59.56
# zcols: 90
# samples: 900
# features: 105120
[[157  18   5   0   0]
 [  8 151  19   0   2]
 [  0   7 165   8   0]
 [  1   0  26 141  12]
 [  3   3   6  55 113]]
Accuracy: 0.8077777777777778
Elapsed Time: 18:23:35.07
# zcols: 100
# samples: 900
# features: 116800
[[157  17   6   0   0]
 [  5 150  23   0   2]
 [  0   8 165   7   0]
 [  1   0  24 144  11]
 [  4   1  13  56 106]]
Accuracy: 0.8022222222222222
Elapsed Time: 18:35:22.73
# zcols: 110
# samples: 900
# features: 128480
[[157  15   8   0   0]
 [  6 150  22   0   2]
 [  0   6 168   6   0]
 [  1   0  27 144   8]
 [  3   2   8  56 111]]
Accuracy: 0.8111111111111111
Elapsed Time: 18:48:27.98
# zcols: 120
# samples: 900
# features: 140160
[[158  12  10   0   0]
 [  7 148  23   0   2]
 [  0   9 165   6   0]
 [  1   0  23 143  13]
 [  4   1   8  55 112]]
Accuracy: 0.8066666666666666
Elapsed Time: 19:02:41.37
# zcols: 127
# samples: 900
# features: 148336
[[158  15   7   0   0]
 [  6 148  24   0   2]
 [  0   6 168   6   0]
 [  1   0  24 142  13]
 [  4   2   8  55 111]]
Accuracy: 0.8077777777777778
Elapsed Time: 19:17:40.16
fm_sub4_r/FingerMotions/
numZcolumns [1, 2, 3, 4, 5, 6, 7, 8, 9, 10, 11, 12, 13, 14, 15, 16, 17, 18, 19, 20, 25, 40, 50, 60, 70, 80, 90, 100, 110, 120, 127]
numTrials 3
numFrames 180
frameGroupSize 3
# zcols: 1
# samples: 900
# features: 1168
[[132   4  30   8   6]
 [ 27 100  25  13  15]
 [ 12  10  80  52  26]
 [ 11  20  26 116   7]
 [  2   7  12  31 128]]
Accuracy: 0.6177777777777778
Elapsed Time: 19:17:57.87
# zcols: 2
# samples: 900
# features: 2336
[[138  34   7   0   1]
 [ 35  88  10  12  35]
 [ 12   9  74  60  25]
 [  3  11  51 105  10]
 [  1   0  25  67  87]]
Accuracy: 0.5466666666666666
Elapsed Time: 19:18:13.06
# zcols: 3
# samples: 900
# features: 3504
[[147  11   0   5  17]
 [ 40 118  10   0  12]
 [  7   4  77  66  26]
 [  4   0  45 118  13]
 [  0   1  13  72  94]]
Accuracy: 0.6155555555555555
Elapsed Time: 19:18:34.70
# zcols: 4
# samples: 900
# features: 4672
[[137  19  17   5   2]
 [ 19 100  36  15  10]
 [  1  11  70  69  29]
 [  0   0  28 144   8]
 [  1   3  51  50  75]]
Accuracy: 0.5844444444444444
Elapsed Time: 19:19:02.83
# zcols: 5
# samples: 900
# features: 5840
[[164  15   1   0   0]
 [ 15 122  22   8  13]
 [  0  23  99  48  10]
 [  0   0  28 141  11]
 [  0   0  32  17 131]]
Accuracy: 0.73
Elapsed Time: 19:19:37.62
# zcols: 6
# samples: 900
# features: 7008
[[149  29   2   0   0]
 [ 33  85  33  11  18]
 [  2  12  84  58  24]
 [  0   1  28 137  14]
 [  1   2  35  31 111]]
Accuracy: 0.6288888888888889
Elapsed Time: 19:20:19.09
# zcols: 7
# samples: 900
# features: 8176
[[ 69  58  52   1   0]
 [ 39 115  11  15   0]
 [  4   5 109  46  16]
 [  0   5  46 110  19]
 [  0   0  14  54 112]]
Accuracy: 0.5722222222222222
Elapsed Time: 19:21:07.41
# zcols: 8
# samples: 900
# features: 9344
[[122  54   4   0   0]
 [  7 140  28   4   1]
 [  0  11  96  54  19]
 [  0   0  45 129   6]
 [  0   0  41  35 104]]
Accuracy: 0.6566666666666666
Elapsed Time: 19:22:02.40
# zcols: 9
# samples: 900
# features: 10512
[[100  54  17   9   0]
 [ 46  95  35   3   1]
 [  0   9  98  66   7]
 [  0   0  43 131   6]
 [  0   0  10  15 155]]
Accuracy: 0.6433333333333333
Elapsed Time: 19:23:04.37
# zcols: 10
# samples: 900
# features: 11680
[[111  39  25   0   5]
 [ 28 108  41   2   1]
 [  1  19  93  27  40]
 [  0   0  29 133  18]
 [  3   0  50  33  94]]
Accuracy: 0.5988888888888889
Elapsed Time: 19:24:13.32
# zcols: 11
# samples: 900
# features: 12848
[[128  35  17   0   0]
 [ 40  96  44   0   0]
 [  1  17 103  57   2]
 [  0   0  42 128  10]
 [  0   0  11  42 127]]
Accuracy: 0.6466666666666666
Elapsed Time: 19:25:28.73
# zcols: 12
# samples: 900
# features: 14016
[[127  19  19   7   8]
 [  9 116  45   2   8]
 [  1   6  98  53  22]
 [  0   0  46 117  17]
 [  0   0  32  46 102]]
Accuracy: 0.6222222222222222
Elapsed Time: 19:26:50.85
# zcols: 13
# samples: 900
# features: 15184
[[109  70   1   0   0]
 [  8 106  64   1   1]
 [  0   2 116  51  11]
 [  0   0  32 140   8]
 [  0   0   6  27 147]]
Accuracy: 0.6866666666666666
Elapsed Time: 19:28:20.22
# zcols: 14
# samples: 900
# features: 16352
[[ 77  85  18   0   0]
 [ 25  99  53   1   2]
 [  1  17  98  44  20]
 [  0   0  29 148   3]
 [  0   0  52  24 104]]
Accuracy: 0.5844444444444444
Elapsed Time: 19:29:56.14
# zcols: 15
# samples: 900
# features: 17520
[[116  44  20   0   0]
 [ 20 102  46  10   2]
 [  0  27  90  61   2]
 [  0   0  64 111   5]
 [  0   0  39  13 128]]
Accuracy: 0.6077777777777778
Elapsed Time: 19:31:39.21
# zcols: 16
# samples: 900
# features: 18688
[[135  45   0   0   0]
 [ 41 115  24   0   0]
 [  0  11 104  55  10]
 [  0   0  53 112  15]
 [  1   0  50  15 114]]
Accuracy: 0.6444444444444445
Elapsed Time: 19:33:28.22
# zcols: 17
# samples: 900
# features: 19856
[[114  66   0   0   0]
 [  5 106  69   0   0]
 [  0   7 112  59   2]
 [  0   0  41 124  15]
 [  0   0  23  31 126]]
Accuracy: 0.6466666666666666
Elapsed Time: 19:35:25.54
# zcols: 18
# samples: 900
# features: 21024
[[122  54   4   0   0]
 [ 11  99  69   1   0]
 [  2   4 113  50  11]
 [  0   0  44 110  26]
 [  0   0  70  10 100]]
Accuracy: 0.6044444444444445
Elapsed Time: 19:37:30.44
# zcols: 19
# samples: 900
# features: 22192
[[121  55   3   1   0]
 [ 17  75  88   0   0]
 [  0  17 100  58   5]
 [  0   1  44 129   6]
 [  0   0  19  25 136]]
Accuracy: 0.6233333333333333
Elapsed Time: 19:39:41.91
# zcols: 20
# samples: 900
# features: 23360
[[114  66   0   0   0]
 [ 52 107  21   0   0]
 [  0   6 114  58   2]
 [  0   0  41 130   9]
 [  0   0  73   7 100]]
Accuracy: 0.6277777777777778
Elapsed Time: 19:42:00.98
# zcols: 25
# samples: 900
# features: 29200
[[116  64   0   0   0]
 [ 25  99  54   0   2]
 [  0  24  94  57   5]
 [  0   0  36 129  15]
 [  0   0  35   5 140]]
Accuracy: 0.6422222222222222
Elapsed Time: 19:44:55.84
# zcols: 40
# samples: 900
# features: 46720
[[120  54   6   0   0]
 [ 27 102  50   0   1]
 [  7  39 100  34   0]
 [  4   0  48 114  14]
 [  9   0  40  15 116]]
Accuracy: 0.6133333333333333
Elapsed Time: 19:49:36.81
# zcols: 50
# samples: 900
# features: 58400
[[120  54   6   0   0]
 [ 13  85  78   0   4]
 [  7  43  99  29   2]
 [  6   0  41 112  21]
 [  8   1  43   5 123]]
Accuracy: 0.5988888888888889
Elapsed Time: 19:55:28.54
# zcols: 60
# samples: 900
# features: 70080
[[123  45  12   0   0]
 [ 13  94  72   0   1]
 [  6  42 106  24   2]
 [  6   0  46 105  23]
 [  7   1  34   8 130]]
Accuracy: 0.62
Elapsed Time: 20:02:30.30
# zcols: 70
# samples: 900
# features: 81760
[[128  38  14   0   0]
 [ 16  83  79   0   2]
 [  7  43 111  19   0]
 [ 11   0  48 107  14]
 [  9   1  38   8 124]]
Accuracy: 0.6144444444444445
Elapsed Time: 20:10:44.45
# zcols: 80
# samples: 900
# features: 93440
[[130  31  19   0   0]
 [ 12  88  75   0   5]
 [  9  41 106  23   1]
 [  6   0  39 111  24]
 [ 10   0  32  11 127]]
Accuracy: 0.6244444444444445
Elapsed Time: 20:20:09.67
# zcols: 90
# samples: 900
# features: 105120
[[125  37  18   0   0]
 [ 17  87  72   0   4]
 [  5  45 110  18   2]
 [  9   0  41 108  22]
 [ 11   1  32   7 129]]
Accuracy: 0.6211111111111111
Elapsed Time: 20:30:48.66
# zcols: 100
# samples: 900
# features: 116800
[[133  32  15   0   0]
 [ 15  83  77   0   5]
 [  8  43 106  21   2]
 [  8   0  36 113  23]
 [  7   0  33  10 130]]
Accuracy: 0.6277777777777778
Elapsed Time: 20:42:38.01
# zcols: 110
# samples: 900
# features: 128480
[[133  35  12   0   0]
 [ 16  88  72   0   4]
 [  7  41 108  22   2]
 [  7   0  36 112  25]
 [ 11   1  31   8 129]]
Accuracy: 0.6333333333333333
Elapsed Time: 20:55:39.87
# zcols: 120
# samples: 900
# features: 140160
[[135  35  10   0   0]
 [ 17  87  72   0   4]
 [  7  43 109  19   2]
 [  7   0  39 106  28]
 [  9   1  27  14 129]]
Accuracy: 0.6288888888888889
Elapsed Time: 21:09:54.15
# zcols: 127
# samples: 900
# features: 148336
[[136  32  12   0   0]
 [ 18  83  75   0   4]
 [  9  46 104  19   2]
 [  7   0  39 107  27]
 [ 11   1  28  10 130]]
Accuracy: 0.6222222222222222
Elapsed Time: 21:25:01.13

Process finished with exit code 0
